(export (version D)
  (design
    (source "/Users/Augustin/OneDrive - Nexus365/Oxford/equipmentProjects/moritzGroup_ELQE/PCBs/riede_ELQE_holderContactBoard/riede_ELQE_holderContactBoard.sch")
    (date "Tuesday, 23 November 2021 at 06:45:14 am")
    (tool "Eeschema (5.1.5-0)")
    (sheet (number 1) (name /) (tstamps /)
      (title_block
        (title)
        (company)
        (rev)
        (date)
        (source riede_ELQE_holderContactBoard.sch)
        (comment (number 1) (value ""))
        (comment (number 2) (value ""))
        (comment (number 3) (value ""))
        (comment (number 4) (value "")))))
  (components
    (comp (ref J9)
      (value Conn_02x06_Odd_Even)
      (footprint Connector_PinHeader_2.54mm:PinHeader_2x06_P2.54mm_Vertical)
      (datasheet ~)
      (libsource (lib Connector_Generic) (part Conn_02x06_Odd_Even) (description "Generic connector, double row, 02x06, odd/even pin numbering scheme (row 1 odd numbers, row 2 even numbers), script generated (kicad-library-utils/schlib/autogen/connector/)"))
      (sheetpath (names /) (tstamps /))
      (tstamp 619B1345))
    (comp (ref J10)
      (value Conn_02x06_Odd_Even)
      (footprint Connector_PinHeader_2.54mm:PinHeader_2x06_P2.54mm_Vertical)
      (datasheet ~)
      (libsource (lib Connector_Generic) (part Conn_02x06_Odd_Even) (description "Generic connector, double row, 02x06, odd/even pin numbering scheme (row 1 odd numbers, row 2 even numbers), script generated (kicad-library-utils/schlib/autogen/connector/)"))
      (sheetpath (names /) (tstamps /))
      (tstamp 619B3E3C))
    (comp (ref J1)
      (value Conn_01x01)
      (footprint myParts:pogoPin)
      (datasheet ~)
      (libsource (lib Connector_Generic) (part Conn_01x01) (description "Generic connector, single row, 01x01, script generated (kicad-library-utils/schlib/autogen/connector/)"))
      (sheetpath (names /) (tstamps /))
      (tstamp 619B9EEF))
    (comp (ref J2)
      (value Conn_01x01)
      (footprint myParts:pogoPin)
      (datasheet ~)
      (libsource (lib Connector_Generic) (part Conn_01x01) (description "Generic connector, single row, 01x01, script generated (kicad-library-utils/schlib/autogen/connector/)"))
      (sheetpath (names /) (tstamps /))
      (tstamp 619BAF08))
    (comp (ref J3)
      (value Conn_01x01)
      (footprint myParts:pogoPin)
      (datasheet ~)
      (libsource (lib Connector_Generic) (part Conn_01x01) (description "Generic connector, single row, 01x01, script generated (kicad-library-utils/schlib/autogen/connector/)"))
      (sheetpath (names /) (tstamps /))
      (tstamp 619BE118))
    (comp (ref J4)
      (value Conn_01x01)
      (footprint myParts:pogoPin)
      (datasheet ~)
      (libsource (lib Connector_Generic) (part Conn_01x01) (description "Generic connector, single row, 01x01, script generated (kicad-library-utils/schlib/autogen/connector/)"))
      (sheetpath (names /) (tstamps /))
      (tstamp 619BE11E))
    (comp (ref J5)
      (value Conn_01x01)
      (footprint myParts:pogoPin)
      (datasheet ~)
      (libsource (lib Connector_Generic) (part Conn_01x01) (description "Generic connector, single row, 01x01, script generated (kicad-library-utils/schlib/autogen/connector/)"))
      (sheetpath (names /) (tstamps /))
      (tstamp 619BE8B2))
    (comp (ref J6)
      (value Conn_01x01)
      (footprint myParts:pogoPin)
      (datasheet ~)
      (libsource (lib Connector_Generic) (part Conn_01x01) (description "Generic connector, single row, 01x01, script generated (kicad-library-utils/schlib/autogen/connector/)"))
      (sheetpath (names /) (tstamps /))
      (tstamp 619BE8B8))
    (comp (ref J7)
      (value Conn_01x01)
      (footprint myParts:pogoPin)
      (datasheet ~)
      (libsource (lib Connector_Generic) (part Conn_01x01) (description "Generic connector, single row, 01x01, script generated (kicad-library-utils/schlib/autogen/connector/)"))
      (sheetpath (names /) (tstamps /))
      (tstamp 619BF40C))
    (comp (ref J8)
      (value Conn_01x01)
      (footprint myParts:pogoPin)
      (datasheet ~)
      (libsource (lib Connector_Generic) (part Conn_01x01) (description "Generic connector, single row, 01x01, script generated (kicad-library-utils/schlib/autogen/connector/)"))
      (sheetpath (names /) (tstamps /))
      (tstamp 619BF412))
    (comp (ref J11)
      (value Conn_01x01)
      (footprint myParts:pogoPin)
      (datasheet ~)
      (libsource (lib Connector_Generic) (part Conn_01x01) (description "Generic connector, single row, 01x01, script generated (kicad-library-utils/schlib/autogen/connector/)"))
      (sheetpath (names /) (tstamps /))
      (tstamp 619C1E0B))
    (comp (ref J12)
      (value Conn_01x01)
      (footprint myParts:pogoPin)
      (datasheet ~)
      (libsource (lib Connector_Generic) (part Conn_01x01) (description "Generic connector, single row, 01x01, script generated (kicad-library-utils/schlib/autogen/connector/)"))
      (sheetpath (names /) (tstamps /))
      (tstamp 619C3078))
    (comp (ref J13)
      (value Conn_01x01)
      (footprint myParts:pogoPin)
      (datasheet ~)
      (libsource (lib Connector_Generic) (part Conn_01x01) (description "Generic connector, single row, 01x01, script generated (kicad-library-utils/schlib/autogen/connector/)"))
      (sheetpath (names /) (tstamps /))
      (tstamp 619C3CE0))
    (comp (ref J14)
      (value Conn_01x01)
      (footprint myParts:pogoPin)
      (datasheet ~)
      (libsource (lib Connector_Generic) (part Conn_01x01) (description "Generic connector, single row, 01x01, script generated (kicad-library-utils/schlib/autogen/connector/)"))
      (sheetpath (names /) (tstamps /))
      (tstamp 619C3CE6))
    (comp (ref J15)
      (value Conn_01x01)
      (footprint myParts:pogoPin)
      (datasheet ~)
      (libsource (lib Connector_Generic) (part Conn_01x01) (description "Generic connector, single row, 01x01, script generated (kicad-library-utils/schlib/autogen/connector/)"))
      (sheetpath (names /) (tstamps /))
      (tstamp 619C456A))
    (comp (ref J16)
      (value Conn_01x01)
      (footprint myParts:pogoPin)
      (datasheet ~)
      (libsource (lib Connector_Generic) (part Conn_01x01) (description "Generic connector, single row, 01x01, script generated (kicad-library-utils/schlib/autogen/connector/)"))
      (sheetpath (names /) (tstamps /))
      (tstamp 619C4570))
    (comp (ref J17)
      (value Conn_01x01)
      (footprint myParts:pogoPin)
      (datasheet ~)
      (libsource (lib Connector_Generic) (part Conn_01x01) (description "Generic connector, single row, 01x01, script generated (kicad-library-utils/schlib/autogen/connector/)"))
      (sheetpath (names /) (tstamps /))
      (tstamp 619C5344))
    (comp (ref J18)
      (value Conn_01x01)
      (footprint myParts:pogoPin)
      (datasheet ~)
      (libsource (lib Connector_Generic) (part Conn_01x01) (description "Generic connector, single row, 01x01, script generated (kicad-library-utils/schlib/autogen/connector/)"))
      (sheetpath (names /) (tstamps /))
      (tstamp 619C534A))
    (comp (ref H1)
      (value MountingHole_Pad)
      (footprint Mounting_Holes:MountingHole_2.7mm_M2.5_Pad_Via)
      (datasheet ~)
      (libsource (lib Mechanical) (part MountingHole_Pad) (description "Mounting Hole with connection"))
      (sheetpath (names /) (tstamps /))
      (tstamp 619C6550))
    (comp (ref H2)
      (value MountingHole_Pad)
      (footprint Mounting_Holes:MountingHole_2.7mm_M2.5_Pad_Via)
      (datasheet ~)
      (libsource (lib Mechanical) (part MountingHole_Pad) (description "Mounting Hole with connection"))
      (sheetpath (names /) (tstamps /))
      (tstamp 619C8258))
    (comp (ref H3)
      (value MountingHole_Pad)
      (footprint Mounting_Holes:MountingHole_2.7mm_M2.5_Pad_Via)
      (datasheet ~)
      (libsource (lib Mechanical) (part MountingHole_Pad) (description "Mounting Hole with connection"))
      (sheetpath (names /) (tstamps /))
      (tstamp 619C91C3))
    (comp (ref H4)
      (value MountingHole_Pad)
      (footprint Mounting_Holes:MountingHole_2.7mm_M2.5_Pad_Via)
      (datasheet ~)
      (libsource (lib Mechanical) (part MountingHole_Pad) (description "Mounting Hole with connection"))
      (sheetpath (names /) (tstamps /))
      (tstamp 619C91C9))
    (comp (ref H5)
      (value MountingHole_Pad)
      (footprint Mounting_Holes:MountingHole_2.7mm_M2.5_Pad_Via)
      (datasheet ~)
      (libsource (lib Mechanical) (part MountingHole_Pad) (description "Mounting Hole with connection"))
      (sheetpath (names /) (tstamps /))
      (tstamp 619C9A05))
    (comp (ref H6)
      (value MountingHole_Pad)
      (footprint Mounting_Holes:MountingHole_2.7mm_M2.5_Pad_Via)
      (datasheet ~)
      (libsource (lib Mechanical) (part MountingHole_Pad) (description "Mounting Hole with connection"))
      (sheetpath (names /) (tstamps /))
      (tstamp 619C9A0B))
    (comp (ref H7)
      (value MountingHole_Pad)
      (footprint Mounting_Holes:MountingHole_2.7mm_M2.5_Pad_Via)
      (datasheet ~)
      (libsource (lib Mechanical) (part MountingHole_Pad) (description "Mounting Hole with connection"))
      (sheetpath (names /) (tstamps /))
      (tstamp 619CA2FB))
    (comp (ref H8)
      (value MountingHole_Pad)
      (footprint Mounting_Holes:MountingHole_2.7mm_M2.5_Pad_Via)
      (datasheet ~)
      (libsource (lib Mechanical) (part MountingHole_Pad) (description "Mounting Hole with connection"))
      (sheetpath (names /) (tstamps /))
      (tstamp 619CA301))
    (comp (ref J19)
      (value Conn_01x01)
      (footprint myParts:pogoPin)
      (datasheet ~)
      (libsource (lib Connector_Generic) (part Conn_01x01) (description "Generic connector, single row, 01x01, script generated (kicad-library-utils/schlib/autogen/connector/)"))
      (sheetpath (names /) (tstamps /))
      (tstamp 619E2F73))
    (comp (ref J21)
      (value Conn_01x01)
      (footprint myParts:pogoPin)
      (datasheet ~)
      (libsource (lib Connector_Generic) (part Conn_01x01) (description "Generic connector, single row, 01x01, script generated (kicad-library-utils/schlib/autogen/connector/)"))
      (sheetpath (names /) (tstamps /))
      (tstamp 619E37B7))
    (comp (ref J20)
      (value Conn_01x01)
      (footprint myParts:pogoPin)
      (datasheet ~)
      (libsource (lib Connector_Generic) (part Conn_01x01) (description "Generic connector, single row, 01x01, script generated (kicad-library-utils/schlib/autogen/connector/)"))
      (sheetpath (names /) (tstamps /))
      (tstamp 619E5F6C))
    (comp (ref J22)
      (value Conn_01x01)
      (footprint myParts:pogoPin)
      (datasheet ~)
      (libsource (lib Connector_Generic) (part Conn_01x01) (description "Generic connector, single row, 01x01, script generated (kicad-library-utils/schlib/autogen/connector/)"))
      (sheetpath (names /) (tstamps /))
      (tstamp 619E5F72)))
  (libparts
    (libpart (lib Connector_Generic) (part Conn_01x01)
      (description "Generic connector, single row, 01x01, script generated (kicad-library-utils/schlib/autogen/connector/)")
      (docs ~)
      (footprints
        (fp Connector*:*_1x??_*))
      (fields
        (field (name Reference) J)
        (field (name Value) Conn_01x01))
      (pins
        (pin (num 1) (name Pin_1) (type passive))))
    (libpart (lib Connector_Generic) (part Conn_02x06_Odd_Even)
      (description "Generic connector, double row, 02x06, odd/even pin numbering scheme (row 1 odd numbers, row 2 even numbers), script generated (kicad-library-utils/schlib/autogen/connector/)")
      (docs ~)
      (footprints
        (fp Connector*:*_2x??_*))
      (fields
        (field (name Reference) J)
        (field (name Value) Conn_02x06_Odd_Even))
      (pins
        (pin (num 1) (name Pin_1) (type passive))
        (pin (num 2) (name Pin_2) (type passive))
        (pin (num 3) (name Pin_3) (type passive))
        (pin (num 4) (name Pin_4) (type passive))
        (pin (num 5) (name Pin_5) (type passive))
        (pin (num 6) (name Pin_6) (type passive))
        (pin (num 7) (name Pin_7) (type passive))
        (pin (num 8) (name Pin_8) (type passive))
        (pin (num 9) (name Pin_9) (type passive))
        (pin (num 10) (name Pin_10) (type passive))
        (pin (num 11) (name Pin_11) (type passive))
        (pin (num 12) (name Pin_12) (type passive))))
    (libpart (lib Mechanical) (part MountingHole_Pad)
      (description "Mounting Hole with connection")
      (docs ~)
      (footprints
        (fp MountingHole*Pad*))
      (fields
        (field (name Reference) H)
        (field (name Value) MountingHole_Pad))
      (pins
        (pin (num 1) (name 1) (type input)))))
  (libraries
    (library (logical Connector_Generic)
      (uri "/Library/Application Support/kicad/library/Connector_Generic.lib"))
    (library (logical Mechanical)
      (uri "/Library/Application Support/kicad/library/Mechanical.lib")))
  (nets
    (net (code 1) (name pixel_2_A)
      (node (ref J9) (pin 1))
      (node (ref J8) (pin 1)))
    (net (code 2) (name pixel_8_A)
      (node (ref J9) (pin 10))
      (node (ref J2) (pin 1)))
    (net (code 3) (name pixel_6_B)
      (node (ref J9) (pin 11))
      (node (ref J3) (pin 1)))
    (net (code 4) (name pixel_8_B)
      (node (ref J1) (pin 1))
      (node (ref J9) (pin 12)))
    (net (code 5) (name "Net-(J9-Pad2)")
      (node (ref J9) (pin 2)))
    (net (code 6) (name pixel_2_B)
      (node (ref J9) (pin 3))
      (node (ref J7) (pin 1)))
    (net (code 7) (name "Net-(J9-Pad4)")
      (node (ref J9) (pin 4)))
    (net (code 8) (name pixel_4_A)
      (node (ref J9) (pin 5))
      (node (ref J6) (pin 1)))
    (net (code 9) (name TCO_B)
      (node (ref J21) (pin 1))
      (node (ref J20) (pin 1))
      (node (ref J10) (pin 7))
      (node (ref J9) (pin 6)))
    (net (code 10) (name pixel_4_B)
      (node (ref J9) (pin 7))
      (node (ref J5) (pin 1)))
    (net (code 11) (name TCO_A)
      (node (ref J19) (pin 1))
      (node (ref J10) (pin 5))
      (node (ref J9) (pin 8))
      (node (ref J22) (pin 1)))
    (net (code 12) (name pixel_6_A)
      (node (ref J4) (pin 1))
      (node (ref J9) (pin 9)))
    (net (code 13) (name "Net-(J10-Pad1)")
      (node (ref J10) (pin 1)))
    (net (code 14) (name pixel_5_A)
      (node (ref J10) (pin 10))
      (node (ref J14) (pin 1)))
    (net (code 15) (name pixel_7_B)
      (node (ref J10) (pin 11))
      (node (ref J11) (pin 1)))
    (net (code 16) (name pixel_5_B)
      (node (ref J10) (pin 12))
      (node (ref J13) (pin 1)))
    (net (code 17) (name pixel_1_A)
      (node (ref J10) (pin 2))
      (node (ref J18) (pin 1)))
    (net (code 18) (name "Net-(J10-Pad3)")
      (node (ref J10) (pin 3)))
    (net (code 19) (name pixel_1_B)
      (node (ref J10) (pin 4))
      (node (ref J17) (pin 1)))
    (net (code 20) (name pixel_3_A)
      (node (ref J16) (pin 1))
      (node (ref J10) (pin 6)))
    (net (code 21) (name pixel_3_B)
      (node (ref J10) (pin 8))
      (node (ref J15) (pin 1)))
    (net (code 22) (name pixel_7_A)
      (node (ref J10) (pin 9))
      (node (ref J12) (pin 1)))
    (net (code 23) (name mountingHole)
      (node (ref H2) (pin 1))
      (node (ref H3) (pin 1))
      (node (ref H4) (pin 1))
      (node (ref H5) (pin 1))
      (node (ref H6) (pin 1))
      (node (ref H7) (pin 1))
      (node (ref H8) (pin 1))
      (node (ref H1) (pin 1)))))