%!PS-Adobe-3.0
%%Creator: PCBNEW
%%CreationDate: Fri Apr  8 14:25:18 2022
%%Title: /Users/Augustin/OneDrive - Nexus365/Oxford/equipmentProjects/moritzGroup_ELQE/PCBs/riede_ELQE_holderContactBoard/20220407_export/riede_ELQE_holderContactBoard-NPTH-drl_map.ps
%%Pages: 1
%%PageOrder: Ascend
%%BoundingBox: 0 0 596 842
%%DocumentMedia: A4 595 842 0 () ()
%%Orientation: Landscape
%%EndComments
%%BeginProlog
/line { newpath moveto lineto stroke } bind def
/cir0 { newpath 0 360 arc stroke } bind def
/cir1 { newpath 0 360 arc gsave fill grestore stroke } bind def
/cir2 { newpath 0 360 arc gsave fill grestore stroke } bind def
/arc0 { newpath arc stroke } bind def
/arc1 { newpath 4 index 4 index moveto arc closepath gsave fill
    grestore stroke } bind def
/arc2 { newpath 4 index 4 index moveto arc closepath gsave fill
    grestore stroke } bind def
/poly0 { stroke } bind def
/poly1 { closepath gsave fill grestore stroke } bind def
/poly2 { closepath gsave fill grestore stroke } bind def
/rect0 { rectstroke } bind def
/rect1 { rectfill } bind def
/rect2 { rectfill } bind def
/linemode0 { 0 setlinecap 0 setlinejoin 0 setlinewidth } bind def
/linemode1 { 1 setlinecap 1 setlinejoin } bind def
/dashedline { [200] 100 setdash } bind def
/solidline { [] 0 setdash } bind def
/phantomshow { moveto
    /KicadFont findfont 0.000001 scalefont setfont
    show } bind def
/textshow { gsave
    findfont exch scalefont setfont concat 1 scale 0 0 moveto show
    } bind def
/reencodefont {
  findfont dup length dict begin
  { 1 index /FID ne
    { def }
    { pop pop } ifelse
  } forall
  /Encoding ISOLatin1Encoding def
  currentdict
  end } bind def
/KicadFont /Helvetica reencodefont definefont pop
/KicadFont-Bold /Helvetica-Bold reencodefont definefont pop
/KicadFont-Oblique /Helvetica-Oblique reencodefont definefont pop
/KicadFont-BoldOblique /Helvetica-BoldOblique reencodefont definefont pop
%%EndProlog
%%Page: 1 1
%%BeginPageSetup
gsave
0.0072 0.0072 scale
linemode1
82680 0 translate 90 rotate
88.2634 setlinewidth
%%EndPageSetup
0 0 0 setrgbcolor
34.7494 setlinewidth
newpath
46650.2 78725.6 moveto
70279.8 78725.6 lineto
stroke
0 0 0 setrgbcolor
newpath
37615.4 46061.2 moveto
37615.4 69690.8 lineto
stroke
0 0 0 setrgbcolor
newpath
79314.6 46061.2 moveto
79314.6 69690.8 lineto
stroke
0 0 0 setrgbcolor
newpath
46650.2 37026.4 moveto
70279.8 37026.4 lineto
stroke
0 0 0 setrgbcolor
39700.3 46061.2 2084.96 180 270 arc0
0 0 0 setrgbcolor
46650.2 39111.3 2084.96 180 270 arc0
0 0 0 setrgbcolor
42480.3 41891.3 2084.96 -0 90 arc0
0 0 0 setrgbcolor
newpath
42480.3 43976.3 moveto
39700.3 43976.3 lineto
stroke
0 0 0 setrgbcolor
newpath
44565.3 39111.3 moveto
44565.3 41891.3 lineto
stroke
0 0 0 setrgbcolor
77229.7 46061.2 2084.96 -90 -0 arc0
0 0 0 setrgbcolor
70279.8 39111.3 2084.96 -90 -0 arc0
0 0 0 setrgbcolor
74449.7 41891.3 2084.96 90 180 arc0
0 0 0 setrgbcolor
newpath
72364.7 41891.3 moveto
72364.7 39111.3 lineto
stroke
0 0 0 setrgbcolor
newpath
77229.7 43976.3 moveto
74449.7 43976.3 lineto
stroke
0 0 0 setrgbcolor
70279.8 76640.7 2084.96 -0 90 arc0
0 0 0 setrgbcolor
77229.7 69690.8 2084.96 -0 90 arc0
0 0 0 setrgbcolor
74449.7 73860.7 2084.96 180 270 arc0
0 0 0 setrgbcolor
newpath
74449.7 71775.7 moveto
77229.7 71775.7 lineto
stroke
0 0 0 setrgbcolor
newpath
72364.7 76640.7 moveto
72364.7 73860.7 lineto
stroke
0 0 0 setrgbcolor
39700.3 69690.8 2084.96 90 180 arc0
0 0 0 setrgbcolor
46650.2 76640.7 2084.96 90 180 arc0
0 0 0 setrgbcolor
42480.3 73860.7 2084.96 -90 -0 arc0
0 0 0 setrgbcolor
newpath
42480.3 71775.7 moveto
39700.3 71775.7 lineto
stroke
0 0 0 setrgbcolor
newpath
44565.3 76640.7 moveto
44565.3 73860.7 lineto
stroke
78.74 setlinewidth
118.11 setlinewidth
0 0 0 setrgbcolor
0 0 0 setrgbcolor
newpath
38725.7 35175.5 moveto
38725.7 36356.6 lineto
39006.9 36356.6 lineto
39175.6 36300.3 lineto
39288.1 36187.9 lineto
39344.4 36075.4 lineto
39400.6 35850.4 lineto
39400.6 35681.7 lineto
39344.4 35456.7 lineto
39288.1 35344.2 lineto
39175.6 35231.7 lineto
39006.9 35175.5 lineto
38725.7 35175.5 lineto
stroke
newpath
39906.8 35175.5 moveto
39906.8 35962.9 lineto
stroke
newpath
39906.8 35737.9 moveto
39963 35850.4 lineto
40019.3 35906.6 lineto
40131.8 35962.9 lineto
40244.2 35962.9 lineto
stroke
newpath
40637.9 35175.5 moveto
40637.9 35962.9 lineto
stroke
newpath
40637.9 36356.6 moveto
40581.7 36300.3 lineto
40637.9 36244.1 lineto
40694.2 36300.3 lineto
40637.9 36356.6 lineto
40637.9 36244.1 lineto
stroke
newpath
41369.1 35175.5 moveto
41256.6 35231.7 lineto
41200.4 35344.2 lineto
41200.4 36356.6 lineto
stroke
newpath
41987.8 35175.5 moveto
41875.3 35231.7 lineto
41819 35344.2 lineto
41819 36356.6 lineto
stroke
newpath
43337.6 35175.5 moveto
43337.6 36356.6 lineto
43731.3 35512.9 lineto
44125 36356.6 lineto
44125 35175.5 lineto
stroke
newpath
45193.6 35175.5 moveto
45193.6 35794.2 lineto
45137.4 35906.6 lineto
45024.9 35962.9 lineto
44799.9 35962.9 lineto
44687.4 35906.6 lineto
stroke
newpath
45193.6 35231.7 moveto
45081.1 35175.5 lineto
44799.9 35175.5 lineto
44687.4 35231.7 lineto
44631.2 35344.2 lineto
44631.2 35456.7 lineto
44687.4 35569.2 lineto
44799.9 35625.4 lineto
45081.1 35625.4 lineto
45193.6 35681.7 lineto
stroke
newpath
45756 35962.9 moveto
45756 34781.8 lineto
stroke
newpath
45756 35906.6 moveto
45868.5 35962.9 lineto
46093.5 35962.9 lineto
46206 35906.6 lineto
46262.2 35850.4 lineto
46318.5 35737.9 lineto
46318.5 35400.5 lineto
46262.2 35288 lineto
46206 35231.7 lineto
46093.5 35175.5 lineto
45868.5 35175.5 lineto
45756 35231.7 lineto
stroke
newpath
46824.7 35288 moveto
46880.9 35231.7 lineto
46824.7 35175.5 lineto
46768.4 35231.7 lineto
46824.7 35288 lineto
46824.7 35175.5 lineto
stroke
newpath
46824.7 35906.6 moveto
46880.9 35850.4 lineto
46824.7 35794.2 lineto
46768.4 35850.4 lineto
46824.7 35906.6 lineto
46824.7 35794.2 lineto
stroke
showpage
grestore
%%EOF
