M48
; DRILL file {KiCad (5.1.10-1-10_14)} date Friday, April 08, 2022 at 02:25:17 PM
; FORMAT={-:-/ absolute / inch / decimal}
; #@! TF.CreationDate,2022-04-08T14:25:17+01:00
; #@! TF.GenerationSoftware,Kicad,Pcbnew,(5.1.10-1-10_14)
; #@! TF.FileFunction,Plated,1,2,PTH
FMAT,2
INCH
T1C0.0197
T2C0.0394
T3C0.0630
T4C0.1063
%
G90
G05
T1
X0.1171Y-0.7874
X0.1171Y-1.5748
X0.1405Y-0.731
X0.1405Y-0.8438
X0.1405Y-1.5184
X0.1405Y-1.6312
X0.1969Y-0.7077
X0.1969Y-0.8671
X0.1969Y-1.4951
X0.1969Y-1.6545
X0.2532Y-0.731
X0.2532Y-0.8438
X0.2532Y-1.5184
X0.2532Y-1.6312
X0.2766Y-0.7874
X0.2766Y-1.5748
X0.7077Y-0.1969
X0.7077Y-2.1654
X0.731Y-0.1405
X0.731Y-0.2532
X0.731Y-2.109
X0.731Y-2.2217
X0.7874Y-0.1171
X0.7874Y-0.2766
X0.7874Y-2.0856
X0.7874Y-2.2451
X0.8438Y-0.1405
X0.8438Y-0.2532
X0.8438Y-2.109
X0.8438Y-2.2217
X0.8671Y-0.1969
X0.8671Y-2.1654
X1.4951Y-0.1969
X1.4951Y-2.1654
X1.5184Y-0.1405
X1.5184Y-0.2532
X1.5184Y-2.109
X1.5184Y-2.2217
X1.5748Y-0.1171
X1.5748Y-0.2766
X1.5748Y-2.0856
X1.5748Y-2.2451
X1.6312Y-0.1405
X1.6312Y-0.2532
X1.6312Y-2.109
X1.6312Y-2.2217
X1.6545Y-0.1969
X1.6545Y-2.1654
X2.0856Y-0.7874
X2.0856Y-1.5748
X2.109Y-0.731
X2.109Y-0.8438
X2.109Y-1.5184
X2.109Y-1.6312
X2.1654Y-0.7077
X2.1654Y-0.8671
X2.1654Y-1.4951
X2.1654Y-1.6545
X2.2217Y-0.731
X2.2217Y-0.8438
X2.2217Y-1.5184
X2.2217Y-1.6312
X2.2451Y-0.7874
X2.2451Y-1.5748
T2
X0.9311Y-0.9311
X0.9311Y-1.0311
X0.9311Y-1.1311
X0.9311Y-1.2311
X0.9311Y-1.3311
X0.9311Y-1.4311
X1.0311Y-0.9311
X1.0311Y-1.0311
X1.0311Y-1.1311
X1.0311Y-1.2311
X1.0311Y-1.3311
X1.0311Y-1.4311
X1.3311Y-0.9311
X1.3311Y-1.0311
X1.3311Y-1.1311
X1.3311Y-1.2311
X1.3311Y-1.3311
X1.3311Y-1.4311
X1.4311Y-0.9311
X1.4311Y-1.0311
X1.4311Y-1.1311
X1.4311Y-1.2311
X1.4311Y-1.3311
X1.4311Y-1.4311
T3
X0.7087Y-0.7185
X0.7087Y-0.8169
X0.7087Y-0.9941
X0.7087Y-1.0925
X0.7087Y-1.2697
X0.7087Y-1.3681
X0.7087Y-1.5453
X0.7087Y-1.6437
X1.1319Y-0.7087
X1.1319Y-1.6535
X1.2303Y-0.7087
X1.2303Y-1.6535
X1.6535Y-0.7185
X1.6535Y-0.8169
X1.6535Y-0.9941
X1.6535Y-1.0925
X1.6535Y-1.2697
X1.6535Y-1.3681
X1.6535Y-1.5453
X1.6535Y-1.6437
T4
X0.1969Y-0.7874
X0.1969Y-1.5748
X0.7874Y-0.1969
X0.7874Y-2.1654
X1.5748Y-0.1969
X1.5748Y-2.1654
X2.1654Y-0.7874
X2.1654Y-1.5748
T0
M30
