%!PS-Adobe-3.0
%%Creator: PCBNEW
%%CreationDate: Fri Apr  8 14:25:18 2022
%%Title: /Users/Augustin/OneDrive - Nexus365/Oxford/equipmentProjects/moritzGroup_ELQE/PCBs/riede_ELQE_holderContactBoard/20220407_export/riede_ELQE_holderContactBoard-PTH-drl_map.ps
%%Pages: 1
%%PageOrder: Ascend
%%BoundingBox: 0 0 596 842
%%DocumentMedia: A4 595 842 0 () ()
%%Orientation: Landscape
%%EndComments
%%BeginProlog
/line { newpath moveto lineto stroke } bind def
/cir0 { newpath 0 360 arc stroke } bind def
/cir1 { newpath 0 360 arc gsave fill grestore stroke } bind def
/cir2 { newpath 0 360 arc gsave fill grestore stroke } bind def
/arc0 { newpath arc stroke } bind def
/arc1 { newpath 4 index 4 index moveto arc closepath gsave fill
    grestore stroke } bind def
/arc2 { newpath 4 index 4 index moveto arc closepath gsave fill
    grestore stroke } bind def
/poly0 { stroke } bind def
/poly1 { closepath gsave fill grestore stroke } bind def
/poly2 { closepath gsave fill grestore stroke } bind def
/rect0 { rectstroke } bind def
/rect1 { rectfill } bind def
/rect2 { rectfill } bind def
/linemode0 { 0 setlinecap 0 setlinejoin 0 setlinewidth } bind def
/linemode1 { 1 setlinecap 1 setlinejoin } bind def
/dashedline { [200] 100 setdash } bind def
/solidline { [] 0 setdash } bind def
/phantomshow { moveto
    /KicadFont findfont 0.000001 scalefont setfont
    show } bind def
/textshow { gsave
    findfont exch scalefont setfont concat 1 scale 0 0 moveto show
    } bind def
/reencodefont {
  findfont dup length dict begin
  { 1 index /FID ne
    { def }
    { pop pop } ifelse
  } forall
  /Encoding ISOLatin1Encoding def
  currentdict
  end } bind def
/KicadFont /Helvetica reencodefont definefont pop
/KicadFont-Bold /Helvetica-Bold reencodefont definefont pop
/KicadFont-Oblique /Helvetica-Oblique reencodefont definefont pop
/KicadFont-BoldOblique /Helvetica-BoldOblique reencodefont definefont pop
%%EndProlog
%%Page: 1 1
%%BeginPageSetup
gsave
0.0072 0.0072 scale
linemode1
82680 0 translate 90 rotate
88.2634 setlinewidth
%%EndPageSetup
0 0 0 setrgbcolor
34.7494 setlinewidth
newpath
46650.2 78725.6 moveto
70279.8 78725.6 lineto
stroke
0 0 0 setrgbcolor
newpath
37615.4 46061.2 moveto
37615.4 69690.8 lineto
stroke
0 0 0 setrgbcolor
newpath
79314.6 46061.2 moveto
79314.6 69690.8 lineto
stroke
0 0 0 setrgbcolor
newpath
46650.2 37026.4 moveto
70279.8 37026.4 lineto
stroke
0 0 0 setrgbcolor
39700.3 46061.2 2084.96 180 270 arc0
0 0 0 setrgbcolor
46650.2 39111.3 2084.96 180 270 arc0
0 0 0 setrgbcolor
42480.3 41891.3 2084.96 -0 90 arc0
0 0 0 setrgbcolor
newpath
42480.3 43976.3 moveto
39700.3 43976.3 lineto
stroke
0 0 0 setrgbcolor
newpath
44565.3 39111.3 moveto
44565.3 41891.3 lineto
stroke
0 0 0 setrgbcolor
77229.7 46061.2 2084.96 -90 -0 arc0
0 0 0 setrgbcolor
70279.8 39111.3 2084.96 -90 -0 arc0
0 0 0 setrgbcolor
74449.7 41891.3 2084.96 90 180 arc0
0 0 0 setrgbcolor
newpath
72364.7 41891.3 moveto
72364.7 39111.3 lineto
stroke
0 0 0 setrgbcolor
newpath
77229.7 43976.3 moveto
74449.7 43976.3 lineto
stroke
0 0 0 setrgbcolor
70279.8 76640.7 2084.96 -0 90 arc0
0 0 0 setrgbcolor
77229.7 69690.8 2084.96 -0 90 arc0
0 0 0 setrgbcolor
74449.7 73860.7 2084.96 180 270 arc0
0 0 0 setrgbcolor
newpath
74449.7 71775.7 moveto
77229.7 71775.7 lineto
stroke
0 0 0 setrgbcolor
newpath
72364.7 76640.7 moveto
72364.7 73860.7 lineto
stroke
0 0 0 setrgbcolor
39700.3 69690.8 2084.96 90 180 arc0
0 0 0 setrgbcolor
46650.2 76640.7 2084.96 90 180 arc0
0 0 0 setrgbcolor
42480.3 73860.7 2084.96 -90 -0 arc0
0 0 0 setrgbcolor
newpath
42480.3 71775.7 moveto
39700.3 71775.7 lineto
stroke
0 0 0 setrgbcolor
newpath
44565.3 76640.7 moveto
44565.3 73860.7 lineto
stroke
78.74 setlinewidth
newpath
39509.2 64999.6 moveto
39856.7 64652.1 lineto
stroke
newpath
39856.7 64999.6 moveto
39509.2 64652.1 lineto
stroke
newpath
39509.2 51099.9 moveto
39856.7 50752.4 lineto
stroke
newpath
39856.7 51099.9 moveto
39509.2 50752.4 lineto
stroke
newpath
39921.4 65994.8 moveto
40268.9 65647.3 lineto
stroke
newpath
40268.9 65994.8 moveto
39921.4 65647.3 lineto
stroke
newpath
39921.4 64004.5 moveto
40268.9 63657 lineto
stroke
newpath
40268.9 64004.5 moveto
39921.4 63657 lineto
stroke
newpath
39921.4 52095 moveto
40268.9 51747.5 lineto
stroke
newpath
40268.9 52095 moveto
39921.4 51747.5 lineto
stroke
newpath
39921.4 50104.7 moveto
40268.9 49757.2 lineto
stroke
newpath
40268.9 50104.7 moveto
39921.4 49757.2 lineto
stroke
newpath
40916.6 66407 moveto
41264.1 66059.5 lineto
stroke
newpath
41264.1 66407 moveto
40916.6 66059.5 lineto
stroke
newpath
40916.6 63592.3 moveto
41264.1 63244.8 lineto
stroke
newpath
41264.1 63592.3 moveto
40916.6 63244.8 lineto
stroke
newpath
40916.6 52507.2 moveto
41264.1 52159.7 lineto
stroke
newpath
41264.1 52507.2 moveto
40916.6 52159.7 lineto
stroke
newpath
40916.6 49692.5 moveto
41264.1 49345 lineto
stroke
newpath
41264.1 49692.5 moveto
40916.6 49345 lineto
stroke
newpath
41911.7 65994.8 moveto
42259.2 65647.3 lineto
stroke
newpath
42259.2 65994.8 moveto
41911.7 65647.3 lineto
stroke
newpath
41911.7 64004.5 moveto
42259.2 63657 lineto
stroke
newpath
42259.2 64004.5 moveto
41911.7 63657 lineto
stroke
newpath
41911.7 52095 moveto
42259.2 51747.5 lineto
stroke
newpath
42259.2 52095 moveto
41911.7 51747.5 lineto
stroke
newpath
41911.7 50104.7 moveto
42259.2 49757.2 lineto
stroke
newpath
42259.2 50104.7 moveto
41911.7 49757.2 lineto
stroke
newpath
42323.9 64999.6 moveto
42671.4 64652.1 lineto
stroke
newpath
42671.4 64999.6 moveto
42323.9 64652.1 lineto
stroke
newpath
42323.9 51099.9 moveto
42671.4 50752.4 lineto
stroke
newpath
42671.4 51099.9 moveto
42323.9 50752.4 lineto
stroke
newpath
49934 75424.4 moveto
50281.5 75076.9 lineto
stroke
newpath
50281.5 75424.4 moveto
49934 75076.9 lineto
stroke
newpath
49934 40675.1 moveto
50281.5 40327.6 lineto
stroke
newpath
50281.5 40675.1 moveto
49934 40327.6 lineto
stroke
newpath
50346.2 76419.6 moveto
50693.7 76072.1 lineto
stroke
newpath
50693.7 76419.6 moveto
50346.2 76072.1 lineto
stroke
newpath
50346.2 74429.3 moveto
50693.7 74081.8 lineto
stroke
newpath
50693.7 74429.3 moveto
50346.2 74081.8 lineto
stroke
newpath
50346.2 41670.2 moveto
50693.7 41322.7 lineto
stroke
newpath
50693.7 41670.2 moveto
50346.2 41322.7 lineto
stroke
newpath
50346.2 39679.9 moveto
50693.7 39332.4 lineto
stroke
newpath
50693.7 39679.9 moveto
50346.2 39332.4 lineto
stroke
newpath
51341.4 76831.8 moveto
51688.9 76484.3 lineto
stroke
newpath
51688.9 76831.8 moveto
51341.4 76484.3 lineto
stroke
newpath
51341.4 74017.1 moveto
51688.9 73669.6 lineto
stroke
newpath
51688.9 74017.1 moveto
51341.4 73669.6 lineto
stroke
newpath
51341.4 42082.4 moveto
51688.9 41734.9 lineto
stroke
newpath
51688.9 42082.4 moveto
51341.4 41734.9 lineto
stroke
newpath
51341.4 39267.7 moveto
51688.9 38920.2 lineto
stroke
newpath
51688.9 39267.7 moveto
51341.4 38920.2 lineto
stroke
newpath
52336.5 76419.6 moveto
52684 76072.1 lineto
stroke
newpath
52684 76419.6 moveto
52336.5 76072.1 lineto
stroke
newpath
52336.5 74429.3 moveto
52684 74081.8 lineto
stroke
newpath
52684 74429.3 moveto
52336.5 74081.8 lineto
stroke
newpath
52336.5 41670.2 moveto
52684 41322.7 lineto
stroke
newpath
52684 41670.2 moveto
52336.5 41322.7 lineto
stroke
newpath
52336.5 39679.9 moveto
52684 39332.4 lineto
stroke
newpath
52684 39679.9 moveto
52336.5 39332.4 lineto
stroke
newpath
52748.7 75424.4 moveto
53096.2 75076.9 lineto
stroke
newpath
53096.2 75424.4 moveto
52748.7 75076.9 lineto
stroke
newpath
52748.7 40675.1 moveto
53096.2 40327.6 lineto
stroke
newpath
53096.2 40675.1 moveto
52748.7 40327.6 lineto
stroke
newpath
63833.8 75424.4 moveto
64181.3 75076.9 lineto
stroke
newpath
64181.3 75424.4 moveto
63833.8 75076.9 lineto
stroke
newpath
63833.8 40675.1 moveto
64181.3 40327.6 lineto
stroke
newpath
64181.3 40675.1 moveto
63833.8 40327.6 lineto
stroke
newpath
64246 76419.6 moveto
64593.5 76072.1 lineto
stroke
newpath
64593.5 76419.6 moveto
64246 76072.1 lineto
stroke
newpath
64246 74429.3 moveto
64593.5 74081.8 lineto
stroke
newpath
64593.5 74429.3 moveto
64246 74081.8 lineto
stroke
newpath
64246 41670.2 moveto
64593.5 41322.7 lineto
stroke
newpath
64593.5 41670.2 moveto
64246 41322.7 lineto
stroke
newpath
64246 39679.9 moveto
64593.5 39332.4 lineto
stroke
newpath
64593.5 39679.9 moveto
64246 39332.4 lineto
stroke
newpath
65241.1 76831.8 moveto
65588.6 76484.3 lineto
stroke
newpath
65588.6 76831.8 moveto
65241.1 76484.3 lineto
stroke
newpath
65241.1 74017.1 moveto
65588.6 73669.6 lineto
stroke
newpath
65588.6 74017.1 moveto
65241.1 73669.6 lineto
stroke
newpath
65241.1 42082.4 moveto
65588.6 41734.9 lineto
stroke
newpath
65588.6 42082.4 moveto
65241.1 41734.9 lineto
stroke
newpath
65241.1 39267.7 moveto
65588.6 38920.2 lineto
stroke
newpath
65588.6 39267.7 moveto
65241.1 38920.2 lineto
stroke
newpath
66236.3 76419.6 moveto
66583.8 76072.1 lineto
stroke
newpath
66583.8 76419.6 moveto
66236.3 76072.1 lineto
stroke
newpath
66236.3 74429.3 moveto
66583.8 74081.8 lineto
stroke
newpath
66583.8 74429.3 moveto
66236.3 74081.8 lineto
stroke
newpath
66236.3 41670.2 moveto
66583.8 41322.7 lineto
stroke
newpath
66583.8 41670.2 moveto
66236.3 41322.7 lineto
stroke
newpath
66236.3 39679.9 moveto
66583.8 39332.4 lineto
stroke
newpath
66583.8 39679.9 moveto
66236.3 39332.4 lineto
stroke
newpath
66648.5 75424.4 moveto
66996 75076.9 lineto
stroke
newpath
66996 75424.4 moveto
66648.5 75076.9 lineto
stroke
newpath
66648.5 40675.1 moveto
66996 40327.6 lineto
stroke
newpath
66996 40675.1 moveto
66648.5 40327.6 lineto
stroke
newpath
74258.6 64999.6 moveto
74606.1 64652.1 lineto
stroke
newpath
74606.1 64999.6 moveto
74258.6 64652.1 lineto
stroke
newpath
74258.6 51099.9 moveto
74606.1 50752.4 lineto
stroke
newpath
74606.1 51099.9 moveto
74258.6 50752.4 lineto
stroke
newpath
74670.8 65994.8 moveto
75018.3 65647.3 lineto
stroke
newpath
75018.3 65994.8 moveto
74670.8 65647.3 lineto
stroke
newpath
74670.8 64004.5 moveto
75018.3 63657 lineto
stroke
newpath
75018.3 64004.5 moveto
74670.8 63657 lineto
stroke
newpath
74670.8 52095 moveto
75018.3 51747.5 lineto
stroke
newpath
75018.3 52095 moveto
74670.8 51747.5 lineto
stroke
newpath
74670.8 50104.7 moveto
75018.3 49757.2 lineto
stroke
newpath
75018.3 50104.7 moveto
74670.8 49757.2 lineto
stroke
newpath
75665.9 66407 moveto
76013.4 66059.5 lineto
stroke
newpath
76013.4 66407 moveto
75665.9 66059.5 lineto
stroke
newpath
75665.9 63592.3 moveto
76013.4 63244.8 lineto
stroke
newpath
76013.4 63592.3 moveto
75665.9 63244.8 lineto
stroke
newpath
75665.9 52507.2 moveto
76013.4 52159.7 lineto
stroke
newpath
76013.4 52507.2 moveto
75665.9 52159.7 lineto
stroke
newpath
75665.9 49692.5 moveto
76013.4 49345 lineto
stroke
newpath
76013.4 49692.5 moveto
75665.9 49345 lineto
stroke
newpath
76661.1 65994.8 moveto
77008.6 65647.3 lineto
stroke
newpath
77008.6 65994.8 moveto
76661.1 65647.3 lineto
stroke
newpath
76661.1 64004.5 moveto
77008.6 63657 lineto
stroke
newpath
77008.6 64004.5 moveto
76661.1 63657 lineto
stroke
newpath
76661.1 52095 moveto
77008.6 51747.5 lineto
stroke
newpath
77008.6 52095 moveto
76661.1 51747.5 lineto
stroke
newpath
76661.1 50104.7 moveto
77008.6 49757.2 lineto
stroke
newpath
77008.6 50104.7 moveto
76661.1 49757.2 lineto
stroke
newpath
77073.3 64999.6 moveto
77420.8 64652.1 lineto
stroke
newpath
77420.8 64999.6 moveto
77073.3 64652.1 lineto
stroke
newpath
77073.3 51099.9 moveto
77420.8 50752.4 lineto
stroke
newpath
77420.8 51099.9 moveto
77073.3 50752.4 lineto
stroke
54051.8 62289.2 347.494 cir0
54051.8 60523.9 347.494 cir0
54051.8 58758.6 347.494 cir0
54051.8 56993.4 347.494 cir0
54051.8 55228.1 347.494 cir0
54051.8 53462.8 347.494 cir0
55817.1 62289.2 347.494 cir0
55817.1 60523.9 347.494 cir0
55817.1 58758.6 347.494 cir0
55817.1 56993.4 347.494 cir0
55817.1 55228.1 347.494 cir0
55817.1 53462.8 347.494 cir0
61112.9 62289.2 347.494 cir0
61112.9 60523.9 347.494 cir0
61112.9 58758.6 347.494 cir0
61112.9 56993.4 347.494 cir0
61112.9 55228.1 347.494 cir0
61112.9 53462.8 347.494 cir0
62878.2 62289.2 347.494 cir0
62878.2 60523.9 347.494 cir0
62878.2 58758.6 347.494 cir0
62878.2 56993.4 347.494 cir0
62878.2 55228.1 347.494 cir0
62878.2 53462.8 347.494 cir0
newpath
50125.2 66598.1 moveto
50125.2 65486.1 lineto
stroke
newpath
49569.2 66042.1 moveto
50681.1 66042.1 lineto
stroke
newpath
50125.2 64860.6 moveto
50125.2 63748.6 lineto
stroke
newpath
49569.2 64304.6 moveto
50681.1 64304.6 lineto
stroke
newpath
50125.2 61733.2 moveto
50125.2 60621.2 lineto
stroke
newpath
49569.2 61177.2 moveto
50681.1 61177.2 lineto
stroke
newpath
50125.2 59995.7 moveto
50125.2 58883.7 lineto
stroke
newpath
49569.2 59439.7 moveto
50681.1 59439.7 lineto
stroke
newpath
50125.2 56868.3 moveto
50125.2 55756.3 lineto
stroke
newpath
49569.2 56312.3 moveto
50681.1 56312.3 lineto
stroke
newpath
50125.2 55130.8 moveto
50125.2 54018.8 lineto
stroke
newpath
49569.2 54574.8 moveto
50681.1 54574.8 lineto
stroke
newpath
50125.2 52003.4 moveto
50125.2 50891.4 lineto
stroke
newpath
49569.2 51447.4 moveto
50681.1 51447.4 lineto
stroke
newpath
50125.2 50265.9 moveto
50125.2 49153.9 lineto
stroke
newpath
49569.2 49709.9 moveto
50681.1 49709.9 lineto
stroke
newpath
57596.3 66771.8 moveto
57596.3 65659.9 lineto
stroke
newpath
57040.3 66215.8 moveto
58152.3 66215.8 lineto
stroke
newpath
57596.3 50092.1 moveto
57596.3 48980.2 lineto
stroke
newpath
57040.3 49536.2 moveto
58152.3 49536.2 lineto
stroke
newpath
59333.7 66771.8 moveto
59333.7 65659.9 lineto
stroke
newpath
58777.7 66215.8 moveto
59889.7 66215.8 lineto
stroke
newpath
59333.7 50092.1 moveto
59333.7 48980.2 lineto
stroke
newpath
58777.7 49536.2 moveto
59889.7 49536.2 lineto
stroke
newpath
66804.8 66598.1 moveto
66804.8 65486.1 lineto
stroke
newpath
66248.9 66042.1 moveto
67360.8 66042.1 lineto
stroke
newpath
66804.8 64860.6 moveto
66804.8 63748.6 lineto
stroke
newpath
66248.9 64304.6 moveto
67360.8 64304.6 lineto
stroke
newpath
66804.8 61733.2 moveto
66804.8 60621.2 lineto
stroke
newpath
66248.9 61177.2 moveto
67360.8 61177.2 lineto
stroke
newpath
66804.8 59995.7 moveto
66804.8 58883.7 lineto
stroke
newpath
66248.9 59439.7 moveto
67360.8 59439.7 lineto
stroke
newpath
66804.8 56868.3 moveto
66804.8 55756.3 lineto
stroke
newpath
66248.9 56312.3 moveto
67360.8 56312.3 lineto
stroke
newpath
66804.8 55130.8 moveto
66804.8 54018.8 lineto
stroke
newpath
66248.9 54574.8 moveto
67360.8 54574.8 lineto
stroke
newpath
66804.8 52003.4 moveto
66804.8 50891.4 lineto
stroke
newpath
66248.9 51447.4 moveto
67360.8 51447.4 lineto
stroke
newpath
66804.8 50265.9 moveto
66804.8 49153.9 lineto
stroke
newpath
66248.9 49709.9 moveto
67360.8 49709.9 lineto
stroke
newpath
41753.8 64162.4 moveto
41753.8 65489.3 lineto
40426.9 65489.3 lineto
40426.9 64162.4 lineto
41753.8 64162.4 lineto
poly0
newpath
41753.8 50262.7 moveto
41753.8 51589.6 lineto
40426.9 51589.6 lineto
40426.9 50262.7 lineto
41753.8 50262.7 lineto
poly0
newpath
52178.6 74587.2 moveto
52178.6 75914.1 lineto
50851.7 75914.1 lineto
50851.7 74587.2 lineto
52178.6 74587.2 lineto
poly0
newpath
52178.6 39837.9 moveto
52178.6 41164.8 lineto
50851.7 41164.8 lineto
50851.7 39837.9 lineto
52178.6 39837.9 lineto
poly0
newpath
66078.3 74587.2 moveto
66078.3 75914.1 lineto
64751.4 75914.1 lineto
64751.4 74587.2 lineto
66078.3 74587.2 lineto
poly0
newpath
66078.3 39837.9 moveto
66078.3 41164.8 lineto
64751.4 41164.8 lineto
64751.4 39837.9 lineto
66078.3 39837.9 lineto
poly0
newpath
76503.1 64162.4 moveto
76503.1 65489.3 lineto
75176.2 65489.3 lineto
75176.2 64162.4 lineto
76503.1 64162.4 lineto
poly0
newpath
76503.1 50262.7 moveto
76503.1 51589.6 lineto
75176.2 51589.6 lineto
75176.2 50262.7 lineto
76503.1 50262.7 lineto
poly0
118.11 setlinewidth
0 0 0 setrgbcolor
0 0 0 setrgbcolor
newpath
38725.7 35175.5 moveto
38725.7 36356.6 lineto
39006.9 36356.6 lineto
39175.6 36300.3 lineto
39288.1 36187.9 lineto
39344.4 36075.4 lineto
39400.6 35850.4 lineto
39400.6 35681.7 lineto
39344.4 35456.7 lineto
39288.1 35344.2 lineto
39175.6 35231.7 lineto
39006.9 35175.5 lineto
38725.7 35175.5 lineto
stroke
newpath
39906.8 35175.5 moveto
39906.8 35962.9 lineto
stroke
newpath
39906.8 35737.9 moveto
39963 35850.4 lineto
40019.3 35906.6 lineto
40131.8 35962.9 lineto
40244.2 35962.9 lineto
stroke
newpath
40637.9 35175.5 moveto
40637.9 35962.9 lineto
stroke
newpath
40637.9 36356.6 moveto
40581.7 36300.3 lineto
40637.9 36244.1 lineto
40694.2 36300.3 lineto
40637.9 36356.6 lineto
40637.9 36244.1 lineto
stroke
newpath
41369.1 35175.5 moveto
41256.6 35231.7 lineto
41200.4 35344.2 lineto
41200.4 36356.6 lineto
stroke
newpath
41987.8 35175.5 moveto
41875.3 35231.7 lineto
41819 35344.2 lineto
41819 36356.6 lineto
stroke
newpath
43337.6 35175.5 moveto
43337.6 36356.6 lineto
43731.3 35512.9 lineto
44125 36356.6 lineto
44125 35175.5 lineto
stroke
newpath
45193.6 35175.5 moveto
45193.6 35794.2 lineto
45137.4 35906.6 lineto
45024.9 35962.9 lineto
44799.9 35962.9 lineto
44687.4 35906.6 lineto
stroke
newpath
45193.6 35231.7 moveto
45081.1 35175.5 lineto
44799.9 35175.5 lineto
44687.4 35231.7 lineto
44631.2 35344.2 lineto
44631.2 35456.7 lineto
44687.4 35569.2 lineto
44799.9 35625.4 lineto
45081.1 35625.4 lineto
45193.6 35681.7 lineto
stroke
newpath
45756 35962.9 moveto
45756 34781.8 lineto
stroke
newpath
45756 35906.6 moveto
45868.5 35962.9 lineto
46093.5 35962.9 lineto
46206 35906.6 lineto
46262.2 35850.4 lineto
46318.5 35737.9 lineto
46318.5 35400.5 lineto
46262.2 35288 lineto
46206 35231.7 lineto
46093.5 35175.5 lineto
45868.5 35175.5 lineto
45756 35231.7 lineto
stroke
newpath
46824.7 35288 moveto
46880.9 35231.7 lineto
46824.7 35175.5 lineto
46768.4 35231.7 lineto
46824.7 35288 lineto
46824.7 35175.5 lineto
stroke
newpath
46824.7 35906.6 moveto
46880.9 35850.4 lineto
46824.7 35794.2 lineto
46768.4 35850.4 lineto
46824.7 35906.6 lineto
46824.7 35794.2 lineto
stroke
newpath
37250.5 33403.2 moveto
37598 33055.7 lineto
stroke
newpath
37598 33403.2 moveto
37250.5 33055.7 lineto
stroke
0 0 0 setrgbcolor
0 0 0 setrgbcolor
newpath
38950.7 33876.3 moveto
39063.1 33876.3 lineto
39175.6 33820 lineto
39231.9 33763.8 lineto
39288.1 33651.3 lineto
39344.4 33426.3 lineto
39344.4 33145.1 lineto
39288.1 32920.1 lineto
39231.9 32807.7 lineto
39175.6 32751.4 lineto
39063.1 32695.2 lineto
38950.7 32695.2 lineto
38838.2 32751.4 lineto
38781.9 32807.7 lineto
38725.7 32920.1 lineto
38669.4 33145.1 lineto
38669.4 33426.3 lineto
38725.7 33651.3 lineto
38781.9 33763.8 lineto
38838.2 33820 lineto
38950.7 33876.3 lineto
stroke
newpath
39850.5 32807.7 moveto
39906.8 32751.4 lineto
39850.5 32695.2 lineto
39794.3 32751.4 lineto
39850.5 32807.7 lineto
39850.5 32695.2 lineto
stroke
newpath
40975.4 33876.3 moveto
40413 33876.3 lineto
40356.7 33313.8 lineto
40413 33370.1 lineto
40525.5 33426.3 lineto
40806.7 33426.3 lineto
40919.2 33370.1 lineto
40975.4 33313.8 lineto
41031.6 33201.4 lineto
41031.6 32920.1 lineto
40975.4 32807.7 lineto
40919.2 32751.4 lineto
40806.7 32695.2 lineto
40525.5 32695.2 lineto
40413 32751.4 lineto
40356.7 32807.7 lineto
stroke
newpath
41762.8 33876.3 moveto
41875.3 33876.3 lineto
41987.8 33820 lineto
42044 33763.8 lineto
42100.3 33651.3 lineto
42156.5 33426.3 lineto
42156.5 33145.1 lineto
42100.3 32920.1 lineto
42044 32807.7 lineto
41987.8 32751.4 lineto
41875.3 32695.2 lineto
41762.8 32695.2 lineto
41650.3 32751.4 lineto
41594.1 32807.7 lineto
41537.8 32920.1 lineto
41481.6 33145.1 lineto
41481.6 33426.3 lineto
41537.8 33651.3 lineto
41594.1 33763.8 lineto
41650.3 33820 lineto
41762.8 33876.3 lineto
stroke
newpath
42887.7 33876.3 moveto
43000.1 33876.3 lineto
43112.6 33820 lineto
43168.9 33763.8 lineto
43225.1 33651.3 lineto
43281.4 33426.3 lineto
43281.4 33145.1 lineto
43225.1 32920.1 lineto
43168.9 32807.7 lineto
43112.6 32751.4 lineto
43000.1 32695.2 lineto
42887.7 32695.2 lineto
42775.2 32751.4 lineto
42718.9 32807.7 lineto
42662.7 32920.1 lineto
42606.4 33145.1 lineto
42606.4 33426.3 lineto
42662.7 33651.3 lineto
42718.9 33763.8 lineto
42775.2 33820 lineto
42887.7 33876.3 lineto
stroke
newpath
43787.5 32695.2 moveto
43787.5 33482.6 lineto
stroke
newpath
43787.5 33370.1 moveto
43843.8 33426.3 lineto
43956.3 33482.6 lineto
44125 33482.6 lineto
44237.5 33426.3 lineto
44293.7 33313.8 lineto
44293.7 32695.2 lineto
stroke
newpath
44293.7 33313.8 moveto
44350 33426.3 lineto
44462.5 33482.6 lineto
44631.2 33482.6 lineto
44743.7 33426.3 lineto
44799.9 33313.8 lineto
44799.9 32695.2 lineto
stroke
newpath
45362.3 32695.2 moveto
45362.3 33482.6 lineto
stroke
newpath
45362.3 33370.1 moveto
45418.6 33426.3 lineto
45531.1 33482.6 lineto
45699.8 33482.6 lineto
45812.3 33426.3 lineto
45868.5 33313.8 lineto
45868.5 32695.2 lineto
stroke
newpath
45868.5 33313.8 moveto
45924.8 33426.3 lineto
46037.3 33482.6 lineto
46206 33482.6 lineto
46318.5 33426.3 lineto
46374.7 33313.8 lineto
46374.7 32695.2 lineto
stroke
newpath
48680.7 33932.5 moveto
47668.3 32414 lineto
stroke
newpath
50199.2 33876.3 moveto
50311.7 33876.3 lineto
50424.2 33820 lineto
50480.5 33763.8 lineto
50536.7 33651.3 lineto
50592.9 33426.3 lineto
50592.9 33145.1 lineto
50536.7 32920.1 lineto
50480.5 32807.7 lineto
50424.2 32751.4 lineto
50311.7 32695.2 lineto
50199.2 32695.2 lineto
50086.8 32751.4 lineto
50030.5 32807.7 lineto
49974.3 32920.1 lineto
49918 33145.1 lineto
49918 33426.3 lineto
49974.3 33651.3 lineto
50030.5 33763.8 lineto
50086.8 33820 lineto
50199.2 33876.3 lineto
stroke
newpath
51099.1 32807.7 moveto
51155.4 32751.4 lineto
51099.1 32695.2 lineto
51042.9 32751.4 lineto
51099.1 32807.7 lineto
51099.1 32695.2 lineto
stroke
newpath
51886.5 33876.3 moveto
51999 33876.3 lineto
52111.5 33820 lineto
52167.7 33763.8 lineto
52224 33651.3 lineto
52280.2 33426.3 lineto
52280.2 33145.1 lineto
52224 32920.1 lineto
52167.7 32807.7 lineto
52111.5 32751.4 lineto
51999 32695.2 lineto
51886.5 32695.2 lineto
51774 32751.4 lineto
51717.8 32807.7 lineto
51661.6 32920.1 lineto
51605.3 33145.1 lineto
51605.3 33426.3 lineto
51661.6 33651.3 lineto
51717.8 33763.8 lineto
51774 33820 lineto
51886.5 33876.3 lineto
stroke
newpath
53405.1 32695.2 moveto
52730.2 32695.2 lineto
stroke
newpath
53067.6 32695.2 moveto
53067.6 33876.3 lineto
52955.1 33707.5 lineto
52842.7 33595.1 lineto
52730.2 33538.8 lineto
stroke
newpath
53967.5 32695.2 moveto
54192.5 32695.2 lineto
54305 32751.4 lineto
54361.2 32807.7 lineto
54473.7 32976.4 lineto
54530 33201.4 lineto
54530 33651.3 lineto
54473.7 33763.8 lineto
54417.5 33820 lineto
54305 33876.3 lineto
54080 33876.3 lineto
53967.5 33820 lineto
53911.3 33763.8 lineto
53855 33651.3 lineto
53855 33370.1 lineto
53911.3 33257.6 lineto
53967.5 33201.4 lineto
54080 33145.1 lineto
54305 33145.1 lineto
54417.5 33201.4 lineto
54473.7 33257.6 lineto
54530 33370.1 lineto
stroke
newpath
54923.7 33876.3 moveto
55711.1 33876.3 lineto
55204.9 32695.2 lineto
stroke
newpath
56104.8 33876.3 moveto
56104.8 33651.3 lineto
stroke
newpath
56554.7 33876.3 moveto
56554.7 33651.3 lineto
stroke
newpath
58298.2 32245.2 moveto
58242 32301.5 lineto
58129.5 32470.2 lineto
58073.3 32582.7 lineto
58017 32751.4 lineto
57960.8 33032.6 lineto
57960.8 33257.6 lineto
58017 33538.8 lineto
58073.3 33707.5 lineto
58129.5 33820 lineto
58242 33988.8 lineto
58298.2 34045 lineto
stroke
newpath
59254.4 33876.3 moveto
59029.4 33876.3 lineto
58916.9 33820 lineto
58860.7 33763.8 lineto
58748.2 33595.1 lineto
58691.9 33370.1 lineto
58691.9 32920.1 lineto
58748.2 32807.7 lineto
58804.4 32751.4 lineto
58916.9 32695.2 lineto
59141.9 32695.2 lineto
59254.4 32751.4 lineto
59310.6 32807.7 lineto
59366.8 32920.1 lineto
59366.8 33201.4 lineto
59310.6 33313.8 lineto
59254.4 33370.1 lineto
59141.9 33426.3 lineto
58916.9 33426.3 lineto
58804.4 33370.1 lineto
58748.2 33313.8 lineto
58691.9 33201.4 lineto
stroke
newpath
60379.2 33482.6 moveto
60379.2 32695.2 lineto
stroke
newpath
60098 33932.5 moveto
59816.8 33088.9 lineto
60548 33088.9 lineto
stroke
newpath
61897.8 32695.2 moveto
61897.8 33876.3 lineto
stroke
newpath
62404 32695.2 moveto
62404 33313.8 lineto
62347.7 33426.3 lineto
62235.2 33482.6 lineto
62066.5 33482.6 lineto
61954 33426.3 lineto
61897.8 33370.1 lineto
stroke
newpath
63135.1 32695.2 moveto
63022.6 32751.4 lineto
62966.4 32807.7 lineto
62910.2 32920.1 lineto
62910.2 33257.6 lineto
62966.4 33370.1 lineto
63022.6 33426.3 lineto
63135.1 33482.6 lineto
63303.9 33482.6 lineto
63416.3 33426.3 lineto
63472.6 33370.1 lineto
63528.8 33257.6 lineto
63528.8 32920.1 lineto
63472.6 32807.7 lineto
63416.3 32751.4 lineto
63303.9 32695.2 lineto
63135.1 32695.2 lineto
stroke
newpath
64203.7 32695.2 moveto
64091.3 32751.4 lineto
64035 32863.9 lineto
64035 33876.3 lineto
stroke
newpath
65103.6 32751.4 moveto
64991.1 32695.2 lineto
64766.2 32695.2 lineto
64653.7 32751.4 lineto
64597.4 32863.9 lineto
64597.4 33313.8 lineto
64653.7 33426.3 lineto
64766.2 33482.6 lineto
64991.1 33482.6 lineto
65103.6 33426.3 lineto
65159.9 33313.8 lineto
65159.9 33201.4 lineto
64597.4 33088.9 lineto
stroke
newpath
65609.8 32751.4 moveto
65722.3 32695.2 lineto
65947.3 32695.2 lineto
66059.8 32751.4 lineto
66116 32863.9 lineto
66116 32920.1 lineto
66059.8 33032.6 lineto
65947.3 33088.9 lineto
65778.5 33088.9 lineto
65666.1 33145.1 lineto
65609.8 33257.6 lineto
65609.8 33313.8 lineto
65666.1 33426.3 lineto
65778.5 33482.6 lineto
65947.3 33482.6 lineto
66059.8 33426.3 lineto
stroke
newpath
66509.7 32245.2 moveto
66565.9 32301.5 lineto
66678.4 32470.2 lineto
66734.7 32582.7 lineto
66790.9 32751.4 lineto
66847.2 33032.6 lineto
66847.2 33257.6 lineto
66790.9 33538.8 lineto
66734.7 33707.5 lineto
66678.4 33820 lineto
66565.9 33988.8 lineto
66509.7 34045 lineto
stroke
37250.5 31670.4 347.494 cir0
0 0 0 setrgbcolor
0 0 0 setrgbcolor
newpath
39344.4 31136.1 moveto
38669.4 31136.1 lineto
stroke
newpath
39006.9 31136.1 moveto
39006.9 32317.2 lineto
38894.4 32148.5 lineto
38781.9 32036 lineto
38669.4 31979.8 lineto
stroke
newpath
39850.5 31248.6 moveto
39906.8 31192.4 lineto
39850.5 31136.1 lineto
39794.3 31192.4 lineto
39850.5 31248.6 lineto
39850.5 31136.1 lineto
stroke
newpath
40637.9 32317.2 moveto
40750.4 32317.2 lineto
40862.9 32261 lineto
40919.2 32204.7 lineto
40975.4 32092.2 lineto
41031.6 31867.3 lineto
41031.6 31586.1 lineto
40975.4 31361.1 lineto
40919.2 31248.6 lineto
40862.9 31192.4 lineto
40750.4 31136.1 lineto
40637.9 31136.1 lineto
40525.5 31192.4 lineto
40469.2 31248.6 lineto
40413 31361.1 lineto
40356.7 31586.1 lineto
40356.7 31867.3 lineto
40413 32092.2 lineto
40469.2 32204.7 lineto
40525.5 32261 lineto
40637.9 32317.2 lineto
stroke
newpath
41762.8 32317.2 moveto
41875.3 32317.2 lineto
41987.8 32261 lineto
42044 32204.7 lineto
42100.3 32092.2 lineto
42156.5 31867.3 lineto
42156.5 31586.1 lineto
42100.3 31361.1 lineto
42044 31248.6 lineto
41987.8 31192.4 lineto
41875.3 31136.1 lineto
41762.8 31136.1 lineto
41650.3 31192.4 lineto
41594.1 31248.6 lineto
41537.8 31361.1 lineto
41481.6 31586.1 lineto
41481.6 31867.3 lineto
41537.8 32092.2 lineto
41594.1 32204.7 lineto
41650.3 32261 lineto
41762.8 32317.2 lineto
stroke
newpath
42887.7 32317.2 moveto
43000.1 32317.2 lineto
43112.6 32261 lineto
43168.9 32204.7 lineto
43225.1 32092.2 lineto
43281.4 31867.3 lineto
43281.4 31586.1 lineto
43225.1 31361.1 lineto
43168.9 31248.6 lineto
43112.6 31192.4 lineto
43000.1 31136.1 lineto
42887.7 31136.1 lineto
42775.2 31192.4 lineto
42718.9 31248.6 lineto
42662.7 31361.1 lineto
42606.4 31586.1 lineto
42606.4 31867.3 lineto
42662.7 32092.2 lineto
42718.9 32204.7 lineto
42775.2 32261 lineto
42887.7 32317.2 lineto
stroke
newpath
43787.5 31136.1 moveto
43787.5 31923.5 lineto
stroke
newpath
43787.5 31811 moveto
43843.8 31867.3 lineto
43956.3 31923.5 lineto
44125 31923.5 lineto
44237.5 31867.3 lineto
44293.7 31754.8 lineto
44293.7 31136.1 lineto
stroke
newpath
44293.7 31754.8 moveto
44350 31867.3 lineto
44462.5 31923.5 lineto
44631.2 31923.5 lineto
44743.7 31867.3 lineto
44799.9 31754.8 lineto
44799.9 31136.1 lineto
stroke
newpath
45362.3 31136.1 moveto
45362.3 31923.5 lineto
stroke
newpath
45362.3 31811 moveto
45418.6 31867.3 lineto
45531.1 31923.5 lineto
45699.8 31923.5 lineto
45812.3 31867.3 lineto
45868.5 31754.8 lineto
45868.5 31136.1 lineto
stroke
newpath
45868.5 31754.8 moveto
45924.8 31867.3 lineto
46037.3 31923.5 lineto
46206 31923.5 lineto
46318.5 31867.3 lineto
46374.7 31754.8 lineto
46374.7 31136.1 lineto
stroke
newpath
48680.7 32373.5 moveto
47668.3 30854.9 lineto
stroke
newpath
50199.2 32317.2 moveto
50311.7 32317.2 lineto
50424.2 32261 lineto
50480.5 32204.7 lineto
50536.7 32092.2 lineto
50592.9 31867.3 lineto
50592.9 31586.1 lineto
50536.7 31361.1 lineto
50480.5 31248.6 lineto
50424.2 31192.4 lineto
50311.7 31136.1 lineto
50199.2 31136.1 lineto
50086.8 31192.4 lineto
50030.5 31248.6 lineto
49974.3 31361.1 lineto
49918 31586.1 lineto
49918 31867.3 lineto
49974.3 32092.2 lineto
50030.5 32204.7 lineto
50086.8 32261 lineto
50199.2 32317.2 lineto
stroke
newpath
51099.1 31248.6 moveto
51155.4 31192.4 lineto
51099.1 31136.1 lineto
51042.9 31192.4 lineto
51099.1 31248.6 lineto
51099.1 31136.1 lineto
stroke
newpath
51886.5 32317.2 moveto
51999 32317.2 lineto
52111.5 32261 lineto
52167.7 32204.7 lineto
52224 32092.2 lineto
52280.2 31867.3 lineto
52280.2 31586.1 lineto
52224 31361.1 lineto
52167.7 31248.6 lineto
52111.5 31192.4 lineto
51999 31136.1 lineto
51886.5 31136.1 lineto
51774 31192.4 lineto
51717.8 31248.6 lineto
51661.6 31361.1 lineto
51605.3 31586.1 lineto
51605.3 31867.3 lineto
51661.6 32092.2 lineto
51717.8 32204.7 lineto
51774 32261 lineto
51886.5 32317.2 lineto
stroke
newpath
52673.9 32317.2 moveto
53405.1 32317.2 lineto
53011.4 31867.3 lineto
53180.1 31867.3 lineto
53292.6 31811 lineto
53348.9 31754.8 lineto
53405.1 31642.3 lineto
53405.1 31361.1 lineto
53348.9 31248.6 lineto
53292.6 31192.4 lineto
53180.1 31136.1 lineto
52842.7 31136.1 lineto
52730.2 31192.4 lineto
52673.9 31248.6 lineto
stroke
newpath
53967.5 31136.1 moveto
54192.5 31136.1 lineto
54305 31192.4 lineto
54361.2 31248.6 lineto
54473.7 31417.3 lineto
54530 31642.3 lineto
54530 32092.2 lineto
54473.7 32204.7 lineto
54417.5 32261 lineto
54305 32317.2 lineto
54080 32317.2 lineto
53967.5 32261 lineto
53911.3 32204.7 lineto
53855 32092.2 lineto
53855 31811 lineto
53911.3 31698.5 lineto
53967.5 31642.3 lineto
54080 31586.1 lineto
54305 31586.1 lineto
54417.5 31642.3 lineto
54473.7 31698.5 lineto
54530 31811 lineto
stroke
newpath
55542.3 31923.5 moveto
55542.3 31136.1 lineto
stroke
newpath
55261.1 32373.5 moveto
54979.9 31529.8 lineto
55711.1 31529.8 lineto
stroke
newpath
56104.8 32317.2 moveto
56104.8 32092.2 lineto
stroke
newpath
56554.7 32317.2 moveto
56554.7 32092.2 lineto
stroke
newpath
58298.2 30686.2 moveto
58242 30742.4 lineto
58129.5 30911.1 lineto
58073.3 31023.6 lineto
58017 31192.4 lineto
57960.8 31473.6 lineto
57960.8 31698.5 lineto
58017 31979.8 lineto
58073.3 32148.5 lineto
58129.5 32261 lineto
58242 32429.7 lineto
58298.2 32485.9 lineto
stroke
newpath
58691.9 32204.7 moveto
58748.2 32261 lineto
58860.7 32317.2 lineto
59141.9 32317.2 lineto
59254.4 32261 lineto
59310.6 32204.7 lineto
59366.8 32092.2 lineto
59366.8 31979.8 lineto
59310.6 31811 lineto
58635.7 31136.1 lineto
59366.8 31136.1 lineto
stroke
newpath
60379.2 31923.5 moveto
60379.2 31136.1 lineto
stroke
newpath
60098 32373.5 moveto
59816.8 31529.8 lineto
60548 31529.8 lineto
stroke
newpath
61897.8 31136.1 moveto
61897.8 32317.2 lineto
stroke
newpath
62404 31136.1 moveto
62404 31754.8 lineto
62347.7 31867.3 lineto
62235.2 31923.5 lineto
62066.5 31923.5 lineto
61954 31867.3 lineto
61897.8 31811 lineto
stroke
newpath
63135.1 31136.1 moveto
63022.6 31192.4 lineto
62966.4 31248.6 lineto
62910.2 31361.1 lineto
62910.2 31698.5 lineto
62966.4 31811 lineto
63022.6 31867.3 lineto
63135.1 31923.5 lineto
63303.9 31923.5 lineto
63416.3 31867.3 lineto
63472.6 31811 lineto
63528.8 31698.5 lineto
63528.8 31361.1 lineto
63472.6 31248.6 lineto
63416.3 31192.4 lineto
63303.9 31136.1 lineto
63135.1 31136.1 lineto
stroke
newpath
64203.7 31136.1 moveto
64091.3 31192.4 lineto
64035 31304.8 lineto
64035 32317.2 lineto
stroke
newpath
65103.6 31192.4 moveto
64991.1 31136.1 lineto
64766.2 31136.1 lineto
64653.7 31192.4 lineto
64597.4 31304.8 lineto
64597.4 31754.8 lineto
64653.7 31867.3 lineto
64766.2 31923.5 lineto
64991.1 31923.5 lineto
65103.6 31867.3 lineto
65159.9 31754.8 lineto
65159.9 31642.3 lineto
64597.4 31529.8 lineto
stroke
newpath
65609.8 31192.4 moveto
65722.3 31136.1 lineto
65947.3 31136.1 lineto
66059.8 31192.4 lineto
66116 31304.8 lineto
66116 31361.1 lineto
66059.8 31473.6 lineto
65947.3 31529.8 lineto
65778.5 31529.8 lineto
65666.1 31586.1 lineto
65609.8 31698.5 lineto
65609.8 31754.8 lineto
65666.1 31867.3 lineto
65778.5 31923.5 lineto
65947.3 31923.5 lineto
66059.8 31867.3 lineto
stroke
newpath
66509.7 30686.2 moveto
66565.9 30742.4 lineto
66678.4 30911.1 lineto
66734.7 31023.6 lineto
66790.9 31192.4 lineto
66847.2 31473.6 lineto
66847.2 31698.5 lineto
66790.9 31979.8 lineto
66734.7 32148.5 lineto
66678.4 32261 lineto
66565.9 32429.7 lineto
66509.7 32485.9 lineto
stroke
newpath
37042 30667.4 moveto
37042 29555.4 lineto
stroke
newpath
36486 30111.4 moveto
37598 30111.4 lineto
stroke
0 0 0 setrgbcolor
0 0 0 setrgbcolor
newpath
39344.4 29577.1 moveto
38669.4 29577.1 lineto
stroke
newpath
39006.9 29577.1 moveto
39006.9 30758.2 lineto
38894.4 30589.4 lineto
38781.9 30476.9 lineto
38669.4 30420.7 lineto
stroke
newpath
39850.5 29689.5 moveto
39906.8 29633.3 lineto
39850.5 29577.1 lineto
39794.3 29633.3 lineto
39850.5 29689.5 lineto
39850.5 29577.1 lineto
stroke
newpath
40919.2 30758.2 moveto
40694.2 30758.2 lineto
40581.7 30701.9 lineto
40525.5 30645.7 lineto
40413 30476.9 lineto
40356.7 30252 lineto
40356.7 29802 lineto
40413 29689.5 lineto
40469.2 29633.3 lineto
40581.7 29577.1 lineto
40806.7 29577.1 lineto
40919.2 29633.3 lineto
40975.4 29689.5 lineto
41031.6 29802 lineto
41031.6 30083.2 lineto
40975.4 30195.7 lineto
40919.2 30252 lineto
40806.7 30308.2 lineto
40581.7 30308.2 lineto
40469.2 30252 lineto
40413 30195.7 lineto
40356.7 30083.2 lineto
stroke
newpath
41762.8 30758.2 moveto
41875.3 30758.2 lineto
41987.8 30701.9 lineto
42044 30645.7 lineto
42100.3 30533.2 lineto
42156.5 30308.2 lineto
42156.5 30027 lineto
42100.3 29802 lineto
42044 29689.5 lineto
41987.8 29633.3 lineto
41875.3 29577.1 lineto
41762.8 29577.1 lineto
41650.3 29633.3 lineto
41594.1 29689.5 lineto
41537.8 29802 lineto
41481.6 30027 lineto
41481.6 30308.2 lineto
41537.8 30533.2 lineto
41594.1 30645.7 lineto
41650.3 30701.9 lineto
41762.8 30758.2 lineto
stroke
newpath
42887.7 30758.2 moveto
43000.1 30758.2 lineto
43112.6 30701.9 lineto
43168.9 30645.7 lineto
43225.1 30533.2 lineto
43281.4 30308.2 lineto
43281.4 30027 lineto
43225.1 29802 lineto
43168.9 29689.5 lineto
43112.6 29633.3 lineto
43000.1 29577.1 lineto
42887.7 29577.1 lineto
42775.2 29633.3 lineto
42718.9 29689.5 lineto
42662.7 29802 lineto
42606.4 30027 lineto
42606.4 30308.2 lineto
42662.7 30533.2 lineto
42718.9 30645.7 lineto
42775.2 30701.9 lineto
42887.7 30758.2 lineto
stroke
newpath
43787.5 29577.1 moveto
43787.5 30364.5 lineto
stroke
newpath
43787.5 30252 moveto
43843.8 30308.2 lineto
43956.3 30364.5 lineto
44125 30364.5 lineto
44237.5 30308.2 lineto
44293.7 30195.7 lineto
44293.7 29577.1 lineto
stroke
newpath
44293.7 30195.7 moveto
44350 30308.2 lineto
44462.5 30364.5 lineto
44631.2 30364.5 lineto
44743.7 30308.2 lineto
44799.9 30195.7 lineto
44799.9 29577.1 lineto
stroke
newpath
45362.3 29577.1 moveto
45362.3 30364.5 lineto
stroke
newpath
45362.3 30252 moveto
45418.6 30308.2 lineto
45531.1 30364.5 lineto
45699.8 30364.5 lineto
45812.3 30308.2 lineto
45868.5 30195.7 lineto
45868.5 29577.1 lineto
stroke
newpath
45868.5 30195.7 moveto
45924.8 30308.2 lineto
46037.3 30364.5 lineto
46206 30364.5 lineto
46318.5 30308.2 lineto
46374.7 30195.7 lineto
46374.7 29577.1 lineto
stroke
newpath
48680.7 30814.4 moveto
47668.3 29295.8 lineto
stroke
newpath
50199.2 30758.2 moveto
50311.7 30758.2 lineto
50424.2 30701.9 lineto
50480.5 30645.7 lineto
50536.7 30533.2 lineto
50592.9 30308.2 lineto
50592.9 30027 lineto
50536.7 29802 lineto
50480.5 29689.5 lineto
50424.2 29633.3 lineto
50311.7 29577.1 lineto
50199.2 29577.1 lineto
50086.8 29633.3 lineto
50030.5 29689.5 lineto
49974.3 29802 lineto
49918 30027 lineto
49918 30308.2 lineto
49974.3 30533.2 lineto
50030.5 30645.7 lineto
50086.8 30701.9 lineto
50199.2 30758.2 lineto
stroke
newpath
51099.1 29689.5 moveto
51155.4 29633.3 lineto
51099.1 29577.1 lineto
51042.9 29633.3 lineto
51099.1 29689.5 lineto
51099.1 29577.1 lineto
stroke
newpath
51886.5 30758.2 moveto
51999 30758.2 lineto
52111.5 30701.9 lineto
52167.7 30645.7 lineto
52224 30533.2 lineto
52280.2 30308.2 lineto
52280.2 30027 lineto
52224 29802 lineto
52167.7 29689.5 lineto
52111.5 29633.3 lineto
51999 29577.1 lineto
51886.5 29577.1 lineto
51774 29633.3 lineto
51717.8 29689.5 lineto
51661.6 29802 lineto
51605.3 30027 lineto
51605.3 30308.2 lineto
51661.6 30533.2 lineto
51717.8 30645.7 lineto
51774 30701.9 lineto
51886.5 30758.2 lineto
stroke
newpath
53292.6 30758.2 moveto
53067.6 30758.2 lineto
52955.1 30701.9 lineto
52898.9 30645.7 lineto
52786.4 30476.9 lineto
52730.2 30252 lineto
52730.2 29802 lineto
52786.4 29689.5 lineto
52842.7 29633.3 lineto
52955.1 29577.1 lineto
53180.1 29577.1 lineto
53292.6 29633.3 lineto
53348.9 29689.5 lineto
53405.1 29802 lineto
53405.1 30083.2 lineto
53348.9 30195.7 lineto
53292.6 30252 lineto
53180.1 30308.2 lineto
52955.1 30308.2 lineto
52842.7 30252 lineto
52786.4 30195.7 lineto
52730.2 30083.2 lineto
stroke
newpath
53798.8 30758.2 moveto
54530 30758.2 lineto
54136.3 30308.2 lineto
54305 30308.2 lineto
54417.5 30252 lineto
54473.7 30195.7 lineto
54530 30083.2 lineto
54530 29802 lineto
54473.7 29689.5 lineto
54417.5 29633.3 lineto
54305 29577.1 lineto
53967.5 29577.1 lineto
53855 29633.3 lineto
53798.8 29689.5 lineto
stroke
newpath
55261.1 30758.2 moveto
55373.6 30758.2 lineto
55486.1 30701.9 lineto
55542.3 30645.7 lineto
55598.6 30533.2 lineto
55654.8 30308.2 lineto
55654.8 30027 lineto
55598.6 29802 lineto
55542.3 29689.5 lineto
55486.1 29633.3 lineto
55373.6 29577.1 lineto
55261.1 29577.1 lineto
55148.6 29633.3 lineto
55092.4 29689.5 lineto
55036.1 29802 lineto
54979.9 30027 lineto
54979.9 30308.2 lineto
55036.1 30533.2 lineto
55092.4 30645.7 lineto
55148.6 30701.9 lineto
55261.1 30758.2 lineto
stroke
newpath
56104.8 30758.2 moveto
56104.8 30533.2 lineto
stroke
newpath
56554.7 30758.2 moveto
56554.7 30533.2 lineto
stroke
newpath
58298.2 29127.1 moveto
58242 29183.4 lineto
58129.5 29352.1 lineto
58073.3 29464.6 lineto
58017 29633.3 lineto
57960.8 29914.5 lineto
57960.8 30139.5 lineto
58017 30420.7 lineto
58073.3 30589.4 lineto
58129.5 30701.9 lineto
58242 30870.7 lineto
58298.2 30926.9 lineto
stroke
newpath
58691.9 30645.7 moveto
58748.2 30701.9 lineto
58860.7 30758.2 lineto
59141.9 30758.2 lineto
59254.4 30701.9 lineto
59310.6 30645.7 lineto
59366.8 30533.2 lineto
59366.8 30420.7 lineto
59310.6 30252 lineto
58635.7 29577.1 lineto
59366.8 29577.1 lineto
stroke
newpath
60098 30758.2 moveto
60210.5 30758.2 lineto
60323 30701.9 lineto
60379.2 30645.7 lineto
60435.5 30533.2 lineto
60491.7 30308.2 lineto
60491.7 30027 lineto
60435.5 29802 lineto
60379.2 29689.5 lineto
60323 29633.3 lineto
60210.5 29577.1 lineto
60098 29577.1 lineto
59985.5 29633.3 lineto
59929.3 29689.5 lineto
59873 29802 lineto
59816.8 30027 lineto
59816.8 30308.2 lineto
59873 30533.2 lineto
59929.3 30645.7 lineto
59985.5 30701.9 lineto
60098 30758.2 lineto
stroke
newpath
61897.8 29577.1 moveto
61897.8 30758.2 lineto
stroke
newpath
62404 29577.1 moveto
62404 30195.7 lineto
62347.7 30308.2 lineto
62235.2 30364.5 lineto
62066.5 30364.5 lineto
61954 30308.2 lineto
61897.8 30252 lineto
stroke
newpath
63135.1 29577.1 moveto
63022.6 29633.3 lineto
62966.4 29689.5 lineto
62910.2 29802 lineto
62910.2 30139.5 lineto
62966.4 30252 lineto
63022.6 30308.2 lineto
63135.1 30364.5 lineto
63303.9 30364.5 lineto
63416.3 30308.2 lineto
63472.6 30252 lineto
63528.8 30139.5 lineto
63528.8 29802 lineto
63472.6 29689.5 lineto
63416.3 29633.3 lineto
63303.9 29577.1 lineto
63135.1 29577.1 lineto
stroke
newpath
64203.7 29577.1 moveto
64091.3 29633.3 lineto
64035 29745.8 lineto
64035 30758.2 lineto
stroke
newpath
65103.6 29633.3 moveto
64991.1 29577.1 lineto
64766.2 29577.1 lineto
64653.7 29633.3 lineto
64597.4 29745.8 lineto
64597.4 30195.7 lineto
64653.7 30308.2 lineto
64766.2 30364.5 lineto
64991.1 30364.5 lineto
65103.6 30308.2 lineto
65159.9 30195.7 lineto
65159.9 30083.2 lineto
64597.4 29970.8 lineto
stroke
newpath
65609.8 29633.3 moveto
65722.3 29577.1 lineto
65947.3 29577.1 lineto
66059.8 29633.3 lineto
66116 29745.8 lineto
66116 29802 lineto
66059.8 29914.5 lineto
65947.3 29970.8 lineto
65778.5 29970.8 lineto
65666.1 30027 lineto
65609.8 30139.5 lineto
65609.8 30195.7 lineto
65666.1 30308.2 lineto
65778.5 30364.5 lineto
65947.3 30364.5 lineto
66059.8 30308.2 lineto
stroke
newpath
66509.7 29127.1 moveto
66565.9 29183.4 lineto
66678.4 29352.1 lineto
66734.7 29464.6 lineto
66790.9 29633.3 lineto
66847.2 29914.5 lineto
66847.2 30139.5 lineto
66790.9 30420.7 lineto
66734.7 30589.4 lineto
66678.4 30701.9 lineto
66565.9 30870.7 lineto
66509.7 30926.9 lineto
stroke
newpath
37323.2 27824.1 moveto
37323.2 29151 lineto
35996.3 29151 lineto
35996.3 27824.1 lineto
37323.2 27824.1 lineto
poly0
0 0 0 setrgbcolor
0 0 0 setrgbcolor
newpath
38669.4 29021.9 moveto
38725.7 29078.1 lineto
38838.2 29134.4 lineto
39119.4 29134.4 lineto
39231.9 29078.1 lineto
39288.1 29021.9 lineto
39344.4 28909.4 lineto
39344.4 28796.9 lineto
39288.1 28628.2 lineto
38613.2 27953.3 lineto
39344.4 27953.3 lineto
stroke
newpath
39850.5 28065.8 moveto
39906.8 28009.5 lineto
39850.5 27953.3 lineto
39794.3 28009.5 lineto
39850.5 28065.8 lineto
39850.5 27953.3 lineto
stroke
newpath
40300.5 29134.4 moveto
41087.9 29134.4 lineto
40581.7 27953.3 lineto
stroke
newpath
41762.8 29134.4 moveto
41875.3 29134.4 lineto
41987.8 29078.1 lineto
42044 29021.9 lineto
42100.3 28909.4 lineto
42156.5 28684.4 lineto
42156.5 28403.2 lineto
42100.3 28178.2 lineto
42044 28065.8 lineto
41987.8 28009.5 lineto
41875.3 27953.3 lineto
41762.8 27953.3 lineto
41650.3 28009.5 lineto
41594.1 28065.8 lineto
41537.8 28178.2 lineto
41481.6 28403.2 lineto
41481.6 28684.4 lineto
41537.8 28909.4 lineto
41594.1 29021.9 lineto
41650.3 29078.1 lineto
41762.8 29134.4 lineto
stroke
newpath
42887.7 29134.4 moveto
43000.1 29134.4 lineto
43112.6 29078.1 lineto
43168.9 29021.9 lineto
43225.1 28909.4 lineto
43281.4 28684.4 lineto
43281.4 28403.2 lineto
43225.1 28178.2 lineto
43168.9 28065.8 lineto
43112.6 28009.5 lineto
43000.1 27953.3 lineto
42887.7 27953.3 lineto
42775.2 28009.5 lineto
42718.9 28065.8 lineto
42662.7 28178.2 lineto
42606.4 28403.2 lineto
42606.4 28684.4 lineto
42662.7 28909.4 lineto
42718.9 29021.9 lineto
42775.2 29078.1 lineto
42887.7 29134.4 lineto
stroke
newpath
43787.5 27953.3 moveto
43787.5 28740.7 lineto
stroke
newpath
43787.5 28628.2 moveto
43843.8 28684.4 lineto
43956.3 28740.7 lineto
44125 28740.7 lineto
44237.5 28684.4 lineto
44293.7 28571.9 lineto
44293.7 27953.3 lineto
stroke
newpath
44293.7 28571.9 moveto
44350 28684.4 lineto
44462.5 28740.7 lineto
44631.2 28740.7 lineto
44743.7 28684.4 lineto
44799.9 28571.9 lineto
44799.9 27953.3 lineto
stroke
newpath
45362.3 27953.3 moveto
45362.3 28740.7 lineto
stroke
newpath
45362.3 28628.2 moveto
45418.6 28684.4 lineto
45531.1 28740.7 lineto
45699.8 28740.7 lineto
45812.3 28684.4 lineto
45868.5 28571.9 lineto
45868.5 27953.3 lineto
stroke
newpath
45868.5 28571.9 moveto
45924.8 28684.4 lineto
46037.3 28740.7 lineto
46206 28740.7 lineto
46318.5 28684.4 lineto
46374.7 28571.9 lineto
46374.7 27953.3 lineto
stroke
newpath
48680.7 29190.6 moveto
47668.3 27672.1 lineto
stroke
newpath
50199.2 29134.4 moveto
50311.7 29134.4 lineto
50424.2 29078.1 lineto
50480.5 29021.9 lineto
50536.7 28909.4 lineto
50592.9 28684.4 lineto
50592.9 28403.2 lineto
50536.7 28178.2 lineto
50480.5 28065.8 lineto
50424.2 28009.5 lineto
50311.7 27953.3 lineto
50199.2 27953.3 lineto
50086.8 28009.5 lineto
50030.5 28065.8 lineto
49974.3 28178.2 lineto
49918 28403.2 lineto
49918 28684.4 lineto
49974.3 28909.4 lineto
50030.5 29021.9 lineto
50086.8 29078.1 lineto
50199.2 29134.4 lineto
stroke
newpath
51099.1 28065.8 moveto
51155.4 28009.5 lineto
51099.1 27953.3 lineto
51042.9 28009.5 lineto
51099.1 28065.8 lineto
51099.1 27953.3 lineto
stroke
newpath
52280.2 27953.3 moveto
51605.3 27953.3 lineto
stroke
newpath
51942.8 27953.3 moveto
51942.8 29134.4 lineto
51830.3 28965.6 lineto
51717.8 28853.2 lineto
51605.3 28796.9 lineto
stroke
newpath
53011.4 29134.4 moveto
53123.9 29134.4 lineto
53236.4 29078.1 lineto
53292.6 29021.9 lineto
53348.9 28909.4 lineto
53405.1 28684.4 lineto
53405.1 28403.2 lineto
53348.9 28178.2 lineto
53292.6 28065.8 lineto
53236.4 28009.5 lineto
53123.9 27953.3 lineto
53011.4 27953.3 lineto
52898.9 28009.5 lineto
52842.7 28065.8 lineto
52786.4 28178.2 lineto
52730.2 28403.2 lineto
52730.2 28684.4 lineto
52786.4 28909.4 lineto
52842.7 29021.9 lineto
52898.9 29078.1 lineto
53011.4 29134.4 lineto
stroke
newpath
54417.5 29134.4 moveto
54192.5 29134.4 lineto
54080 29078.1 lineto
54023.8 29021.9 lineto
53911.3 28853.2 lineto
53855 28628.2 lineto
53855 28178.2 lineto
53911.3 28065.8 lineto
53967.5 28009.5 lineto
54080 27953.3 lineto
54305 27953.3 lineto
54417.5 28009.5 lineto
54473.7 28065.8 lineto
54530 28178.2 lineto
54530 28459.5 lineto
54473.7 28571.9 lineto
54417.5 28628.2 lineto
54305 28684.4 lineto
54080 28684.4 lineto
53967.5 28628.2 lineto
53911.3 28571.9 lineto
53855 28459.5 lineto
stroke
newpath
54923.7 29134.4 moveto
55654.8 29134.4 lineto
55261.1 28684.4 lineto
55429.8 28684.4 lineto
55542.3 28628.2 lineto
55598.6 28571.9 lineto
55654.8 28459.5 lineto
55654.8 28178.2 lineto
55598.6 28065.8 lineto
55542.3 28009.5 lineto
55429.8 27953.3 lineto
55092.4 27953.3 lineto
54979.9 28009.5 lineto
54923.7 28065.8 lineto
stroke
newpath
56104.8 29134.4 moveto
56104.8 28909.4 lineto
stroke
newpath
56554.7 29134.4 moveto
56554.7 28909.4 lineto
stroke
newpath
58298.2 27503.3 moveto
58242 27559.6 lineto
58129.5 27728.3 lineto
58073.3 27840.8 lineto
58017 28009.5 lineto
57960.8 28290.7 lineto
57960.8 28515.7 lineto
58017 28796.9 lineto
58073.3 28965.6 lineto
58129.5 29078.1 lineto
58242 29246.9 lineto
58298.2 29303.1 lineto
stroke
newpath
58916.9 28628.2 moveto
58804.4 28684.4 lineto
58748.2 28740.7 lineto
58691.9 28853.2 lineto
58691.9 28909.4 lineto
58748.2 29021.9 lineto
58804.4 29078.1 lineto
58916.9 29134.4 lineto
59141.9 29134.4 lineto
59254.4 29078.1 lineto
59310.6 29021.9 lineto
59366.8 28909.4 lineto
59366.8 28853.2 lineto
59310.6 28740.7 lineto
59254.4 28684.4 lineto
59141.9 28628.2 lineto
58916.9 28628.2 lineto
58804.4 28571.9 lineto
58748.2 28515.7 lineto
58691.9 28403.2 lineto
58691.9 28178.2 lineto
58748.2 28065.8 lineto
58804.4 28009.5 lineto
58916.9 27953.3 lineto
59141.9 27953.3 lineto
59254.4 28009.5 lineto
59310.6 28065.8 lineto
59366.8 28178.2 lineto
59366.8 28403.2 lineto
59310.6 28515.7 lineto
59254.4 28571.9 lineto
59141.9 28628.2 lineto
stroke
newpath
60772.9 27953.3 moveto
60772.9 29134.4 lineto
stroke
newpath
61279.1 27953.3 moveto
61279.1 28571.9 lineto
61222.9 28684.4 lineto
61110.4 28740.7 lineto
60941.7 28740.7 lineto
60829.2 28684.4 lineto
60772.9 28628.2 lineto
stroke
newpath
62010.3 27953.3 moveto
61897.8 28009.5 lineto
61841.5 28065.8 lineto
61785.3 28178.2 lineto
61785.3 28515.7 lineto
61841.5 28628.2 lineto
61897.8 28684.4 lineto
62010.3 28740.7 lineto
62179 28740.7 lineto
62291.5 28684.4 lineto
62347.7 28628.2 lineto
62404 28515.7 lineto
62404 28178.2 lineto
62347.7 28065.8 lineto
62291.5 28009.5 lineto
62179 27953.3 lineto
62010.3 27953.3 lineto
stroke
newpath
63078.9 27953.3 moveto
62966.4 28009.5 lineto
62910.2 28122 lineto
62910.2 29134.4 lineto
stroke
newpath
63978.8 28009.5 moveto
63866.3 27953.3 lineto
63641.3 27953.3 lineto
63528.8 28009.5 lineto
63472.6 28122 lineto
63472.6 28571.9 lineto
63528.8 28684.4 lineto
63641.3 28740.7 lineto
63866.3 28740.7 lineto
63978.8 28684.4 lineto
64035 28571.9 lineto
64035 28459.5 lineto
63472.6 28347 lineto
stroke
newpath
64485 28009.5 moveto
64597.4 27953.3 lineto
64822.4 27953.3 lineto
64934.9 28009.5 lineto
64991.1 28122 lineto
64991.1 28178.2 lineto
64934.9 28290.7 lineto
64822.4 28347 lineto
64653.7 28347 lineto
64541.2 28403.2 lineto
64485 28515.7 lineto
64485 28571.9 lineto
64541.2 28684.4 lineto
64653.7 28740.7 lineto
64822.4 28740.7 lineto
64934.9 28684.4 lineto
stroke
newpath
65384.8 27503.3 moveto
65441.1 27559.6 lineto
65553.6 27728.3 lineto
65609.8 27840.8 lineto
65666.1 28009.5 lineto
65722.3 28290.7 lineto
65722.3 28515.7 lineto
65666.1 28796.9 lineto
65609.8 28965.6 lineto
65553.6 29078.1 lineto
65441.1 29246.9 lineto
65384.8 29303.1 lineto
stroke
showpage
grestore
%%EOF
