G04 #@! TF.GenerationSoftware,KiCad,Pcbnew,(5.1.10-1-10_14)*
G04 #@! TF.CreationDate,2022-04-08T14:25:21+01:00*
G04 #@! TF.ProjectId,riede_ELQE_holderContactBoard,72696564-655f-4454-9c51-455f686f6c64,rev?*
G04 #@! TF.SameCoordinates,Original*
G04 #@! TF.FileFunction,Soldermask,Bot*
G04 #@! TF.FilePolarity,Negative*
%FSLAX46Y46*%
G04 Gerber Fmt 4.6, Leading zero omitted, Abs format (unit mm)*
G04 Created by KiCad (PCBNEW (5.1.10-1-10_14)) date 2022-04-08 14:25:21*
%MOMM*%
%LPD*%
G01*
G04 APERTURE LIST*
%ADD10C,2.002000*%
%ADD11O,1.802000X1.802000*%
%ADD12C,5.502000*%
%ADD13C,0.902000*%
G04 APERTURE END LIST*
D10*
X42000000Y-41750000D03*
X42000000Y-39250000D03*
X42000000Y-34750000D03*
X42000000Y-32250000D03*
X42000000Y-27750000D03*
X42000000Y-25250000D03*
X42000000Y-20750000D03*
X42000000Y-18250000D03*
D11*
X36350000Y-23650000D03*
X33810000Y-23650000D03*
X36350000Y-26190000D03*
X33810000Y-26190000D03*
X36350000Y-28730000D03*
X33810000Y-28730000D03*
X36350000Y-31270000D03*
X33810000Y-31270000D03*
X36350000Y-33810000D03*
X33810000Y-33810000D03*
X36350000Y-36350000D03*
G36*
G01*
X32909000Y-37200000D02*
X32909000Y-35500000D01*
G75*
G02*
X32960000Y-35449000I51000J0D01*
G01*
X34660000Y-35449000D01*
G75*
G02*
X34711000Y-35500000I0J-51000D01*
G01*
X34711000Y-37200000D01*
G75*
G02*
X34660000Y-37251000I-51000J0D01*
G01*
X32960000Y-37251000D01*
G75*
G02*
X32909000Y-37200000I0J51000D01*
G01*
G37*
X26190000Y-23650000D03*
X23650000Y-23650000D03*
X26190000Y-26190000D03*
X23650000Y-26190000D03*
X26190000Y-28730000D03*
X23650000Y-28730000D03*
X26190000Y-31270000D03*
X23650000Y-31270000D03*
X26190000Y-33810000D03*
X23650000Y-33810000D03*
X26190000Y-36350000D03*
G36*
G01*
X22749000Y-37200000D02*
X22749000Y-35500000D01*
G75*
G02*
X22800000Y-35449000I51000J0D01*
G01*
X24500000Y-35449000D01*
G75*
G02*
X24551000Y-35500000I0J-51000D01*
G01*
X24551000Y-37200000D01*
G75*
G02*
X24500000Y-37251000I-51000J0D01*
G01*
X22800000Y-37251000D01*
G75*
G02*
X22749000Y-37200000I0J51000D01*
G01*
G37*
D10*
X18000000Y-41750000D03*
X18000000Y-39250000D03*
X18000000Y-34750000D03*
X18000000Y-32250000D03*
X18000000Y-27750000D03*
X18000000Y-25250000D03*
X18000000Y-20750000D03*
X18000000Y-18250000D03*
D12*
X5000000Y-20000000D03*
D13*
X7025000Y-20000000D03*
X6431891Y-21431891D03*
X5000000Y-22025000D03*
X3568109Y-21431891D03*
X2975000Y-20000000D03*
X3568109Y-18568109D03*
X5000000Y-17975000D03*
X6431891Y-18568109D03*
D12*
X5000000Y-40000000D03*
D13*
X7025000Y-40000000D03*
X6431891Y-41431891D03*
X5000000Y-42025000D03*
X3568109Y-41431891D03*
X2975000Y-40000000D03*
X3568109Y-38568109D03*
X5000000Y-37975000D03*
X6431891Y-38568109D03*
D12*
X20000000Y-55000000D03*
D13*
X22025000Y-55000000D03*
X21431891Y-56431891D03*
X20000000Y-57025000D03*
X18568109Y-56431891D03*
X17975000Y-55000000D03*
X18568109Y-53568109D03*
X20000000Y-52975000D03*
X21431891Y-53568109D03*
D12*
X40000000Y-55000000D03*
D13*
X42025000Y-55000000D03*
X41431891Y-56431891D03*
X40000000Y-57025000D03*
X38568109Y-56431891D03*
X37975000Y-55000000D03*
X38568109Y-53568109D03*
X40000000Y-52975000D03*
X41431891Y-53568109D03*
D12*
X55000000Y-40000000D03*
D13*
X57025000Y-40000000D03*
X56431891Y-41431891D03*
X55000000Y-42025000D03*
X53568109Y-41431891D03*
X52975000Y-40000000D03*
X53568109Y-38568109D03*
X55000000Y-37975000D03*
X56431891Y-38568109D03*
D12*
X55000000Y-20000000D03*
D13*
X57025000Y-20000000D03*
X56431891Y-21431891D03*
X55000000Y-22025000D03*
X53568109Y-21431891D03*
X52975000Y-20000000D03*
X53568109Y-18568109D03*
X55000000Y-17975000D03*
X56431891Y-18568109D03*
D12*
X40000000Y-5000000D03*
D13*
X42025000Y-5000000D03*
X41431891Y-6431891D03*
X40000000Y-7025000D03*
X38568109Y-6431891D03*
X37975000Y-5000000D03*
X38568109Y-3568109D03*
X40000000Y-2975000D03*
X41431891Y-3568109D03*
D12*
X20000000Y-5000000D03*
D13*
X22025000Y-5000000D03*
X21431891Y-6431891D03*
X20000000Y-7025000D03*
X18568109Y-6431891D03*
X17975000Y-5000000D03*
X18568109Y-3568109D03*
X20000000Y-2975000D03*
X21431891Y-3568109D03*
D10*
X28750000Y-42000000D03*
X28750000Y-18000000D03*
X31250000Y-42000000D03*
X31250000Y-18000000D03*
M02*
