G04 #@! TF.GenerationSoftware,KiCad,Pcbnew,(5.1.10-1-10_14)*
G04 #@! TF.CreationDate,2022-04-08T14:19:17+01:00*
G04 #@! TF.ProjectId,alignmentJig_AFMD_28x28,616c6967-6e6d-4656-9e74-4a69675f4146,rev?*
G04 #@! TF.SameCoordinates,Original*
G04 #@! TF.FileFunction,Legend,Top*
G04 #@! TF.FilePolarity,Positive*
%FSLAX46Y46*%
G04 Gerber Fmt 4.6, Leading zero omitted, Abs format (unit mm)*
G04 Created by KiCad (PCBNEW (5.1.10-1-10_14)) date 2022-04-08 14:19:17*
%MOMM*%
%LPD*%
G01*
G04 APERTURE LIST*
%ADD10C,0.120000*%
%ADD11C,0.250000*%
%ADD12C,0.150000*%
G04 APERTURE END LIST*
D10*
X6000000Y-26500000D02*
X8000000Y-26500000D01*
X7000000Y-25500000D02*
X7000000Y-27500000D01*
X23118034Y-1500000D02*
G75*
G03*
X23118034Y-1500000I-1118034J0D01*
G01*
D11*
X18175000Y-22350000D02*
X18175000Y-26650000D01*
X22825000Y-22350000D02*
X22825000Y-26650000D01*
X18175000Y-22350000D02*
X22825000Y-22350000D01*
X18175000Y-26650000D02*
X22825000Y-26650000D01*
D12*
X21000000Y-28000000D02*
X21000000Y-27000000D01*
X21000000Y-27000000D02*
X20250000Y-27500000D01*
X20250000Y-27500000D02*
X21000000Y-28000000D01*
X20250000Y-28000000D02*
X20250000Y-27000000D01*
X20250000Y-27500000D02*
X19500000Y-27500000D01*
X21000000Y-27500000D02*
X21750000Y-27500000D01*
D11*
X18175000Y-16600000D02*
X18175000Y-20900000D01*
X22825000Y-16600000D02*
X22825000Y-20900000D01*
X18175000Y-16600000D02*
X22825000Y-16600000D01*
X18175000Y-20900000D02*
X22825000Y-20900000D01*
D12*
X21000000Y-22250000D02*
X21000000Y-21250000D01*
X21000000Y-21250000D02*
X20250000Y-21750000D01*
X20250000Y-21750000D02*
X21000000Y-22250000D01*
X20250000Y-22250000D02*
X20250000Y-21250000D01*
X20250000Y-21750000D02*
X19500000Y-21750000D01*
X21000000Y-21750000D02*
X21750000Y-21750000D01*
D11*
X17925000Y-9600000D02*
X17925000Y-13900000D01*
X22575000Y-9600000D02*
X22575000Y-13900000D01*
X17925000Y-9600000D02*
X22575000Y-9600000D01*
X17925000Y-13900000D02*
X22575000Y-13900000D01*
D12*
X20750000Y-15250000D02*
X20750000Y-14250000D01*
X20750000Y-14250000D02*
X20000000Y-14750000D01*
X20000000Y-14750000D02*
X20750000Y-15250000D01*
X20000000Y-15250000D02*
X20000000Y-14250000D01*
X20000000Y-14750000D02*
X19250000Y-14750000D01*
X20750000Y-14750000D02*
X21500000Y-14750000D01*
D11*
X17925000Y-2600000D02*
X17925000Y-6900000D01*
X22575000Y-2600000D02*
X22575000Y-6900000D01*
X17925000Y-2600000D02*
X22575000Y-2600000D01*
X17925000Y-6900000D02*
X22575000Y-6900000D01*
D12*
X20750000Y-8250000D02*
X20750000Y-7250000D01*
X20750000Y-7250000D02*
X20000000Y-7750000D01*
X20000000Y-7750000D02*
X20750000Y-8250000D01*
X20000000Y-8250000D02*
X20000000Y-7250000D01*
X20000000Y-7750000D02*
X19250000Y-7750000D01*
X20750000Y-7750000D02*
X21500000Y-7750000D01*
D11*
X9825000Y-26900000D02*
X9825000Y-22600000D01*
X5175000Y-26900000D02*
X5175000Y-22600000D01*
X9825000Y-26900000D02*
X5175000Y-26900000D01*
X9825000Y-22600000D02*
X5175000Y-22600000D01*
D12*
X7000000Y-21250000D02*
X7000000Y-22250000D01*
X7000000Y-22250000D02*
X7750000Y-21750000D01*
X7750000Y-21750000D02*
X7000000Y-21250000D01*
X7750000Y-21250000D02*
X7750000Y-22250000D01*
X7750000Y-21750000D02*
X8500000Y-21750000D01*
X7000000Y-21750000D02*
X6250000Y-21750000D01*
D11*
X10075000Y-20900000D02*
X10075000Y-16600000D01*
X5425000Y-20900000D02*
X5425000Y-16600000D01*
X10075000Y-20900000D02*
X5425000Y-20900000D01*
X10075000Y-16600000D02*
X5425000Y-16600000D01*
D12*
X7250000Y-15250000D02*
X7250000Y-16250000D01*
X7250000Y-16250000D02*
X8000000Y-15750000D01*
X8000000Y-15750000D02*
X7250000Y-15250000D01*
X8000000Y-15250000D02*
X8000000Y-16250000D01*
X8000000Y-15750000D02*
X8750000Y-15750000D01*
X7250000Y-15750000D02*
X6500000Y-15750000D01*
D11*
X10075000Y-13900000D02*
X10075000Y-9600000D01*
X5425000Y-13900000D02*
X5425000Y-9600000D01*
X10075000Y-13900000D02*
X5425000Y-13900000D01*
X10075000Y-9600000D02*
X5425000Y-9600000D01*
D12*
X7250000Y-8250000D02*
X7250000Y-9250000D01*
X7250000Y-9250000D02*
X8000000Y-8750000D01*
X8000000Y-8750000D02*
X7250000Y-8250000D01*
X8000000Y-8250000D02*
X8000000Y-9250000D01*
X8000000Y-8750000D02*
X8750000Y-8750000D01*
X7250000Y-8750000D02*
X6500000Y-8750000D01*
D11*
X10075000Y-6900000D02*
X10075000Y-2600000D01*
X5425000Y-6900000D02*
X5425000Y-2600000D01*
X10075000Y-6900000D02*
X5425000Y-6900000D01*
X10075000Y-2600000D02*
X5425000Y-2600000D01*
D12*
X7250000Y-1250000D02*
X7250000Y-2250000D01*
X7250000Y-2250000D02*
X8000000Y-1750000D01*
X8000000Y-1750000D02*
X7250000Y-1250000D01*
X8000000Y-1250000D02*
X8000000Y-2250000D01*
X8000000Y-1750000D02*
X8750000Y-1750000D01*
X7250000Y-1750000D02*
X6500000Y-1750000D01*
D10*
X26845238Y-26976190D02*
X26845238Y-27333333D01*
X26821428Y-27404761D01*
X26773809Y-27452380D01*
X26702380Y-27476190D01*
X26654761Y-27476190D01*
X27059523Y-27023809D02*
X27083333Y-27000000D01*
X27130952Y-26976190D01*
X27250000Y-26976190D01*
X27297619Y-27000000D01*
X27321428Y-27023809D01*
X27345238Y-27071428D01*
X27345238Y-27119047D01*
X27321428Y-27190476D01*
X27035714Y-27476190D01*
X27345238Y-27476190D01*
X27654761Y-26976190D02*
X27702380Y-26976190D01*
X27750000Y-27000000D01*
X27773809Y-27023809D01*
X27797619Y-27071428D01*
X27821428Y-27166666D01*
X27821428Y-27285714D01*
X27797619Y-27380952D01*
X27773809Y-27428571D01*
X27750000Y-27452380D01*
X27702380Y-27476190D01*
X27654761Y-27476190D01*
X27607142Y-27452380D01*
X27583333Y-27428571D01*
X27559523Y-27380952D01*
X27535714Y-27285714D01*
X27535714Y-27166666D01*
X27559523Y-27071428D01*
X27583333Y-27023809D01*
X27607142Y-27000000D01*
X27654761Y-26976190D01*
X26845238Y-24226190D02*
X26845238Y-24583333D01*
X26821428Y-24654761D01*
X26773809Y-24702380D01*
X26702380Y-24726190D01*
X26654761Y-24726190D01*
X27345238Y-24726190D02*
X27059523Y-24726190D01*
X27202380Y-24726190D02*
X27202380Y-24226190D01*
X27154761Y-24297619D01*
X27107142Y-24345238D01*
X27059523Y-24369047D01*
X27583333Y-24726190D02*
X27678571Y-24726190D01*
X27726190Y-24702380D01*
X27750000Y-24678571D01*
X27797619Y-24607142D01*
X27821428Y-24511904D01*
X27821428Y-24321428D01*
X27797619Y-24273809D01*
X27773809Y-24250000D01*
X27726190Y-24226190D01*
X27630952Y-24226190D01*
X27583333Y-24250000D01*
X27559523Y-24273809D01*
X27535714Y-24321428D01*
X27535714Y-24440476D01*
X27559523Y-24488095D01*
X27583333Y-24511904D01*
X27630952Y-24535714D01*
X27726190Y-24535714D01*
X27773809Y-24511904D01*
X27797619Y-24488095D01*
X27821428Y-24440476D01*
X26845238Y-20226190D02*
X26845238Y-20583333D01*
X26821428Y-20654761D01*
X26773809Y-20702380D01*
X26702380Y-20726190D01*
X26654761Y-20726190D01*
X27345238Y-20726190D02*
X27059523Y-20726190D01*
X27202380Y-20726190D02*
X27202380Y-20226190D01*
X27154761Y-20297619D01*
X27107142Y-20345238D01*
X27059523Y-20369047D01*
X27630952Y-20440476D02*
X27583333Y-20416666D01*
X27559523Y-20392857D01*
X27535714Y-20345238D01*
X27535714Y-20321428D01*
X27559523Y-20273809D01*
X27583333Y-20250000D01*
X27630952Y-20226190D01*
X27726190Y-20226190D01*
X27773809Y-20250000D01*
X27797619Y-20273809D01*
X27821428Y-20321428D01*
X27821428Y-20345238D01*
X27797619Y-20392857D01*
X27773809Y-20416666D01*
X27726190Y-20440476D01*
X27630952Y-20440476D01*
X27583333Y-20464285D01*
X27559523Y-20488095D01*
X27535714Y-20535714D01*
X27535714Y-20630952D01*
X27559523Y-20678571D01*
X27583333Y-20702380D01*
X27630952Y-20726190D01*
X27726190Y-20726190D01*
X27773809Y-20702380D01*
X27797619Y-20678571D01*
X27821428Y-20630952D01*
X27821428Y-20535714D01*
X27797619Y-20488095D01*
X27773809Y-20464285D01*
X27726190Y-20440476D01*
X26845238Y-17226190D02*
X26845238Y-17583333D01*
X26821428Y-17654761D01*
X26773809Y-17702380D01*
X26702380Y-17726190D01*
X26654761Y-17726190D01*
X27345238Y-17726190D02*
X27059523Y-17726190D01*
X27202380Y-17726190D02*
X27202380Y-17226190D01*
X27154761Y-17297619D01*
X27107142Y-17345238D01*
X27059523Y-17369047D01*
X27511904Y-17226190D02*
X27845238Y-17226190D01*
X27630952Y-17726190D01*
X26845238Y-12976190D02*
X26845238Y-13333333D01*
X26821428Y-13404761D01*
X26773809Y-13452380D01*
X26702380Y-13476190D01*
X26654761Y-13476190D01*
X27345238Y-13476190D02*
X27059523Y-13476190D01*
X27202380Y-13476190D02*
X27202380Y-12976190D01*
X27154761Y-13047619D01*
X27107142Y-13095238D01*
X27059523Y-13119047D01*
X27773809Y-12976190D02*
X27678571Y-12976190D01*
X27630952Y-13000000D01*
X27607142Y-13023809D01*
X27559523Y-13095238D01*
X27535714Y-13190476D01*
X27535714Y-13380952D01*
X27559523Y-13428571D01*
X27583333Y-13452380D01*
X27630952Y-13476190D01*
X27726190Y-13476190D01*
X27773809Y-13452380D01*
X27797619Y-13428571D01*
X27821428Y-13380952D01*
X27821428Y-13261904D01*
X27797619Y-13214285D01*
X27773809Y-13190476D01*
X27726190Y-13166666D01*
X27630952Y-13166666D01*
X27583333Y-13190476D01*
X27559523Y-13214285D01*
X27535714Y-13261904D01*
X26845238Y-10226190D02*
X26845238Y-10583333D01*
X26821428Y-10654761D01*
X26773809Y-10702380D01*
X26702380Y-10726190D01*
X26654761Y-10726190D01*
X27345238Y-10726190D02*
X27059523Y-10726190D01*
X27202380Y-10726190D02*
X27202380Y-10226190D01*
X27154761Y-10297619D01*
X27107142Y-10345238D01*
X27059523Y-10369047D01*
X27797619Y-10226190D02*
X27559523Y-10226190D01*
X27535714Y-10464285D01*
X27559523Y-10440476D01*
X27607142Y-10416666D01*
X27726190Y-10416666D01*
X27773809Y-10440476D01*
X27797619Y-10464285D01*
X27821428Y-10511904D01*
X27821428Y-10630952D01*
X27797619Y-10678571D01*
X27773809Y-10702380D01*
X27726190Y-10726190D01*
X27607142Y-10726190D01*
X27559523Y-10702380D01*
X27535714Y-10678571D01*
X26845238Y-5976190D02*
X26845238Y-6333333D01*
X26821428Y-6404761D01*
X26773809Y-6452380D01*
X26702380Y-6476190D01*
X26654761Y-6476190D01*
X27345238Y-6476190D02*
X27059523Y-6476190D01*
X27202380Y-6476190D02*
X27202380Y-5976190D01*
X27154761Y-6047619D01*
X27107142Y-6095238D01*
X27059523Y-6119047D01*
X27773809Y-6142857D02*
X27773809Y-6476190D01*
X27654761Y-5952380D02*
X27535714Y-6309523D01*
X27845238Y-6309523D01*
X26845238Y-3226190D02*
X26845238Y-3583333D01*
X26821428Y-3654761D01*
X26773809Y-3702380D01*
X26702380Y-3726190D01*
X26654761Y-3726190D01*
X27345238Y-3726190D02*
X27059523Y-3726190D01*
X27202380Y-3726190D02*
X27202380Y-3226190D01*
X27154761Y-3297619D01*
X27107142Y-3345238D01*
X27059523Y-3369047D01*
X27511904Y-3226190D02*
X27821428Y-3226190D01*
X27654761Y-3416666D01*
X27726190Y-3416666D01*
X27773809Y-3440476D01*
X27797619Y-3464285D01*
X27821428Y-3511904D01*
X27821428Y-3630952D01*
X27797619Y-3678571D01*
X27773809Y-3702380D01*
X27726190Y-3726190D01*
X27583333Y-3726190D01*
X27535714Y-3702380D01*
X27511904Y-3678571D01*
X14845238Y-23976190D02*
X14845238Y-24333333D01*
X14821428Y-24404761D01*
X14773809Y-24452380D01*
X14702380Y-24476190D01*
X14654761Y-24476190D01*
X15345238Y-24476190D02*
X15059523Y-24476190D01*
X15202380Y-24476190D02*
X15202380Y-23976190D01*
X15154761Y-24047619D01*
X15107142Y-24095238D01*
X15059523Y-24119047D01*
X15535714Y-24023809D02*
X15559523Y-24000000D01*
X15607142Y-23976190D01*
X15726190Y-23976190D01*
X15773809Y-24000000D01*
X15797619Y-24023809D01*
X15821428Y-24071428D01*
X15821428Y-24119047D01*
X15797619Y-24190476D01*
X15511904Y-24476190D01*
X15821428Y-24476190D01*
X14845238Y-3476190D02*
X14845238Y-3833333D01*
X14821428Y-3904761D01*
X14773809Y-3952380D01*
X14702380Y-3976190D01*
X14654761Y-3976190D01*
X15345238Y-3976190D02*
X15059523Y-3976190D01*
X15202380Y-3976190D02*
X15202380Y-3476190D01*
X15154761Y-3547619D01*
X15107142Y-3595238D01*
X15059523Y-3619047D01*
X15821428Y-3976190D02*
X15535714Y-3976190D01*
X15678571Y-3976190D02*
X15678571Y-3476190D01*
X15630952Y-3547619D01*
X15583333Y-3595238D01*
X15535714Y-3619047D01*
X12345238Y-23976190D02*
X12345238Y-24333333D01*
X12321428Y-24404761D01*
X12273809Y-24452380D01*
X12202380Y-24476190D01*
X12154761Y-24476190D01*
X12845238Y-24476190D02*
X12559523Y-24476190D01*
X12702380Y-24476190D02*
X12702380Y-23976190D01*
X12654761Y-24047619D01*
X12607142Y-24095238D01*
X12559523Y-24119047D01*
X13154761Y-23976190D02*
X13202380Y-23976190D01*
X13250000Y-24000000D01*
X13273809Y-24023809D01*
X13297619Y-24071428D01*
X13321428Y-24166666D01*
X13321428Y-24285714D01*
X13297619Y-24380952D01*
X13273809Y-24428571D01*
X13250000Y-24452380D01*
X13202380Y-24476190D01*
X13154761Y-24476190D01*
X13107142Y-24452380D01*
X13083333Y-24428571D01*
X13059523Y-24380952D01*
X13035714Y-24285714D01*
X13035714Y-24166666D01*
X13059523Y-24071428D01*
X13083333Y-24023809D01*
X13107142Y-24000000D01*
X13154761Y-23976190D01*
X12583333Y-3476190D02*
X12583333Y-3833333D01*
X12559523Y-3904761D01*
X12511904Y-3952380D01*
X12440476Y-3976190D01*
X12392857Y-3976190D01*
X12845238Y-3976190D02*
X12940476Y-3976190D01*
X12988095Y-3952380D01*
X13011904Y-3928571D01*
X13059523Y-3857142D01*
X13083333Y-3761904D01*
X13083333Y-3571428D01*
X13059523Y-3523809D01*
X13035714Y-3500000D01*
X12988095Y-3476190D01*
X12892857Y-3476190D01*
X12845238Y-3500000D01*
X12821428Y-3523809D01*
X12797619Y-3571428D01*
X12797619Y-3690476D01*
X12821428Y-3738095D01*
X12845238Y-3761904D01*
X12892857Y-3785714D01*
X12988095Y-3785714D01*
X13035714Y-3761904D01*
X13059523Y-3738095D01*
X13083333Y-3690476D01*
X333333Y-25476190D02*
X333333Y-25833333D01*
X309523Y-25904761D01*
X261904Y-25952380D01*
X190476Y-25976190D01*
X142857Y-25976190D01*
X642857Y-25690476D02*
X595238Y-25666666D01*
X571428Y-25642857D01*
X547619Y-25595238D01*
X547619Y-25571428D01*
X571428Y-25523809D01*
X595238Y-25500000D01*
X642857Y-25476190D01*
X738095Y-25476190D01*
X785714Y-25500000D01*
X809523Y-25523809D01*
X833333Y-25571428D01*
X833333Y-25595238D01*
X809523Y-25642857D01*
X785714Y-25666666D01*
X738095Y-25690476D01*
X642857Y-25690476D01*
X595238Y-25714285D01*
X571428Y-25738095D01*
X547619Y-25785714D01*
X547619Y-25880952D01*
X571428Y-25928571D01*
X595238Y-25952380D01*
X642857Y-25976190D01*
X738095Y-25976190D01*
X785714Y-25952380D01*
X809523Y-25928571D01*
X833333Y-25880952D01*
X833333Y-25785714D01*
X809523Y-25738095D01*
X785714Y-25714285D01*
X738095Y-25690476D01*
X333333Y-22976190D02*
X333333Y-23333333D01*
X309523Y-23404761D01*
X261904Y-23452380D01*
X190476Y-23476190D01*
X142857Y-23476190D01*
X523809Y-22976190D02*
X857142Y-22976190D01*
X642857Y-23476190D01*
X333333Y-18476190D02*
X333333Y-18833333D01*
X309523Y-18904761D01*
X261904Y-18952380D01*
X190476Y-18976190D01*
X142857Y-18976190D01*
X785714Y-18476190D02*
X690476Y-18476190D01*
X642857Y-18500000D01*
X619047Y-18523809D01*
X571428Y-18595238D01*
X547619Y-18690476D01*
X547619Y-18880952D01*
X571428Y-18928571D01*
X595238Y-18952380D01*
X642857Y-18976190D01*
X738095Y-18976190D01*
X785714Y-18952380D01*
X809523Y-18928571D01*
X833333Y-18880952D01*
X833333Y-18761904D01*
X809523Y-18714285D01*
X785714Y-18690476D01*
X738095Y-18666666D01*
X642857Y-18666666D01*
X595238Y-18690476D01*
X571428Y-18714285D01*
X547619Y-18761904D01*
X333333Y-15976190D02*
X333333Y-16333333D01*
X309523Y-16404761D01*
X261904Y-16452380D01*
X190476Y-16476190D01*
X142857Y-16476190D01*
X809523Y-15976190D02*
X571428Y-15976190D01*
X547619Y-16214285D01*
X571428Y-16190476D01*
X619047Y-16166666D01*
X738095Y-16166666D01*
X785714Y-16190476D01*
X809523Y-16214285D01*
X833333Y-16261904D01*
X833333Y-16380952D01*
X809523Y-16428571D01*
X785714Y-16452380D01*
X738095Y-16476190D01*
X619047Y-16476190D01*
X571428Y-16452380D01*
X547619Y-16428571D01*
X333333Y-11476190D02*
X333333Y-11833333D01*
X309523Y-11904761D01*
X261904Y-11952380D01*
X190476Y-11976190D01*
X142857Y-11976190D01*
X785714Y-11642857D02*
X785714Y-11976190D01*
X666666Y-11452380D02*
X547619Y-11809523D01*
X857142Y-11809523D01*
X333333Y-8976190D02*
X333333Y-9333333D01*
X309523Y-9404761D01*
X261904Y-9452380D01*
X190476Y-9476190D01*
X142857Y-9476190D01*
X523809Y-8976190D02*
X833333Y-8976190D01*
X666666Y-9166666D01*
X738095Y-9166666D01*
X785714Y-9190476D01*
X809523Y-9214285D01*
X833333Y-9261904D01*
X833333Y-9380952D01*
X809523Y-9428571D01*
X785714Y-9452380D01*
X738095Y-9476190D01*
X595238Y-9476190D01*
X547619Y-9452380D01*
X523809Y-9428571D01*
X333333Y-4476190D02*
X333333Y-4833333D01*
X309523Y-4904761D01*
X261904Y-4952380D01*
X190476Y-4976190D01*
X142857Y-4976190D01*
X547619Y-4523809D02*
X571428Y-4500000D01*
X619047Y-4476190D01*
X738095Y-4476190D01*
X785714Y-4500000D01*
X809523Y-4523809D01*
X833333Y-4571428D01*
X833333Y-4619047D01*
X809523Y-4690476D01*
X523809Y-4976190D01*
X833333Y-4976190D01*
X333333Y-1976190D02*
X333333Y-2333333D01*
X309523Y-2404761D01*
X261904Y-2452380D01*
X190476Y-2476190D01*
X142857Y-2476190D01*
X833333Y-2476190D02*
X547619Y-2476190D01*
X690476Y-2476190D02*
X690476Y-1976190D01*
X642857Y-2047619D01*
X595238Y-2095238D01*
X547619Y-2119047D01*
D12*
X15761904Y-23202380D02*
X15761904Y-22202380D01*
X16000000Y-22202380D01*
X16142857Y-22250000D01*
X16238095Y-22345238D01*
X16285714Y-22440476D01*
X16333333Y-22630952D01*
X16333333Y-22773809D01*
X16285714Y-22964285D01*
X16238095Y-23059523D01*
X16142857Y-23154761D01*
X16000000Y-23202380D01*
X15761904Y-23202380D01*
X16904761Y-22630952D02*
X16809523Y-22583333D01*
X16761904Y-22535714D01*
X16714285Y-22440476D01*
X16714285Y-22392857D01*
X16761904Y-22297619D01*
X16809523Y-22250000D01*
X16904761Y-22202380D01*
X17095238Y-22202380D01*
X17190476Y-22250000D01*
X17238095Y-22297619D01*
X17285714Y-22392857D01*
X17285714Y-22440476D01*
X17238095Y-22535714D01*
X17190476Y-22583333D01*
X17095238Y-22630952D01*
X16904761Y-22630952D01*
X16809523Y-22678571D01*
X16761904Y-22726190D01*
X16714285Y-22821428D01*
X16714285Y-23011904D01*
X16761904Y-23107142D01*
X16809523Y-23154761D01*
X16904761Y-23202380D01*
X17095238Y-23202380D01*
X17190476Y-23154761D01*
X17238095Y-23107142D01*
X17285714Y-23011904D01*
X17285714Y-22821428D01*
X17238095Y-22726190D01*
X17190476Y-22678571D01*
X17095238Y-22630952D01*
X15761904Y-16952380D02*
X15761904Y-15952380D01*
X16000000Y-15952380D01*
X16142857Y-16000000D01*
X16238095Y-16095238D01*
X16285714Y-16190476D01*
X16333333Y-16380952D01*
X16333333Y-16523809D01*
X16285714Y-16714285D01*
X16238095Y-16809523D01*
X16142857Y-16904761D01*
X16000000Y-16952380D01*
X15761904Y-16952380D01*
X16666666Y-15952380D02*
X17333333Y-15952380D01*
X16904761Y-16952380D01*
X15761904Y-14452380D02*
X15761904Y-13452380D01*
X16000000Y-13452380D01*
X16142857Y-13500000D01*
X16238095Y-13595238D01*
X16285714Y-13690476D01*
X16333333Y-13880952D01*
X16333333Y-14023809D01*
X16285714Y-14214285D01*
X16238095Y-14309523D01*
X16142857Y-14404761D01*
X16000000Y-14452380D01*
X15761904Y-14452380D01*
X17190476Y-13452380D02*
X17000000Y-13452380D01*
X16904761Y-13500000D01*
X16857142Y-13547619D01*
X16761904Y-13690476D01*
X16714285Y-13880952D01*
X16714285Y-14261904D01*
X16761904Y-14357142D01*
X16809523Y-14404761D01*
X16904761Y-14452380D01*
X17095238Y-14452380D01*
X17190476Y-14404761D01*
X17238095Y-14357142D01*
X17285714Y-14261904D01*
X17285714Y-14023809D01*
X17238095Y-13928571D01*
X17190476Y-13880952D01*
X17095238Y-13833333D01*
X16904761Y-13833333D01*
X16809523Y-13880952D01*
X16761904Y-13928571D01*
X16714285Y-14023809D01*
X15761904Y-7452380D02*
X15761904Y-6452380D01*
X16000000Y-6452380D01*
X16142857Y-6500000D01*
X16238095Y-6595238D01*
X16285714Y-6690476D01*
X16333333Y-6880952D01*
X16333333Y-7023809D01*
X16285714Y-7214285D01*
X16238095Y-7309523D01*
X16142857Y-7404761D01*
X16000000Y-7452380D01*
X15761904Y-7452380D01*
X17238095Y-6452380D02*
X16761904Y-6452380D01*
X16714285Y-6928571D01*
X16761904Y-6880952D01*
X16857142Y-6833333D01*
X17095238Y-6833333D01*
X17190476Y-6880952D01*
X17238095Y-6928571D01*
X17285714Y-7023809D01*
X17285714Y-7261904D01*
X17238095Y-7357142D01*
X17190476Y-7404761D01*
X17095238Y-7452380D01*
X16857142Y-7452380D01*
X16761904Y-7404761D01*
X16714285Y-7357142D01*
X11011904Y-23202380D02*
X11011904Y-22202380D01*
X11250000Y-22202380D01*
X11392857Y-22250000D01*
X11488095Y-22345238D01*
X11535714Y-22440476D01*
X11583333Y-22630952D01*
X11583333Y-22773809D01*
X11535714Y-22964285D01*
X11488095Y-23059523D01*
X11392857Y-23154761D01*
X11250000Y-23202380D01*
X11011904Y-23202380D01*
X12440476Y-22535714D02*
X12440476Y-23202380D01*
X12202380Y-22154761D02*
X11964285Y-22869047D01*
X12583333Y-22869047D01*
X11011904Y-16952380D02*
X11011904Y-15952380D01*
X11250000Y-15952380D01*
X11392857Y-16000000D01*
X11488095Y-16095238D01*
X11535714Y-16190476D01*
X11583333Y-16380952D01*
X11583333Y-16523809D01*
X11535714Y-16714285D01*
X11488095Y-16809523D01*
X11392857Y-16904761D01*
X11250000Y-16952380D01*
X11011904Y-16952380D01*
X11916666Y-15952380D02*
X12535714Y-15952380D01*
X12202380Y-16333333D01*
X12345238Y-16333333D01*
X12440476Y-16380952D01*
X12488095Y-16428571D01*
X12535714Y-16523809D01*
X12535714Y-16761904D01*
X12488095Y-16857142D01*
X12440476Y-16904761D01*
X12345238Y-16952380D01*
X12059523Y-16952380D01*
X11964285Y-16904761D01*
X11916666Y-16857142D01*
X11011904Y-14452380D02*
X11011904Y-13452380D01*
X11250000Y-13452380D01*
X11392857Y-13500000D01*
X11488095Y-13595238D01*
X11535714Y-13690476D01*
X11583333Y-13880952D01*
X11583333Y-14023809D01*
X11535714Y-14214285D01*
X11488095Y-14309523D01*
X11392857Y-14404761D01*
X11250000Y-14452380D01*
X11011904Y-14452380D01*
X11964285Y-13547619D02*
X12011904Y-13500000D01*
X12107142Y-13452380D01*
X12345238Y-13452380D01*
X12440476Y-13500000D01*
X12488095Y-13547619D01*
X12535714Y-13642857D01*
X12535714Y-13738095D01*
X12488095Y-13880952D01*
X11916666Y-14452380D01*
X12535714Y-14452380D01*
X11011904Y-7452380D02*
X11011904Y-6452380D01*
X11250000Y-6452380D01*
X11392857Y-6500000D01*
X11488095Y-6595238D01*
X11535714Y-6690476D01*
X11583333Y-6880952D01*
X11583333Y-7023809D01*
X11535714Y-7214285D01*
X11488095Y-7309523D01*
X11392857Y-7404761D01*
X11250000Y-7452380D01*
X11011904Y-7452380D01*
X12535714Y-7452380D02*
X11964285Y-7452380D01*
X12250000Y-7452380D02*
X12250000Y-6452380D01*
X12154761Y-6595238D01*
X12059523Y-6690476D01*
X11964285Y-6738095D01*
M02*
