G04 #@! TF.GenerationSoftware,KiCad,Pcbnew,(5.1.10-1-10_14)*
G04 #@! TF.CreationDate,2022-04-08T14:19:17+01:00*
G04 #@! TF.ProjectId,alignmentJig_AFMD_28x28,616c6967-6e6d-4656-9e74-4a69675f4146,rev?*
G04 #@! TF.SameCoordinates,Original*
G04 #@! TF.FileFunction,Legend,Bot*
G04 #@! TF.FilePolarity,Positive*
%FSLAX46Y46*%
G04 Gerber Fmt 4.6, Leading zero omitted, Abs format (unit mm)*
G04 Created by KiCad (PCBNEW (5.1.10-1-10_14)) date 2022-04-08 14:19:17*
%MOMM*%
%LPD*%
G01*
G04 APERTURE LIST*
%ADD10C,0.120000*%
%ADD11C,0.200000*%
G04 APERTURE END LIST*
D10*
X6000000Y-26500000D02*
X8000000Y-26500000D01*
X7000000Y-25500000D02*
X7000000Y-27500000D01*
X23118034Y-1500000D02*
G75*
G03*
X23118034Y-1500000I-1118034J0D01*
G01*
D11*
X12683333Y-6342857D02*
X12683333Y-6723809D01*
X12911904Y-6266666D02*
X12111904Y-6533333D01*
X12911904Y-6800000D01*
X12492857Y-7333333D02*
X12492857Y-7066666D01*
X12911904Y-7066666D02*
X12111904Y-7066666D01*
X12111904Y-7447619D01*
X12911904Y-7752380D02*
X12111904Y-7752380D01*
X12683333Y-8019047D01*
X12111904Y-8285714D01*
X12911904Y-8285714D01*
X12911904Y-8666666D02*
X12111904Y-8666666D01*
X12111904Y-8857142D01*
X12150000Y-8971428D01*
X12226190Y-9047619D01*
X12302380Y-9085714D01*
X12454761Y-9123809D01*
X12569047Y-9123809D01*
X12721428Y-9085714D01*
X12797619Y-9047619D01*
X12873809Y-8971428D01*
X12911904Y-8857142D01*
X12911904Y-8666666D01*
X12988095Y-9276190D02*
X12988095Y-9885714D01*
X12188095Y-10038095D02*
X12150000Y-10076190D01*
X12111904Y-10152380D01*
X12111904Y-10342857D01*
X12150000Y-10419047D01*
X12188095Y-10457142D01*
X12264285Y-10495238D01*
X12340476Y-10495238D01*
X12454761Y-10457142D01*
X12911904Y-10000000D01*
X12911904Y-10495238D01*
X12454761Y-10952380D02*
X12416666Y-10876190D01*
X12378571Y-10838095D01*
X12302380Y-10799999D01*
X12264285Y-10799999D01*
X12188095Y-10838095D01*
X12150000Y-10876190D01*
X12111904Y-10952380D01*
X12111904Y-11104761D01*
X12150000Y-11180952D01*
X12188095Y-11219047D01*
X12264285Y-11257142D01*
X12302380Y-11257142D01*
X12378571Y-11219047D01*
X12416666Y-11180952D01*
X12454761Y-11104761D01*
X12454761Y-10952380D01*
X12492857Y-10876190D01*
X12530952Y-10838095D01*
X12607142Y-10799999D01*
X12759523Y-10799999D01*
X12835714Y-10838095D01*
X12873809Y-10876190D01*
X12911904Y-10952380D01*
X12911904Y-11104761D01*
X12873809Y-11180952D01*
X12835714Y-11219047D01*
X12759523Y-11257142D01*
X12607142Y-11257142D01*
X12530952Y-11219047D01*
X12492857Y-11180952D01*
X12454761Y-11104761D01*
X12911904Y-11523809D02*
X12378571Y-11942857D01*
X12378571Y-11523809D02*
X12911904Y-11942857D01*
X12188095Y-12209523D02*
X12150000Y-12247619D01*
X12111904Y-12323809D01*
X12111904Y-12514285D01*
X12150000Y-12590476D01*
X12188095Y-12628571D01*
X12264285Y-12666666D01*
X12340476Y-12666666D01*
X12454761Y-12628571D01*
X12911904Y-12171428D01*
X12911904Y-12666666D01*
X12454761Y-13123809D02*
X12416666Y-13047619D01*
X12378571Y-13009523D01*
X12302380Y-12971428D01*
X12264285Y-12971428D01*
X12188095Y-13009523D01*
X12150000Y-13047619D01*
X12111904Y-13123809D01*
X12111904Y-13276190D01*
X12150000Y-13352380D01*
X12188095Y-13390476D01*
X12264285Y-13428571D01*
X12302380Y-13428571D01*
X12378571Y-13390476D01*
X12416666Y-13352380D01*
X12454761Y-13276190D01*
X12454761Y-13123809D01*
X12492857Y-13047619D01*
X12530952Y-13009523D01*
X12607142Y-12971428D01*
X12759523Y-12971428D01*
X12835714Y-13009523D01*
X12873809Y-13047619D01*
X12911904Y-13123809D01*
X12911904Y-13276190D01*
X12873809Y-13352380D01*
X12835714Y-13390476D01*
X12759523Y-13428571D01*
X12607142Y-13428571D01*
X12530952Y-13390476D01*
X12492857Y-13352380D01*
X12454761Y-13276190D01*
X12988095Y-13580952D02*
X12988095Y-14190476D01*
X12911904Y-14723809D02*
X12492857Y-14723809D01*
X12416666Y-14685714D01*
X12378571Y-14609523D01*
X12378571Y-14457142D01*
X12416666Y-14380952D01*
X12873809Y-14723809D02*
X12911904Y-14647619D01*
X12911904Y-14457142D01*
X12873809Y-14380952D01*
X12797619Y-14342857D01*
X12721428Y-14342857D01*
X12645238Y-14380952D01*
X12607142Y-14457142D01*
X12607142Y-14647619D01*
X12569047Y-14723809D01*
X12911904Y-15219047D02*
X12873809Y-15142857D01*
X12797619Y-15104761D01*
X12111904Y-15104761D01*
X12911904Y-15523809D02*
X12378571Y-15523809D01*
X12111904Y-15523809D02*
X12150000Y-15485714D01*
X12188095Y-15523809D01*
X12150000Y-15561904D01*
X12111904Y-15523809D01*
X12188095Y-15523809D01*
X12378571Y-16247619D02*
X13026190Y-16247619D01*
X13102380Y-16209523D01*
X13140476Y-16171428D01*
X13178571Y-16095238D01*
X13178571Y-15980952D01*
X13140476Y-15904761D01*
X12873809Y-16247619D02*
X12911904Y-16171428D01*
X12911904Y-16019047D01*
X12873809Y-15942857D01*
X12835714Y-15904761D01*
X12759523Y-15866666D01*
X12530952Y-15866666D01*
X12454761Y-15904761D01*
X12416666Y-15942857D01*
X12378571Y-16019047D01*
X12378571Y-16171428D01*
X12416666Y-16247619D01*
X12378571Y-16628571D02*
X12911904Y-16628571D01*
X12454761Y-16628571D02*
X12416666Y-16666666D01*
X12378571Y-16742857D01*
X12378571Y-16857142D01*
X12416666Y-16933333D01*
X12492857Y-16971428D01*
X12911904Y-16971428D01*
X12911904Y-17352380D02*
X12378571Y-17352380D01*
X12454761Y-17352380D02*
X12416666Y-17390476D01*
X12378571Y-17466666D01*
X12378571Y-17580952D01*
X12416666Y-17657142D01*
X12492857Y-17695238D01*
X12911904Y-17695238D01*
X12492857Y-17695238D02*
X12416666Y-17733333D01*
X12378571Y-17809523D01*
X12378571Y-17923809D01*
X12416666Y-17999999D01*
X12492857Y-18038095D01*
X12911904Y-18038095D01*
X12873809Y-18723809D02*
X12911904Y-18647619D01*
X12911904Y-18495238D01*
X12873809Y-18419047D01*
X12797619Y-18380952D01*
X12492857Y-18380952D01*
X12416666Y-18419047D01*
X12378571Y-18495238D01*
X12378571Y-18647619D01*
X12416666Y-18723809D01*
X12492857Y-18761904D01*
X12569047Y-18761904D01*
X12645238Y-18380952D01*
X12378571Y-19104761D02*
X12911904Y-19104761D01*
X12454761Y-19104761D02*
X12416666Y-19142857D01*
X12378571Y-19219047D01*
X12378571Y-19333333D01*
X12416666Y-19409523D01*
X12492857Y-19447619D01*
X12911904Y-19447619D01*
X12378571Y-19714285D02*
X12378571Y-20019047D01*
X12111904Y-19828571D02*
X12797619Y-19828571D01*
X12873809Y-19866666D01*
X12911904Y-19942857D01*
X12911904Y-20019047D01*
X12111904Y-20514285D02*
X12683333Y-20514285D01*
X12797619Y-20476190D01*
X12873809Y-20399999D01*
X12911904Y-20285714D01*
X12911904Y-20209523D01*
X12911904Y-20895238D02*
X12378571Y-20895238D01*
X12111904Y-20895238D02*
X12150000Y-20857142D01*
X12188095Y-20895238D01*
X12150000Y-20933333D01*
X12111904Y-20895238D01*
X12188095Y-20895238D01*
X12378571Y-21619047D02*
X13026190Y-21619047D01*
X13102380Y-21580952D01*
X13140476Y-21542857D01*
X13178571Y-21466666D01*
X13178571Y-21352380D01*
X13140476Y-21276190D01*
X12873809Y-21619047D02*
X12911904Y-21542857D01*
X12911904Y-21390476D01*
X12873809Y-21314285D01*
X12835714Y-21276190D01*
X12759523Y-21238095D01*
X12530952Y-21238095D01*
X12454761Y-21276190D01*
X12416666Y-21314285D01*
X12378571Y-21390476D01*
X12378571Y-21542857D01*
X12416666Y-21619047D01*
X14311904Y-3676190D02*
X13892857Y-3676190D01*
X13816666Y-3638095D01*
X13778571Y-3561904D01*
X13778571Y-3409523D01*
X13816666Y-3333333D01*
X14273809Y-3676190D02*
X14311904Y-3600000D01*
X14311904Y-3409523D01*
X14273809Y-3333333D01*
X14197619Y-3295238D01*
X14121428Y-3295238D01*
X14045238Y-3333333D01*
X14007142Y-3409523D01*
X14007142Y-3600000D01*
X13969047Y-3676190D01*
X13778571Y-4400000D02*
X14311904Y-4400000D01*
X13778571Y-4057142D02*
X14197619Y-4057142D01*
X14273809Y-4095238D01*
X14311904Y-4171428D01*
X14311904Y-4285714D01*
X14273809Y-4361904D01*
X14235714Y-4400000D01*
X13778571Y-5123809D02*
X14426190Y-5123809D01*
X14502380Y-5085714D01*
X14540476Y-5047619D01*
X14578571Y-4971428D01*
X14578571Y-4857142D01*
X14540476Y-4780952D01*
X14273809Y-5123809D02*
X14311904Y-5047619D01*
X14311904Y-4895238D01*
X14273809Y-4819047D01*
X14235714Y-4780952D01*
X14159523Y-4742857D01*
X13930952Y-4742857D01*
X13854761Y-4780952D01*
X13816666Y-4819047D01*
X13778571Y-4895238D01*
X13778571Y-5047619D01*
X13816666Y-5123809D01*
X13778571Y-5847619D02*
X14311904Y-5847619D01*
X13778571Y-5504761D02*
X14197619Y-5504761D01*
X14273809Y-5542857D01*
X14311904Y-5619047D01*
X14311904Y-5733333D01*
X14273809Y-5809523D01*
X14235714Y-5847619D01*
X14273809Y-6190476D02*
X14311904Y-6266666D01*
X14311904Y-6419047D01*
X14273809Y-6495238D01*
X14197619Y-6533333D01*
X14159523Y-6533333D01*
X14083333Y-6495238D01*
X14045238Y-6419047D01*
X14045238Y-6304761D01*
X14007142Y-6228571D01*
X13930952Y-6190476D01*
X13892857Y-6190476D01*
X13816666Y-6228571D01*
X13778571Y-6304761D01*
X13778571Y-6419047D01*
X13816666Y-6495238D01*
X13778571Y-6761904D02*
X13778571Y-7066666D01*
X13511904Y-6876190D02*
X14197619Y-6876190D01*
X14273809Y-6914285D01*
X14311904Y-6990476D01*
X14311904Y-7066666D01*
X14311904Y-7333333D02*
X13778571Y-7333333D01*
X13511904Y-7333333D02*
X13550000Y-7295238D01*
X13588095Y-7333333D01*
X13550000Y-7371428D01*
X13511904Y-7333333D01*
X13588095Y-7333333D01*
X13778571Y-7714285D02*
X14311904Y-7714285D01*
X13854761Y-7714285D02*
X13816666Y-7752380D01*
X13778571Y-7828571D01*
X13778571Y-7942857D01*
X13816666Y-8019047D01*
X13892857Y-8057142D01*
X14311904Y-8057142D01*
X14235714Y-8438095D02*
X14273809Y-8476190D01*
X14311904Y-8438095D01*
X14273809Y-8399999D01*
X14235714Y-8438095D01*
X14311904Y-8438095D01*
X13778571Y-8742857D02*
X13778571Y-9161904D01*
X14311904Y-8742857D01*
X14311904Y-9161904D01*
X14311904Y-9809523D02*
X13892857Y-9809523D01*
X13816666Y-9771428D01*
X13778571Y-9695238D01*
X13778571Y-9542857D01*
X13816666Y-9466666D01*
X14273809Y-9809523D02*
X14311904Y-9733333D01*
X14311904Y-9542857D01*
X14273809Y-9466666D01*
X14197619Y-9428571D01*
X14121428Y-9428571D01*
X14045238Y-9466666D01*
X14007142Y-9542857D01*
X14007142Y-9733333D01*
X13969047Y-9809523D01*
X14311904Y-10190476D02*
X13778571Y-10190476D01*
X13511904Y-10190476D02*
X13550000Y-10152380D01*
X13588095Y-10190476D01*
X13550000Y-10228571D01*
X13511904Y-10190476D01*
X13588095Y-10190476D01*
X13778571Y-10571428D02*
X14311904Y-10571428D01*
X13854761Y-10571428D02*
X13816666Y-10609523D01*
X13778571Y-10685714D01*
X13778571Y-10799999D01*
X13816666Y-10876190D01*
X13892857Y-10914285D01*
X14311904Y-10914285D01*
X14311904Y-11295238D02*
X13778571Y-11295238D01*
X13511904Y-11295238D02*
X13550000Y-11257142D01*
X13588095Y-11295238D01*
X13550000Y-11333333D01*
X13511904Y-11295238D01*
X13588095Y-11295238D01*
X13778571Y-11676190D02*
X14311904Y-11676190D01*
X13854761Y-11676190D02*
X13816666Y-11714285D01*
X13778571Y-11790476D01*
X13778571Y-11904761D01*
X13816666Y-11980952D01*
X13892857Y-12019047D01*
X14311904Y-12019047D01*
X13778571Y-12742857D02*
X14426190Y-12742857D01*
X14502380Y-12704761D01*
X14540476Y-12666666D01*
X14578571Y-12590476D01*
X14578571Y-12476190D01*
X14540476Y-12399999D01*
X14273809Y-12742857D02*
X14311904Y-12666666D01*
X14311904Y-12514285D01*
X14273809Y-12438095D01*
X14235714Y-12399999D01*
X14159523Y-12361904D01*
X13930952Y-12361904D01*
X13854761Y-12399999D01*
X13816666Y-12438095D01*
X13778571Y-12514285D01*
X13778571Y-12666666D01*
X13816666Y-12742857D01*
X14273809Y-13428571D02*
X14311904Y-13352380D01*
X14311904Y-13199999D01*
X14273809Y-13123809D01*
X14197619Y-13085714D01*
X13892857Y-13085714D01*
X13816666Y-13123809D01*
X13778571Y-13199999D01*
X13778571Y-13352380D01*
X13816666Y-13428571D01*
X13892857Y-13466666D01*
X13969047Y-13466666D01*
X14045238Y-13085714D01*
X14311904Y-13809523D02*
X13778571Y-13809523D01*
X13930952Y-13809523D02*
X13854761Y-13847619D01*
X13816666Y-13885714D01*
X13778571Y-13961904D01*
X13778571Y-14038095D01*
X13930952Y-14799999D02*
X13892857Y-14761904D01*
X13854761Y-14685714D01*
X13854761Y-14609523D01*
X13892857Y-14533333D01*
X13930952Y-14495238D01*
X14007142Y-14457142D01*
X14083333Y-14457142D01*
X14159523Y-14495238D01*
X14197619Y-14533333D01*
X14235714Y-14609523D01*
X14235714Y-14685714D01*
X14197619Y-14761904D01*
X14159523Y-14799999D01*
X13854761Y-14799999D02*
X14159523Y-14799999D01*
X14197619Y-14838095D01*
X14197619Y-14876190D01*
X14159523Y-14952380D01*
X14083333Y-14990476D01*
X13892857Y-14990476D01*
X13778571Y-14914285D01*
X13702380Y-14799999D01*
X13664285Y-14647619D01*
X13702380Y-14495238D01*
X13778571Y-14380952D01*
X13892857Y-14304761D01*
X14045238Y-14266666D01*
X14197619Y-14304761D01*
X14311904Y-14380952D01*
X14388095Y-14495238D01*
X14426190Y-14647619D01*
X14388095Y-14799999D01*
X14311904Y-14914285D01*
X13778571Y-15333333D02*
X14578571Y-15333333D01*
X13816666Y-15333333D02*
X13778571Y-15409523D01*
X13778571Y-15561904D01*
X13816666Y-15638095D01*
X13854761Y-15676190D01*
X13930952Y-15714285D01*
X14159523Y-15714285D01*
X14235714Y-15676190D01*
X14273809Y-15638095D01*
X14311904Y-15561904D01*
X14311904Y-15409523D01*
X14273809Y-15333333D01*
X14311904Y-16057142D02*
X13511904Y-16057142D01*
X14311904Y-16399999D02*
X13892857Y-16399999D01*
X13816666Y-16361904D01*
X13778571Y-16285714D01*
X13778571Y-16171428D01*
X13816666Y-16095238D01*
X13854761Y-16057142D01*
X13778571Y-16704761D02*
X14311904Y-16895238D01*
X13778571Y-17085714D02*
X14311904Y-16895238D01*
X14502380Y-16819047D01*
X14540476Y-16780952D01*
X14578571Y-16704761D01*
X14273809Y-17352380D02*
X14311904Y-17428571D01*
X14311904Y-17580952D01*
X14273809Y-17657142D01*
X14197619Y-17695238D01*
X14159523Y-17695238D01*
X14083333Y-17657142D01*
X14045238Y-17580952D01*
X14045238Y-17466666D01*
X14007142Y-17390476D01*
X13930952Y-17352380D01*
X13892857Y-17352380D01*
X13816666Y-17390476D01*
X13778571Y-17466666D01*
X13778571Y-17580952D01*
X13816666Y-17657142D01*
X14311904Y-18038095D02*
X13778571Y-18038095D01*
X13511904Y-18038095D02*
X13550000Y-17999999D01*
X13588095Y-18038095D01*
X13550000Y-18076190D01*
X13511904Y-18038095D01*
X13588095Y-18038095D01*
X14273809Y-18761904D02*
X14311904Y-18685714D01*
X14311904Y-18533333D01*
X14273809Y-18457142D01*
X14235714Y-18419047D01*
X14159523Y-18380952D01*
X13930952Y-18380952D01*
X13854761Y-18419047D01*
X13816666Y-18457142D01*
X13778571Y-18533333D01*
X13778571Y-18685714D01*
X13816666Y-18761904D01*
X14273809Y-19066666D02*
X14311904Y-19142857D01*
X14311904Y-19295238D01*
X14273809Y-19371428D01*
X14197619Y-19409523D01*
X14159523Y-19409523D01*
X14083333Y-19371428D01*
X14045238Y-19295238D01*
X14045238Y-19180952D01*
X14007142Y-19104761D01*
X13930952Y-19066666D01*
X13892857Y-19066666D01*
X13816666Y-19104761D01*
X13778571Y-19180952D01*
X13778571Y-19295238D01*
X13816666Y-19371428D01*
X14235714Y-19752380D02*
X14273809Y-19790476D01*
X14311904Y-19752380D01*
X14273809Y-19714285D01*
X14235714Y-19752380D01*
X14311904Y-19752380D01*
X14311904Y-20247619D02*
X14273809Y-20171428D01*
X14235714Y-20133333D01*
X14159523Y-20095238D01*
X13930952Y-20095238D01*
X13854761Y-20133333D01*
X13816666Y-20171428D01*
X13778571Y-20247619D01*
X13778571Y-20361904D01*
X13816666Y-20438095D01*
X13854761Y-20476190D01*
X13930952Y-20514285D01*
X14159523Y-20514285D01*
X14235714Y-20476190D01*
X14273809Y-20438095D01*
X14311904Y-20361904D01*
X14311904Y-20247619D01*
X14311904Y-20780952D02*
X13778571Y-21199999D01*
X13778571Y-20780952D02*
X14311904Y-21199999D01*
X14235714Y-21504761D02*
X14273809Y-21542857D01*
X14311904Y-21504761D01*
X14273809Y-21466666D01*
X14235714Y-21504761D01*
X14311904Y-21504761D01*
X14311904Y-22228571D02*
X13892857Y-22228571D01*
X13816666Y-22190476D01*
X13778571Y-22114285D01*
X13778571Y-21961904D01*
X13816666Y-21885714D01*
X14273809Y-22228571D02*
X14311904Y-22152380D01*
X14311904Y-21961904D01*
X14273809Y-21885714D01*
X14197619Y-21847619D01*
X14121428Y-21847619D01*
X14045238Y-21885714D01*
X14007142Y-21961904D01*
X14007142Y-22152380D01*
X13969047Y-22228571D01*
X14273809Y-22952380D02*
X14311904Y-22876190D01*
X14311904Y-22723809D01*
X14273809Y-22647619D01*
X14235714Y-22609523D01*
X14159523Y-22571428D01*
X13930952Y-22571428D01*
X13854761Y-22609523D01*
X13816666Y-22647619D01*
X13778571Y-22723809D01*
X13778571Y-22876190D01*
X13816666Y-22952380D01*
X14235714Y-23295238D02*
X14273809Y-23333333D01*
X14311904Y-23295238D01*
X14273809Y-23257142D01*
X14235714Y-23295238D01*
X14311904Y-23295238D01*
X13778571Y-24019047D02*
X14311904Y-24019047D01*
X13778571Y-23676190D02*
X14197619Y-23676190D01*
X14273809Y-23714285D01*
X14311904Y-23790476D01*
X14311904Y-23904761D01*
X14273809Y-23980952D01*
X14235714Y-24019047D01*
X14311904Y-24399999D02*
X13511904Y-24399999D01*
X14007142Y-24476190D02*
X14311904Y-24704761D01*
X13778571Y-24704761D02*
X14083333Y-24399999D01*
M02*
