%!PS-Adobe-3.0
%%Creator: PCBNEW
%%CreationDate: Sun Mar  6 18:38:31 2022
%%Title: /Users/Augustin/OneDrive - Nexus365/Oxford/equipmentProjects/moritzGroup_ELQE/PCBs/riede_ELQE_switchingBoard/riede_ELQE_switchingBoard-drl_map.ps
%%Pages: 1
%%PageOrder: Ascend
%%BoundingBox: 0 0 596 842
%%DocumentMedia: A4 595 842 0 () ()
%%Orientation: Landscape
%%EndComments
%%BeginProlog
/line { newpath moveto lineto stroke } bind def
/cir0 { newpath 0 360 arc stroke } bind def
/cir1 { newpath 0 360 arc gsave fill grestore stroke } bind def
/cir2 { newpath 0 360 arc gsave fill grestore stroke } bind def
/arc0 { newpath arc stroke } bind def
/arc1 { newpath 4 index 4 index moveto arc closepath gsave fill
    grestore stroke } bind def
/arc2 { newpath 4 index 4 index moveto arc closepath gsave fill
    grestore stroke } bind def
/poly0 { stroke } bind def
/poly1 { closepath gsave fill grestore stroke } bind def
/poly2 { closepath gsave fill grestore stroke } bind def
/rect0 { rectstroke } bind def
/rect1 { rectfill } bind def
/rect2 { rectfill } bind def
/linemode0 { 0 setlinecap 0 setlinejoin 0 setlinewidth } bind def
/linemode1 { 1 setlinecap 1 setlinejoin } bind def
/dashedline { [200] 100 setdash } bind def
/solidline { [] 0 setdash } bind def
/phantomshow { moveto
    /KicadFont findfont 0.000001 scalefont setfont
    show } bind def
/textshow { gsave
    findfont exch scalefont setfont concat 1 scale 0 0 moveto show
    } bind def
/reencodefont {
  findfont dup length dict begin
  { 1 index /FID ne
    { def }
    { pop pop } ifelse
  } forall
  /Encoding ISOLatin1Encoding def
  currentdict
  end } bind def
/KicadFont /Helvetica reencodefont definefont pop
/KicadFont-Bold /Helvetica-Bold reencodefont definefont pop
/KicadFont-Oblique /Helvetica-Oblique reencodefont definefont pop
/KicadFont-BoldOblique /Helvetica-BoldOblique reencodefont definefont pop
%%EndProlog
%%Page: 1 1
%%BeginPageSetup
gsave
0.0072 0.0072 scale
linemode1
82680 0 translate 90 rotate
48.1619 setlinewidth
%%EndPageSetup
0 0 0 setrgbcolor
18.9614 setlinewidth
37607.5 38914.6 1896.14 180 270 arc0
0 0 0 setrgbcolor
79322.5 38914.6 1896.14 -90 -0 arc0
0 0 0 setrgbcolor
79322.5 76837.4 1896.14 -0 90 arc0
0 0 0 setrgbcolor
37607.5 76837.4 1896.14 90 180 arc0
0 0 0 setrgbcolor
newpath
35711.4 38914.6 moveto
35711.4 76837.4 lineto
stroke
0 0 0 setrgbcolor
newpath
79322.5 37018.5 moveto
37607.5 37018.5 lineto
stroke
0 0 0 setrgbcolor
newpath
81218.6 76837.4 moveto
81218.6 38914.6 lineto
stroke
0 0 0 setrgbcolor
newpath
37607.5 78733.5 moveto
79322.5 78733.5 lineto
stroke
78.7401 setlinewidth
newpath
44505.6 44068.3 moveto
44657.3 43916.6 lineto
stroke
newpath
44657.3 44068.3 moveto
44505.6 43916.6 lineto
stroke
newpath
44547.4 44868.5 moveto
44699 44716.8 lineto
stroke
newpath
44699 44868.5 moveto
44547.4 44716.8 lineto
stroke
newpath
44547.4 44489.3 moveto
44699 44337.6 lineto
stroke
newpath
44699 44489.3 moveto
44547.4 44337.6 lineto
stroke
newpath
44547.4 43351.6 moveto
44699 43199.9 lineto
stroke
newpath
44699 43351.6 moveto
44547.4 43199.9 lineto
stroke
newpath
44547.4 42972.4 moveto
44699 42820.7 lineto
stroke
newpath
44699 42972.4 moveto
44547.4 42820.7 lineto
stroke
newpath
45116.2 43730.8 moveto
45267.9 43579.1 lineto
stroke
newpath
45267.9 43730.8 moveto
45116.2 43579.1 lineto
stroke
newpath
54555.2 44068.3 moveto
54706.9 43916.6 lineto
stroke
newpath
54706.9 44068.3 moveto
54555.2 43916.6 lineto
stroke
newpath
54596.9 44868.5 moveto
54748.6 44716.8 lineto
stroke
newpath
54748.6 44868.5 moveto
54596.9 44716.8 lineto
stroke
newpath
54596.9 44489.3 moveto
54748.6 44337.6 lineto
stroke
newpath
54748.6 44489.3 moveto
54596.9 44337.6 lineto
stroke
newpath
54596.9 43351.6 moveto
54748.6 43199.9 lineto
stroke
newpath
54748.6 43351.6 moveto
54596.9 43199.9 lineto
stroke
newpath
54596.9 42972.4 moveto
54748.6 42820.7 lineto
stroke
newpath
54748.6 42972.4 moveto
54596.9 42820.7 lineto
stroke
newpath
55355.3 43730.8 moveto
55507 43579.1 lineto
stroke
newpath
55507 43730.8 moveto
55355.3 43579.1 lineto
stroke
newpath
72041.3 69707.9 moveto
72193 69556.2 lineto
stroke
newpath
72193 69707.9 moveto
72041.3 69556.2 lineto
stroke
newpath
74506.3 70466.4 moveto
74658 70314.7 lineto
stroke
newpath
74658 70466.4 moveto
74506.3 70314.7 lineto
stroke
36697.3 55979.9 94.8069 cir0
36963.9 56623.4 94.8069 cir0
36963.9 55336.3 94.8069 cir0
37607.5 56890 94.8069 cir0
37607.5 55069.7 94.8069 cir0
38251.1 56623.4 94.8069 cir0
38251.1 55336.3 94.8069 cir0
38517.6 55979.9 94.8069 cir0
36697.3 76837.4 94.8069 cir0
36963.9 77480.9 94.8069 cir0
36963.9 76193.8 94.8069 cir0
37607.5 77747.5 94.8069 cir0
37607.5 75927.2 94.8069 cir0
38251.1 77480.9 94.8069 cir0
38251.1 76193.8 94.8069 cir0
38517.6 76837.4 94.8069 cir0
57554.9 76837.4 94.8069 cir0
57821.4 77480.9 94.8069 cir0
57821.4 76193.8 94.8069 cir0
58465 77747.5 94.8069 cir0
58465 75927.2 94.8069 cir0
59108.6 77480.9 94.8069 cir0
59108.6 76193.8 94.8069 cir0
59375.1 76837.4 94.8069 cir0
78412.4 38914.6 94.8069 cir0
78678.9 39558.2 94.8069 cir0
78678.9 38271.1 94.8069 cir0
79322.5 39824.8 94.8069 cir0
79322.5 38004.5 94.8069 cir0
79966.1 39558.2 94.8069 cir0
79966.1 38271.1 94.8069 cir0
80232.7 38914.6 94.8069 cir0
57554.9 38914.6 94.8069 cir0
57821.4 39558.2 94.8069 cir0
57821.4 38271.1 94.8069 cir0
58465 39824.8 94.8069 cir0
58465 38004.5 94.8069 cir0
59108.6 39558.2 94.8069 cir0
59108.6 38271.1 94.8069 cir0
59375.1 38914.6 94.8069 cir0
78412.4 76837.4 94.8069 cir0
78678.9 77480.9 94.8069 cir0
78678.9 76193.8 94.8069 cir0
79322.5 77747.5 94.8069 cir0
79322.5 75927.2 94.8069 cir0
79966.1 77480.9 94.8069 cir0
79966.1 76193.8 94.8069 cir0
80232.7 76837.4 94.8069 cir0
78412.4 55979.9 94.8069 cir0
78678.9 56623.4 94.8069 cir0
78678.9 55336.3 94.8069 cir0
79322.5 56890 94.8069 cir0
79322.5 55069.7 94.8069 cir0
79966.1 56623.4 94.8069 cir0
79966.1 55336.3 94.8069 cir0
80232.7 55979.9 94.8069 cir0
36697.3 38914.6 94.8069 cir0
36963.9 39558.2 94.8069 cir0
36963.9 38271.1 94.8069 cir0
37607.5 39824.8 94.8069 cir0
37607.5 38004.5 94.8069 cir0
38251.1 39558.2 94.8069 cir0
38251.1 38271.1 94.8069 cir0
38517.6 38914.6 94.8069 cir0
newpath
63467 62603.1 moveto
63467 62280.7 lineto
stroke
newpath
63305.8 62441.9 moveto
63628.2 62441.9 lineto
stroke
newpath
63467 61639.8 moveto
63467 61317.5 lineto
stroke
newpath
63305.8 61478.7 moveto
63628.2 61478.7 lineto
stroke
newpath
63467 60676.6 moveto
63467 60354.3 lineto
stroke
newpath
63305.8 60515.4 moveto
63628.2 60515.4 lineto
stroke
newpath
66356.7 62603.1 moveto
66356.7 62280.7 lineto
stroke
newpath
66195.6 62441.9 moveto
66517.9 62441.9 lineto
stroke
newpath
66356.7 61639.8 moveto
66356.7 61317.5 lineto
stroke
newpath
66195.6 61478.7 moveto
66517.9 61478.7 lineto
stroke
newpath
66356.7 60676.6 moveto
66356.7 60354.3 lineto
stroke
newpath
66195.6 60515.4 moveto
66517.9 60515.4 lineto
stroke
newpath
42988.7 50847 moveto
42988.7 50524.7 lineto
stroke
newpath
42827.6 50685.8 moveto
43149.9 50685.8 lineto
stroke
newpath
42988.7 49883.8 moveto
42988.7 49561.4 lineto
stroke
newpath
42827.6 49722.6 moveto
43149.9 49722.6 lineto
stroke
newpath
42988.7 48920.5 moveto
42988.7 48598.2 lineto
stroke
newpath
42827.6 48759.4 moveto
43149.9 48759.4 lineto
stroke
newpath
45878.4 50847 moveto
45878.4 50524.7 lineto
stroke
newpath
45717.3 50685.8 moveto
46039.6 50685.8 lineto
stroke
newpath
45878.4 49883.8 moveto
45878.4 49561.4 lineto
stroke
newpath
45717.3 49722.6 moveto
46039.6 49722.6 lineto
stroke
newpath
45878.4 48920.5 moveto
45878.4 48598.2 lineto
stroke
newpath
45717.3 48759.4 moveto
46039.6 48759.4 lineto
stroke
newpath
63467 58431.6 moveto
63467 58109.2 lineto
stroke
newpath
63305.8 58270.4 moveto
63628.2 58270.4 lineto
stroke
newpath
63467 57468.3 moveto
63467 57146 lineto
stroke
newpath
63305.8 57307.2 moveto
63628.2 57307.2 lineto
stroke
newpath
63467 56505.1 moveto
63467 56182.7 lineto
stroke
newpath
63305.8 56343.9 moveto
63628.2 56343.9 lineto
stroke
newpath
66356.7 58431.6 moveto
66356.7 58109.2 lineto
stroke
newpath
66195.6 58270.4 moveto
66517.9 58270.4 lineto
stroke
newpath
66356.7 57468.3 moveto
66356.7 57146 lineto
stroke
newpath
66195.6 57307.2 moveto
66517.9 57307.2 lineto
stroke
newpath
66356.7 56505.1 moveto
66356.7 56182.7 lineto
stroke
newpath
66195.6 56343.9 moveto
66517.9 56343.9 lineto
stroke
newpath
42988.7 66774.6 moveto
42988.7 66452.2 lineto
stroke
newpath
42827.6 66613.4 moveto
43149.9 66613.4 lineto
stroke
newpath
42988.7 65811.3 moveto
42988.7 65489 lineto
stroke
newpath
42827.6 65650.2 moveto
43149.9 65650.2 lineto
stroke
newpath
42988.7 64848.1 moveto
42988.7 64525.8 lineto
stroke
newpath
42827.6 64686.9 moveto
43149.9 64686.9 lineto
stroke
newpath
45878.4 66774.6 moveto
45878.4 66452.2 lineto
stroke
newpath
45717.3 66613.4 moveto
46039.6 66613.4 lineto
stroke
newpath
45878.4 65811.3 moveto
45878.4 65489 lineto
stroke
newpath
45717.3 65650.2 moveto
46039.6 65650.2 lineto
stroke
newpath
45878.4 64848.1 moveto
45878.4 64525.8 lineto
stroke
newpath
45717.3 64686.9 moveto
46039.6 64686.9 lineto
stroke
newpath
63467 50467.8 moveto
63467 50145.4 lineto
stroke
newpath
63305.8 50306.6 moveto
63628.2 50306.6 lineto
stroke
newpath
63467 49504.6 moveto
63467 49182.2 lineto
stroke
newpath
63305.8 49343.4 moveto
63628.2 49343.4 lineto
stroke
newpath
63467 48541.3 moveto
63467 48219 lineto
stroke
newpath
63305.8 48380.1 moveto
63628.2 48380.1 lineto
stroke
newpath
66356.7 50467.8 moveto
66356.7 50145.4 lineto
stroke
newpath
66195.6 50306.6 moveto
66517.9 50306.6 lineto
stroke
newpath
66356.7 49504.6 moveto
66356.7 49182.2 lineto
stroke
newpath
66195.6 49343.4 moveto
66517.9 49343.4 lineto
stroke
newpath
66356.7 48541.3 moveto
66356.7 48219 lineto
stroke
newpath
66195.6 48380.1 moveto
66517.9 48380.1 lineto
stroke
newpath
63467 54449.7 moveto
63467 54127.3 lineto
stroke
newpath
63305.8 54288.5 moveto
63628.2 54288.5 lineto
stroke
newpath
63467 53486.4 moveto
63467 53164.1 lineto
stroke
newpath
63305.8 53325.3 moveto
63628.2 53325.3 lineto
stroke
newpath
63467 52523.2 moveto
63467 52200.9 lineto
stroke
newpath
63305.8 52362 moveto
63628.2 52362 lineto
stroke
newpath
66356.7 54449.7 moveto
66356.7 54127.3 lineto
stroke
newpath
66195.6 54288.5 moveto
66517.9 54288.5 lineto
stroke
newpath
66356.7 53486.4 moveto
66356.7 53164.1 lineto
stroke
newpath
66195.6 53325.3 moveto
66517.9 53325.3 lineto
stroke
newpath
66356.7 52523.2 moveto
66356.7 52200.9 lineto
stroke
newpath
66195.6 52362 moveto
66517.9 52362 lineto
stroke
newpath
63467 70756.5 moveto
63467 70434.1 lineto
stroke
newpath
63305.8 70595.3 moveto
63628.2 70595.3 lineto
stroke
newpath
63467 69793.2 moveto
63467 69470.9 lineto
stroke
newpath
63305.8 69632.1 moveto
63628.2 69632.1 lineto
stroke
newpath
63467 68830 moveto
63467 68507.6 lineto
stroke
newpath
63305.8 68668.8 moveto
63628.2 68668.8 lineto
stroke
newpath
66356.7 70756.5 moveto
66356.7 70434.1 lineto
stroke
newpath
66195.6 70595.3 moveto
66517.9 70595.3 lineto
stroke
newpath
66356.7 69793.2 moveto
66356.7 69470.9 lineto
stroke
newpath
66195.6 69632.1 moveto
66517.9 69632.1 lineto
stroke
newpath
66356.7 68830 moveto
66356.7 68507.6 lineto
stroke
newpath
66195.6 68668.8 moveto
66517.9 68668.8 lineto
stroke
newpath
59777.1 71427.7 moveto
59777.1 71105.4 lineto
stroke
newpath
59616 71266.5 moveto
59938.3 71266.5 lineto
stroke
newpath
59777.1 68538 moveto
59777.1 68215.6 lineto
stroke
newpath
59616 68376.8 moveto
59938.3 68376.8 lineto
stroke
newpath
60740.4 71427.7 moveto
60740.4 71105.4 lineto
stroke
newpath
60579.2 71266.5 moveto
60901.5 71266.5 lineto
stroke
newpath
60740.4 68538 moveto
60740.4 68215.6 lineto
stroke
newpath
60579.2 68376.8 moveto
60901.5 68376.8 lineto
stroke
newpath
61703.6 71427.7 moveto
61703.6 71105.4 lineto
stroke
newpath
61542.4 71266.5 moveto
61864.8 71266.5 lineto
stroke
newpath
61703.6 68538 moveto
61703.6 68215.6 lineto
stroke
newpath
61542.4 68376.8 moveto
61864.8 68376.8 lineto
stroke
newpath
47641.8 71427.7 moveto
47641.8 71105.4 lineto
stroke
newpath
47480.7 71266.5 moveto
47803 71266.5 lineto
stroke
newpath
47641.8 68538 moveto
47641.8 68215.6 lineto
stroke
newpath
47480.7 68376.8 moveto
47803 68376.8 lineto
stroke
newpath
48605.1 71427.7 moveto
48605.1 71105.4 lineto
stroke
newpath
48443.9 71266.5 moveto
48766.3 71266.5 lineto
stroke
newpath
48605.1 68538 moveto
48605.1 68215.6 lineto
stroke
newpath
48443.9 68376.8 moveto
48766.3 68376.8 lineto
stroke
newpath
49568.3 71427.7 moveto
49568.3 71105.4 lineto
stroke
newpath
49407.2 71266.5 moveto
49729.5 71266.5 lineto
stroke
newpath
49568.3 68538 moveto
49568.3 68215.6 lineto
stroke
newpath
49407.2 68376.8 moveto
49729.5 68376.8 lineto
stroke
newpath
42988.7 62792.7 moveto
42988.7 62470.3 lineto
stroke
newpath
42827.6 62631.5 moveto
43149.9 62631.5 lineto
stroke
newpath
42988.7 61829.4 moveto
42988.7 61507.1 lineto
stroke
newpath
42827.6 61668.3 moveto
43149.9 61668.3 lineto
stroke
newpath
42988.7 60866.2 moveto
42988.7 60543.9 lineto
stroke
newpath
42827.6 60705 moveto
43149.9 60705 lineto
stroke
newpath
45878.4 62792.7 moveto
45878.4 62470.3 lineto
stroke
newpath
45717.3 62631.5 moveto
46039.6 62631.5 lineto
stroke
newpath
45878.4 61829.4 moveto
45878.4 61507.1 lineto
stroke
newpath
45717.3 61668.3 moveto
46039.6 61668.3 lineto
stroke
newpath
45878.4 60866.2 moveto
45878.4 60543.9 lineto
stroke
newpath
45717.3 60705 moveto
46039.6 60705 lineto
stroke
newpath
63467 66585 moveto
63467 66262.6 lineto
stroke
newpath
63305.8 66423.8 moveto
63628.2 66423.8 lineto
stroke
newpath
63467 65621.7 moveto
63467 65299.4 lineto
stroke
newpath
63305.8 65460.5 moveto
63628.2 65460.5 lineto
stroke
newpath
63467 64658.5 moveto
63467 64336.1 lineto
stroke
newpath
63305.8 64497.3 moveto
63628.2 64497.3 lineto
stroke
newpath
66356.7 66585 moveto
66356.7 66262.6 lineto
stroke
newpath
66195.6 66423.8 moveto
66517.9 66423.8 lineto
stroke
newpath
66356.7 65621.7 moveto
66356.7 65299.4 lineto
stroke
newpath
66195.6 65460.5 moveto
66517.9 65460.5 lineto
stroke
newpath
66356.7 64658.5 moveto
66356.7 64336.1 lineto
stroke
newpath
66195.6 64497.3 moveto
66517.9 64497.3 lineto
stroke
newpath
55795.2 71427.7 moveto
55795.2 71105.4 lineto
stroke
newpath
55634.1 71266.5 moveto
55956.4 71266.5 lineto
stroke
newpath
55795.2 68538 moveto
55795.2 68215.6 lineto
stroke
newpath
55634.1 68376.8 moveto
55956.4 68376.8 lineto
stroke
newpath
56758.5 71427.7 moveto
56758.5 71105.4 lineto
stroke
newpath
56597.3 71266.5 moveto
56919.6 71266.5 lineto
stroke
newpath
56758.5 68538 moveto
56758.5 68215.6 lineto
stroke
newpath
56597.3 68376.8 moveto
56919.6 68376.8 lineto
stroke
newpath
57721.7 71427.7 moveto
57721.7 71105.4 lineto
stroke
newpath
57560.5 71266.5 moveto
57882.9 71266.5 lineto
stroke
newpath
57721.7 68538 moveto
57721.7 68215.6 lineto
stroke
newpath
57560.5 68376.8 moveto
57882.9 68376.8 lineto
stroke
newpath
42988.7 58810.8 moveto
42988.7 58488.5 lineto
stroke
newpath
42827.6 58649.6 moveto
43149.9 58649.6 lineto
stroke
newpath
42988.7 57847.6 moveto
42988.7 57525.2 lineto
stroke
newpath
42827.6 57686.4 moveto
43149.9 57686.4 lineto
stroke
newpath
42988.7 56884.3 moveto
42988.7 56562 lineto
stroke
newpath
42827.6 56723.1 moveto
43149.9 56723.1 lineto
stroke
newpath
45878.4 58810.8 moveto
45878.4 58488.5 lineto
stroke
newpath
45717.3 58649.6 moveto
46039.6 58649.6 lineto
stroke
newpath
45878.4 57847.6 moveto
45878.4 57525.2 lineto
stroke
newpath
45717.3 57686.4 moveto
46039.6 57686.4 lineto
stroke
newpath
45878.4 56884.3 moveto
45878.4 56562 lineto
stroke
newpath
45717.3 56723.1 moveto
46039.6 56723.1 lineto
stroke
newpath
42988.7 54828.9 moveto
42988.7 54506.6 lineto
stroke
newpath
42827.6 54667.7 moveto
43149.9 54667.7 lineto
stroke
newpath
42988.7 53865.7 moveto
42988.7 53543.3 lineto
stroke
newpath
42827.6 53704.5 moveto
43149.9 53704.5 lineto
stroke
newpath
42988.7 52902.4 moveto
42988.7 52580.1 lineto
stroke
newpath
42827.6 52741.3 moveto
43149.9 52741.3 lineto
stroke
newpath
45878.4 54828.9 moveto
45878.4 54506.6 lineto
stroke
newpath
45717.3 54667.7 moveto
46039.6 54667.7 lineto
stroke
newpath
45878.4 53865.7 moveto
45878.4 53543.3 lineto
stroke
newpath
45717.3 53704.5 moveto
46039.6 53704.5 lineto
stroke
newpath
45878.4 52902.4 moveto
45878.4 52580.1 lineto
stroke
newpath
45717.3 52741.3 moveto
46039.6 52741.3 lineto
stroke
newpath
51623.7 71427.7 moveto
51623.7 71105.4 lineto
stroke
newpath
51462.6 71266.5 moveto
51784.9 71266.5 lineto
stroke
newpath
51623.7 68538 moveto
51623.7 68215.6 lineto
stroke
newpath
51462.6 68376.8 moveto
51784.9 68376.8 lineto
stroke
newpath
52587 71427.7 moveto
52587 71105.4 lineto
stroke
newpath
52425.8 71266.5 moveto
52748.1 71266.5 lineto
stroke
newpath
52587 68538 moveto
52587 68215.6 lineto
stroke
newpath
52425.8 68376.8 moveto
52748.1 68376.8 lineto
stroke
newpath
53550.2 71427.7 moveto
53550.2 71105.4 lineto
stroke
newpath
53389 71266.5 moveto
53711.4 71266.5 lineto
stroke
newpath
53550.2 68538 moveto
53550.2 68215.6 lineto
stroke
newpath
53389 68376.8 moveto
53711.4 68376.8 lineto
stroke
newpath
42988.7 70756.5 moveto
42988.7 70434.1 lineto
stroke
newpath
42827.6 70595.3 moveto
43149.9 70595.3 lineto
stroke
newpath
42988.7 69793.2 moveto
42988.7 69470.9 lineto
stroke
newpath
42827.6 69632.1 moveto
43149.9 69632.1 lineto
stroke
newpath
42988.7 68830 moveto
42988.7 68507.6 lineto
stroke
newpath
42827.6 68668.8 moveto
43149.9 68668.8 lineto
stroke
newpath
45878.4 70756.5 moveto
45878.4 70434.1 lineto
stroke
newpath
45717.3 70595.3 moveto
46039.6 70595.3 lineto
stroke
newpath
45878.4 69793.2 moveto
45878.4 69470.9 lineto
stroke
newpath
45717.3 69632.1 moveto
46039.6 69632.1 lineto
stroke
newpath
45878.4 68830 moveto
45878.4 68507.6 lineto
stroke
newpath
45717.3 68668.8 moveto
46039.6 68668.8 lineto
stroke
newpath
52398.7 62046.2 moveto
52398.7 62314.3 lineto
52130.6 62314.3 lineto
52130.6 62046.2 lineto
52398.7 62046.2 lineto
poly0
newpath
52398.7 61082.9 moveto
52398.7 61351.1 lineto
52130.6 61351.1 lineto
52130.6 61082.9 lineto
52398.7 61082.9 lineto
poly0
newpath
52398.7 60119.7 moveto
52398.7 60387.8 lineto
52130.6 60387.8 lineto
52130.6 60119.7 lineto
52398.7 60119.7 lineto
poly0
newpath
52398.7 59156.4 moveto
52398.7 59424.6 lineto
52130.6 59424.6 lineto
52130.6 59156.4 lineto
52398.7 59156.4 lineto
poly0
newpath
52398.7 58193.2 moveto
52398.7 58461.4 lineto
52130.6 58461.4 lineto
52130.6 58193.2 lineto
52398.7 58193.2 lineto
poly0
newpath
52398.7 57230 moveto
52398.7 57498.1 lineto
52130.6 57498.1 lineto
52130.6 57230 lineto
52398.7 57230 lineto
poly0
newpath
53361.9 62046.2 moveto
53361.9 62314.3 lineto
53093.8 62314.3 lineto
53093.8 62046.2 lineto
53361.9 62046.2 lineto
poly0
newpath
53361.9 61082.9 moveto
53361.9 61351.1 lineto
53093.8 61351.1 lineto
53093.8 61082.9 lineto
53361.9 61082.9 lineto
poly0
newpath
53361.9 60119.7 moveto
53361.9 60387.8 lineto
53093.8 60387.8 lineto
53093.8 60119.7 lineto
53361.9 60119.7 lineto
poly0
newpath
53361.9 59156.4 moveto
53361.9 59424.6 lineto
53093.8 59424.6 lineto
53093.8 59156.4 lineto
53361.9 59156.4 lineto
poly0
newpath
53361.9 58193.2 moveto
53361.9 58461.4 lineto
53093.8 58461.4 lineto
53093.8 58193.2 lineto
53361.9 58193.2 lineto
poly0
newpath
53361.9 57230 moveto
53361.9 57498.1 lineto
53093.8 57498.1 lineto
53093.8 57230 lineto
53361.9 57230 lineto
poly0
newpath
72804.9 64188.8 moveto
72804.9 64456.9 lineto
72536.8 64456.9 lineto
72536.8 64188.8 lineto
72804.9 64188.8 lineto
poly0
newpath
73768.2 64188.8 moveto
73768.2 64456.9 lineto
73500 64456.9 lineto
73500 64188.8 lineto
73768.2 64188.8 lineto
poly0
newpath
56251.7 62046.2 moveto
56251.7 62314.3 lineto
55983.5 62314.3 lineto
55983.5 62046.2 lineto
56251.7 62046.2 lineto
poly0
newpath
56251.7 61082.9 moveto
56251.7 61351.1 lineto
55983.5 61351.1 lineto
55983.5 61082.9 lineto
56251.7 61082.9 lineto
poly0
newpath
56251.7 60119.7 moveto
56251.7 60387.8 lineto
55983.5 60387.8 lineto
55983.5 60119.7 lineto
56251.7 60119.7 lineto
poly0
newpath
56251.7 59156.4 moveto
56251.7 59424.6 lineto
55983.5 59424.6 lineto
55983.5 59156.4 lineto
56251.7 59156.4 lineto
poly0
newpath
56251.7 58193.2 moveto
56251.7 58461.4 lineto
55983.5 58461.4 lineto
55983.5 58193.2 lineto
56251.7 58193.2 lineto
poly0
newpath
56251.7 57230 moveto
56251.7 57498.1 lineto
55983.5 57498.1 lineto
55983.5 57230 lineto
56251.7 57230 lineto
poly0
newpath
57214.9 62046.2 moveto
57214.9 62314.3 lineto
56946.7 62314.3 lineto
56946.7 62046.2 lineto
57214.9 62046.2 lineto
poly0
newpath
57214.9 61082.9 moveto
57214.9 61351.1 lineto
56946.7 61351.1 lineto
56946.7 61082.9 lineto
57214.9 61082.9 lineto
poly0
newpath
57214.9 60119.7 moveto
57214.9 60387.8 lineto
56946.7 60387.8 lineto
56946.7 60119.7 lineto
57214.9 60119.7 lineto
poly0
newpath
57214.9 59156.4 moveto
57214.9 59424.6 lineto
56946.7 59424.6 lineto
56946.7 59156.4 lineto
57214.9 59156.4 lineto
poly0
newpath
57214.9 58193.2 moveto
57214.9 58461.4 lineto
56946.7 58461.4 lineto
56946.7 58193.2 lineto
57214.9 58193.2 lineto
poly0
newpath
57214.9 57230 moveto
57214.9 57498.1 lineto
56946.7 57498.1 lineto
56946.7 57230 lineto
57214.9 57230 lineto
poly0
newpath
76324.2 53813.1 moveto
76324.2 54081.3 lineto
76056 54081.3 lineto
76056 53813.1 lineto
76324.2 53813.1 lineto
poly0
newpath
76324.2 52849.9 moveto
76324.2 53118 lineto
76056 53118 lineto
76056 52849.9 lineto
76324.2 52849.9 lineto
poly0
newpath
76324.2 51886.6 moveto
76324.2 52154.8 lineto
76056 52154.8 lineto
76056 51886.6 lineto
76324.2 51886.6 lineto
poly0
newpath
76324.2 50923.4 moveto
76324.2 51191.6 lineto
76056 51191.6 lineto
76056 50923.4 lineto
76324.2 50923.4 lineto
poly0
newpath
76324.2 49960.2 moveto
76324.2 50228.3 lineto
76056 50228.3 lineto
76056 49960.2 lineto
76324.2 49960.2 lineto
poly0
newpath
76324.2 48996.9 moveto
76324.2 49265.1 lineto
76056 49265.1 lineto
76056 48996.9 lineto
76324.2 48996.9 lineto
poly0
newpath
76324.2 48033.7 moveto
76324.2 48301.9 lineto
76056 48301.9 lineto
76056 48033.7 lineto
76324.2 48033.7 lineto
poly0
newpath
76324.2 47070.5 moveto
76324.2 47338.6 lineto
76056 47338.6 lineto
76056 47070.5 lineto
76324.2 47070.5 lineto
poly0
newpath
76324.2 46107.2 moveto
76324.2 46375.4 lineto
76056 46375.4 lineto
76056 46107.2 lineto
76324.2 46107.2 lineto
poly0
newpath
76324.2 45144 moveto
76324.2 45412.1 lineto
76056 45412.1 lineto
76056 45144 lineto
76324.2 45144 lineto
poly0
newpath
76324.2 44180.7 moveto
76324.2 44448.9 lineto
76056 44448.9 lineto
76056 44180.7 lineto
76324.2 44180.7 lineto
poly0
newpath
76324.2 43217.5 moveto
76324.2 43485.7 lineto
76056 43485.7 lineto
76056 43217.5 lineto
76324.2 43217.5 lineto
poly0
newpath
76324.2 42254.3 moveto
76324.2 42522.4 lineto
76056 42522.4 lineto
76056 42254.3 lineto
76324.2 42254.3 lineto
poly0
newpath
76324.2 41291 moveto
76324.2 41559.2 lineto
76056 41559.2 lineto
76056 41291 lineto
76324.2 41291 lineto
poly0
newpath
76324.2 40327.8 moveto
76324.2 40596 lineto
76056 40596 lineto
76056 40327.8 lineto
76324.2 40327.8 lineto
poly0
newpath
76324.2 39364.6 moveto
76324.2 39632.7 lineto
76056 39632.7 lineto
76056 39364.6 lineto
76324.2 39364.6 lineto
poly0
newpath
76324.2 38401.3 moveto
76324.2 38669.5 lineto
76056 38669.5 lineto
76056 38401.3 lineto
76324.2 38401.3 lineto
poly0
newpath
70544.7 53813.1 moveto
70544.7 54081.3 lineto
70276.6 54081.3 lineto
70276.6 53813.1 lineto
70544.7 53813.1 lineto
poly0
newpath
70544.7 52849.9 moveto
70544.7 53118 lineto
70276.6 53118 lineto
70276.6 52849.9 lineto
70544.7 52849.9 lineto
poly0
newpath
70544.7 51886.6 moveto
70544.7 52154.8 lineto
70276.6 52154.8 lineto
70276.6 51886.6 lineto
70544.7 51886.6 lineto
poly0
newpath
70544.7 50923.4 moveto
70544.7 51191.6 lineto
70276.6 51191.6 lineto
70276.6 50923.4 lineto
70544.7 50923.4 lineto
poly0
newpath
70544.7 49960.2 moveto
70544.7 50228.3 lineto
70276.6 50228.3 lineto
70276.6 49960.2 lineto
70544.7 49960.2 lineto
poly0
newpath
70544.7 48996.9 moveto
70544.7 49265.1 lineto
70276.6 49265.1 lineto
70276.6 48996.9 lineto
70544.7 48996.9 lineto
poly0
newpath
70544.7 48033.7 moveto
70544.7 48301.9 lineto
70276.6 48301.9 lineto
70276.6 48033.7 lineto
70544.7 48033.7 lineto
poly0
newpath
70544.7 47070.5 moveto
70544.7 47338.6 lineto
70276.6 47338.6 lineto
70276.6 47070.5 lineto
70544.7 47070.5 lineto
poly0
newpath
70544.7 46107.2 moveto
70544.7 46375.4 lineto
70276.6 46375.4 lineto
70276.6 46107.2 lineto
70544.7 46107.2 lineto
poly0
newpath
70544.7 45144 moveto
70544.7 45412.1 lineto
70276.6 45412.1 lineto
70276.6 45144 lineto
70544.7 45144 lineto
poly0
newpath
70544.7 44180.7 moveto
70544.7 44448.9 lineto
70276.6 44448.9 lineto
70276.6 44180.7 lineto
70544.7 44180.7 lineto
poly0
newpath
70544.7 43217.5 moveto
70544.7 43485.7 lineto
70276.6 43485.7 lineto
70276.6 43217.5 lineto
70544.7 43217.5 lineto
poly0
newpath
70544.7 42254.3 moveto
70544.7 42522.4 lineto
70276.6 42522.4 lineto
70276.6 42254.3 lineto
70544.7 42254.3 lineto
poly0
newpath
70544.7 41291 moveto
70544.7 41559.2 lineto
70276.6 41559.2 lineto
70276.6 41291 lineto
70544.7 41291 lineto
poly0
newpath
70544.7 40327.8 moveto
70544.7 40596 lineto
70276.6 40596 lineto
70276.6 40327.8 lineto
70544.7 40327.8 lineto
poly0
newpath
70544.7 39364.6 moveto
70544.7 39632.7 lineto
70276.6 39632.7 lineto
70276.6 39364.6 lineto
70544.7 39364.6 lineto
poly0
newpath
70544.7 38401.3 moveto
70544.7 38669.5 lineto
70276.6 38669.5 lineto
70276.6 38401.3 lineto
70544.7 38401.3 lineto
poly0
newpath
44592.9 41343.6 moveto
44848.8 41599.6 lineto
44592.9 41855.5 lineto
44336.9 41599.6 lineto
44592.9 41343.6 lineto
poly0
newpath
44592.9 37490.6 moveto
44848.8 37746.6 lineto
44592.9 38002.6 lineto
44336.9 37746.6 lineto
44592.9 37490.6 lineto
poly0
newpath
46519.3 39417.1 moveto
46775.3 39673.1 lineto
46519.3 39929.1 lineto
46263.4 39673.1 lineto
46519.3 39417.1 lineto
poly0
newpath
48445.8 41343.6 moveto
48701.8 41599.6 lineto
48445.8 41855.5 lineto
48189.8 41599.6 lineto
48445.8 41343.6 lineto
poly0
newpath
48445.8 37490.6 moveto
48701.8 37746.6 lineto
48445.8 38002.6 lineto
48189.8 37746.6 lineto
48445.8 37490.6 lineto
poly0
newpath
60899.6 41343.6 moveto
61155.6 41599.6 lineto
60899.6 41855.5 lineto
60643.7 41599.6 lineto
60899.6 41343.6 lineto
poly0
newpath
60899.6 37490.6 moveto
61155.6 37746.6 lineto
60899.6 38002.6 lineto
60643.7 37746.6 lineto
60899.6 37490.6 lineto
poly0
newpath
62826.1 39417.1 moveto
63082.1 39673.1 lineto
62826.1 39929.1 lineto
62570.1 39673.1 lineto
62826.1 39417.1 lineto
poly0
newpath
64752.6 41343.6 moveto
65008.6 41599.6 lineto
64752.6 41855.5 lineto
64496.6 41599.6 lineto
64752.6 41343.6 lineto
poly0
newpath
64752.6 37490.6 moveto
65008.6 37746.6 lineto
64752.6 38002.6 lineto
64496.6 37746.6 lineto
64752.6 37490.6 lineto
poly0
newpath
37000.7 56586.6 moveto
38214.3 55373.1 lineto
stroke
newpath
38214.3 56586.6 moveto
37000.7 55373.1 lineto
stroke
37607.5 55979.9 606.764 cir0
newpath
37000.7 77444.1 moveto
38214.3 76230.6 lineto
stroke
newpath
38214.3 77444.1 moveto
37000.7 76230.6 lineto
stroke
37607.5 76837.4 606.764 cir0
newpath
57858.2 77444.1 moveto
59071.8 76230.6 lineto
stroke
newpath
59071.8 77444.1 moveto
57858.2 76230.6 lineto
stroke
58465 76837.4 606.764 cir0
newpath
78715.7 39521.4 moveto
79929.3 38307.9 lineto
stroke
newpath
79929.3 39521.4 moveto
78715.7 38307.9 lineto
stroke
79322.5 38914.6 606.764 cir0
newpath
57858.2 39521.4 moveto
59071.8 38307.9 lineto
stroke
newpath
59071.8 39521.4 moveto
57858.2 38307.9 lineto
stroke
58465 38914.6 606.764 cir0
newpath
78715.7 77444.1 moveto
79929.3 76230.6 lineto
stroke
newpath
79929.3 77444.1 moveto
78715.7 76230.6 lineto
stroke
79322.5 76837.4 606.764 cir0
newpath
78715.7 56586.6 moveto
79929.3 55373.1 lineto
stroke
newpath
79929.3 56586.6 moveto
78715.7 55373.1 lineto
stroke
79322.5 55979.9 606.764 cir0
newpath
37000.7 39521.4 moveto
38214.3 38307.9 lineto
stroke
newpath
38214.3 39521.4 moveto
37000.7 38307.9 lineto
stroke
37607.5 38914.6 606.764 cir0
118.11 setlinewidth
0 0 0 setrgbcolor
0 0 0 setrgbcolor
newpath
36829.5 35175.5 moveto
36829.5 36356.6 lineto
37110.8 36356.6 lineto
37279.5 36300.3 lineto
37392 36187.9 lineto
37448.2 36075.4 lineto
37504.5 35850.4 lineto
37504.5 35681.7 lineto
37448.2 35456.7 lineto
37392 35344.2 lineto
37279.5 35231.7 lineto
37110.8 35175.5 lineto
36829.5 35175.5 lineto
stroke
newpath
38010.6 35175.5 moveto
38010.6 35962.9 lineto
stroke
newpath
38010.6 35737.9 moveto
38066.9 35850.4 lineto
38123.1 35906.6 lineto
38235.6 35962.9 lineto
38348.1 35962.9 lineto
stroke
newpath
38741.8 35175.5 moveto
38741.8 35962.9 lineto
stroke
newpath
38741.8 36356.6 moveto
38685.6 36300.3 lineto
38741.8 36244.1 lineto
38798 36300.3 lineto
38741.8 36356.6 lineto
38741.8 36244.1 lineto
stroke
newpath
39473 35175.5 moveto
39360.5 35231.7 lineto
39304.2 35344.2 lineto
39304.2 36356.6 lineto
stroke
newpath
40091.6 35175.5 moveto
39979.1 35231.7 lineto
39922.9 35344.2 lineto
39922.9 36356.6 lineto
stroke
newpath
41441.5 35175.5 moveto
41441.5 36356.6 lineto
41835.2 35512.9 lineto
42228.9 36356.6 lineto
42228.9 35175.5 lineto
stroke
newpath
43297.5 35175.5 moveto
43297.5 35794.2 lineto
43241.2 35906.6 lineto
43128.8 35962.9 lineto
42903.8 35962.9 lineto
42791.3 35906.6 lineto
stroke
newpath
43297.5 35231.7 moveto
43185 35175.5 lineto
42903.8 35175.5 lineto
42791.3 35231.7 lineto
42735.1 35344.2 lineto
42735.1 35456.7 lineto
42791.3 35569.2 lineto
42903.8 35625.4 lineto
43185 35625.4 lineto
43297.5 35681.7 lineto
stroke
newpath
43859.9 35962.9 moveto
43859.9 34781.8 lineto
stroke
newpath
43859.9 35906.6 moveto
43972.4 35962.9 lineto
44197.4 35962.9 lineto
44309.9 35906.6 lineto
44366.1 35850.4 lineto
44422.3 35737.9 lineto
44422.3 35400.5 lineto
44366.1 35288 lineto
44309.9 35231.7 lineto
44197.4 35175.5 lineto
43972.4 35175.5 lineto
43859.9 35231.7 lineto
stroke
newpath
44928.5 35288 moveto
44984.8 35231.7 lineto
44928.5 35175.5 lineto
44872.3 35231.7 lineto
44928.5 35288 lineto
44928.5 35175.5 lineto
stroke
newpath
44928.5 35906.6 moveto
44984.8 35850.4 lineto
44928.5 35794.2 lineto
44872.3 35850.4 lineto
44928.5 35906.6 lineto
44928.5 35794.2 lineto
stroke
newpath
35550.2 33305.3 moveto
35701.9 33153.6 lineto
stroke
newpath
35701.9 33305.3 moveto
35550.2 33153.6 lineto
stroke
0 0 0 setrgbcolor
0 0 0 setrgbcolor
newpath
37054.5 33876.3 moveto
37167 33876.3 lineto
37279.5 33820 lineto
37335.7 33763.8 lineto
37392 33651.3 lineto
37448.2 33426.3 lineto
37448.2 33145.1 lineto
37392 32920.1 lineto
37335.7 32807.7 lineto
37279.5 32751.4 lineto
37167 32695.2 lineto
37054.5 32695.2 lineto
36942 32751.4 lineto
36885.8 32807.7 lineto
36829.5 32920.1 lineto
36773.3 33145.1 lineto
36773.3 33426.3 lineto
36829.5 33651.3 lineto
36885.8 33763.8 lineto
36942 33820 lineto
37054.5 33876.3 lineto
stroke
newpath
37954.4 32807.7 moveto
38010.6 32751.4 lineto
37954.4 32695.2 lineto
37898.2 32751.4 lineto
37954.4 32807.7 lineto
37954.4 32695.2 lineto
stroke
newpath
39023 33482.6 moveto
39023 32695.2 lineto
stroke
newpath
38741.8 33932.5 moveto
38460.6 33088.9 lineto
39191.7 33088.9 lineto
stroke
newpath
39866.7 33876.3 moveto
39979.1 33876.3 lineto
40091.6 33820 lineto
40147.9 33763.8 lineto
40204.1 33651.3 lineto
40260.4 33426.3 lineto
40260.4 33145.1 lineto
40204.1 32920.1 lineto
40147.9 32807.7 lineto
40091.6 32751.4 lineto
39979.1 32695.2 lineto
39866.7 32695.2 lineto
39754.2 32751.4 lineto
39697.9 32807.7 lineto
39641.7 32920.1 lineto
39585.4 33145.1 lineto
39585.4 33426.3 lineto
39641.7 33651.3 lineto
39697.9 33763.8 lineto
39754.2 33820 lineto
39866.7 33876.3 lineto
stroke
newpath
40766.5 32695.2 moveto
40766.5 33482.6 lineto
stroke
newpath
40766.5 33370.1 moveto
40822.8 33426.3 lineto
40935.3 33482.6 lineto
41104 33482.6 lineto
41216.5 33426.3 lineto
41272.7 33313.8 lineto
41272.7 32695.2 lineto
stroke
newpath
41272.7 33313.8 moveto
41329 33426.3 lineto
41441.5 33482.6 lineto
41610.2 33482.6 lineto
41722.7 33426.3 lineto
41778.9 33313.8 lineto
41778.9 32695.2 lineto
stroke
newpath
42341.4 32695.2 moveto
42341.4 33482.6 lineto
stroke
newpath
42341.4 33370.1 moveto
42397.6 33426.3 lineto
42510.1 33482.6 lineto
42678.8 33482.6 lineto
42791.3 33426.3 lineto
42847.5 33313.8 lineto
42847.5 32695.2 lineto
stroke
newpath
42847.5 33313.8 moveto
42903.8 33426.3 lineto
43016.3 33482.6 lineto
43185 33482.6 lineto
43297.5 33426.3 lineto
43353.7 33313.8 lineto
43353.7 32695.2 lineto
stroke
newpath
45659.7 33932.5 moveto
44647.3 32414 lineto
stroke
newpath
47178.2 33876.3 moveto
47290.7 33876.3 lineto
47403.2 33820 lineto
47459.5 33763.8 lineto
47515.7 33651.3 lineto
47572 33426.3 lineto
47572 33145.1 lineto
47515.7 32920.1 lineto
47459.5 32807.7 lineto
47403.2 32751.4 lineto
47290.7 32695.2 lineto
47178.2 32695.2 lineto
47065.8 32751.4 lineto
47009.5 32807.7 lineto
46953.3 32920.1 lineto
46897 33145.1 lineto
46897 33426.3 lineto
46953.3 33651.3 lineto
47009.5 33763.8 lineto
47065.8 33820 lineto
47178.2 33876.3 lineto
stroke
newpath
48078.1 32807.7 moveto
48134.4 32751.4 lineto
48078.1 32695.2 lineto
48021.9 32751.4 lineto
48078.1 32807.7 lineto
48078.1 32695.2 lineto
stroke
newpath
48865.5 33876.3 moveto
48978 33876.3 lineto
49090.5 33820 lineto
49146.8 33763.8 lineto
49203 33651.3 lineto
49259.2 33426.3 lineto
49259.2 33145.1 lineto
49203 32920.1 lineto
49146.8 32807.7 lineto
49090.5 32751.4 lineto
48978 32695.2 lineto
48865.5 32695.2 lineto
48753.1 32751.4 lineto
48696.8 32807.7 lineto
48640.6 32920.1 lineto
48584.3 33145.1 lineto
48584.3 33426.3 lineto
48640.6 33651.3 lineto
48696.8 33763.8 lineto
48753.1 33820 lineto
48865.5 33876.3 lineto
stroke
newpath
50384.1 32695.2 moveto
49709.2 32695.2 lineto
stroke
newpath
50046.6 32695.2 moveto
50046.6 33876.3 lineto
49934.2 33707.5 lineto
49821.7 33595.1 lineto
49709.2 33538.8 lineto
stroke
newpath
51396.5 33876.3 moveto
51171.5 33876.3 lineto
51059 33820 lineto
51002.8 33763.8 lineto
50890.3 33595.1 lineto
50834 33370.1 lineto
50834 32920.1 lineto
50890.3 32807.7 lineto
50946.5 32751.4 lineto
51059 32695.2 lineto
51284 32695.2 lineto
51396.5 32751.4 lineto
51452.7 32807.7 lineto
51509 32920.1 lineto
51509 33201.4 lineto
51452.7 33313.8 lineto
51396.5 33370.1 lineto
51284 33426.3 lineto
51059 33426.3 lineto
50946.5 33370.1 lineto
50890.3 33313.8 lineto
50834 33201.4 lineto
stroke
newpath
51958.9 33876.3 moveto
51958.9 33651.3 lineto
stroke
newpath
52408.8 33876.3 moveto
52408.8 33651.3 lineto
stroke
newpath
54152.4 32245.2 moveto
54096.1 32301.5 lineto
53983.6 32470.2 lineto
53927.4 32582.7 lineto
53871.2 32751.4 lineto
53814.9 33032.6 lineto
53814.9 33257.6 lineto
53871.2 33538.8 lineto
53927.4 33707.5 lineto
53983.6 33820 lineto
54096.1 33988.8 lineto
54152.4 34045 lineto
stroke
newpath
55221 32695.2 moveto
54546.1 32695.2 lineto
stroke
newpath
54883.5 32695.2 moveto
54883.5 33876.3 lineto
54771.1 33707.5 lineto
54658.6 33595.1 lineto
54546.1 33538.8 lineto
stroke
newpath
56233.4 33482.6 moveto
56233.4 32695.2 lineto
stroke
newpath
55952.2 33932.5 moveto
55670.9 33088.9 lineto
56402.1 33088.9 lineto
stroke
newpath
57751.9 32695.2 moveto
57751.9 33876.3 lineto
stroke
newpath
58258.1 32695.2 moveto
58258.1 33313.8 lineto
58201.9 33426.3 lineto
58089.4 33482.6 lineto
57920.7 33482.6 lineto
57808.2 33426.3 lineto
57751.9 33370.1 lineto
stroke
newpath
58989.3 32695.2 moveto
58876.8 32751.4 lineto
58820.5 32807.7 lineto
58764.3 32920.1 lineto
58764.3 33257.6 lineto
58820.5 33370.1 lineto
58876.8 33426.3 lineto
58989.3 33482.6 lineto
59158 33482.6 lineto
59270.5 33426.3 lineto
59326.7 33370.1 lineto
59383 33257.6 lineto
59383 32920.1 lineto
59326.7 32807.7 lineto
59270.5 32751.4 lineto
59158 32695.2 lineto
58989.3 32695.2 lineto
stroke
newpath
60057.9 32695.2 moveto
59945.4 32751.4 lineto
59889.2 32863.9 lineto
59889.2 33876.3 lineto
stroke
newpath
60957.8 32751.4 moveto
60845.3 32695.2 lineto
60620.3 32695.2 lineto
60507.8 32751.4 lineto
60451.6 32863.9 lineto
60451.6 33313.8 lineto
60507.8 33426.3 lineto
60620.3 33482.6 lineto
60845.3 33482.6 lineto
60957.8 33426.3 lineto
61014 33313.8 lineto
61014 33201.4 lineto
60451.6 33088.9 lineto
stroke
newpath
61464 32751.4 moveto
61576.5 32695.2 lineto
61801.4 32695.2 lineto
61913.9 32751.4 lineto
61970.2 32863.9 lineto
61970.2 32920.1 lineto
61913.9 33032.6 lineto
61801.4 33088.9 lineto
61632.7 33088.9 lineto
61520.2 33145.1 lineto
61464 33257.6 lineto
61464 33313.8 lineto
61520.2 33426.3 lineto
61632.7 33482.6 lineto
61801.4 33482.6 lineto
61913.9 33426.3 lineto
stroke
newpath
62363.9 32245.2 moveto
62420.1 32301.5 lineto
62532.6 32470.2 lineto
62588.8 32582.7 lineto
62645.1 32751.4 lineto
62701.3 33032.6 lineto
62701.3 33257.6 lineto
62645.1 33538.8 lineto
62588.8 33707.5 lineto
62532.6 33820 lineto
62420.1 33988.8 lineto
62363.9 34045 lineto
stroke
35607.1 31670.4 94.8069 cir0
0 0 0 setrgbcolor
0 0 0 setrgbcolor
newpath
37054.5 32317.2 moveto
37167 32317.2 lineto
37279.5 32261 lineto
37335.7 32204.7 lineto
37392 32092.2 lineto
37448.2 31867.3 lineto
37448.2 31586.1 lineto
37392 31361.1 lineto
37335.7 31248.6 lineto
37279.5 31192.4 lineto
37167 31136.1 lineto
37054.5 31136.1 lineto
36942 31192.4 lineto
36885.8 31248.6 lineto
36829.5 31361.1 lineto
36773.3 31586.1 lineto
36773.3 31867.3 lineto
36829.5 32092.2 lineto
36885.8 32204.7 lineto
36942 32261 lineto
37054.5 32317.2 lineto
stroke
newpath
37954.4 31248.6 moveto
38010.6 31192.4 lineto
37954.4 31136.1 lineto
37898.2 31192.4 lineto
37954.4 31248.6 lineto
37954.4 31136.1 lineto
stroke
newpath
39079.3 32317.2 moveto
38516.8 32317.2 lineto
38460.6 31754.8 lineto
38516.8 31811 lineto
38629.3 31867.3 lineto
38910.5 31867.3 lineto
39023 31811 lineto
39079.3 31754.8 lineto
39135.5 31642.3 lineto
39135.5 31361.1 lineto
39079.3 31248.6 lineto
39023 31192.4 lineto
38910.5 31136.1 lineto
38629.3 31136.1 lineto
38516.8 31192.4 lineto
38460.6 31248.6 lineto
stroke
newpath
39866.7 32317.2 moveto
39979.1 32317.2 lineto
40091.6 32261 lineto
40147.9 32204.7 lineto
40204.1 32092.2 lineto
40260.4 31867.3 lineto
40260.4 31586.1 lineto
40204.1 31361.1 lineto
40147.9 31248.6 lineto
40091.6 31192.4 lineto
39979.1 31136.1 lineto
39866.7 31136.1 lineto
39754.2 31192.4 lineto
39697.9 31248.6 lineto
39641.7 31361.1 lineto
39585.4 31586.1 lineto
39585.4 31867.3 lineto
39641.7 32092.2 lineto
39697.9 32204.7 lineto
39754.2 32261 lineto
39866.7 32317.2 lineto
stroke
newpath
40766.5 31136.1 moveto
40766.5 31923.5 lineto
stroke
newpath
40766.5 31811 moveto
40822.8 31867.3 lineto
40935.3 31923.5 lineto
41104 31923.5 lineto
41216.5 31867.3 lineto
41272.7 31754.8 lineto
41272.7 31136.1 lineto
stroke
newpath
41272.7 31754.8 moveto
41329 31867.3 lineto
41441.5 31923.5 lineto
41610.2 31923.5 lineto
41722.7 31867.3 lineto
41778.9 31754.8 lineto
41778.9 31136.1 lineto
stroke
newpath
42341.4 31136.1 moveto
42341.4 31923.5 lineto
stroke
newpath
42341.4 31811 moveto
42397.6 31867.3 lineto
42510.1 31923.5 lineto
42678.8 31923.5 lineto
42791.3 31867.3 lineto
42847.5 31754.8 lineto
42847.5 31136.1 lineto
stroke
newpath
42847.5 31754.8 moveto
42903.8 31867.3 lineto
43016.3 31923.5 lineto
43185 31923.5 lineto
43297.5 31867.3 lineto
43353.7 31754.8 lineto
43353.7 31136.1 lineto
stroke
newpath
45659.7 32373.5 moveto
44647.3 30854.9 lineto
stroke
newpath
47178.2 32317.2 moveto
47290.7 32317.2 lineto
47403.2 32261 lineto
47459.5 32204.7 lineto
47515.7 32092.2 lineto
47572 31867.3 lineto
47572 31586.1 lineto
47515.7 31361.1 lineto
47459.5 31248.6 lineto
47403.2 31192.4 lineto
47290.7 31136.1 lineto
47178.2 31136.1 lineto
47065.8 31192.4 lineto
47009.5 31248.6 lineto
46953.3 31361.1 lineto
46897 31586.1 lineto
46897 31867.3 lineto
46953.3 32092.2 lineto
47009.5 32204.7 lineto
47065.8 32261 lineto
47178.2 32317.2 lineto
stroke
newpath
48078.1 31248.6 moveto
48134.4 31192.4 lineto
48078.1 31136.1 lineto
48021.9 31192.4 lineto
48078.1 31248.6 lineto
48078.1 31136.1 lineto
stroke
newpath
48865.5 32317.2 moveto
48978 32317.2 lineto
49090.5 32261 lineto
49146.8 32204.7 lineto
49203 32092.2 lineto
49259.2 31867.3 lineto
49259.2 31586.1 lineto
49203 31361.1 lineto
49146.8 31248.6 lineto
49090.5 31192.4 lineto
48978 31136.1 lineto
48865.5 31136.1 lineto
48753.1 31192.4 lineto
48696.8 31248.6 lineto
48640.6 31361.1 lineto
48584.3 31586.1 lineto
48584.3 31867.3 lineto
48640.6 32092.2 lineto
48696.8 32204.7 lineto
48753.1 32261 lineto
48865.5 32317.2 lineto
stroke
newpath
49709.2 32204.7 moveto
49765.4 32261 lineto
49877.9 32317.2 lineto
50159.1 32317.2 lineto
50271.6 32261 lineto
50327.9 32204.7 lineto
50384.1 32092.2 lineto
50384.1 31979.8 lineto
50327.9 31811 lineto
49652.9 31136.1 lineto
50384.1 31136.1 lineto
stroke
newpath
51115.3 32317.2 moveto
51227.7 32317.2 lineto
51340.2 32261 lineto
51396.5 32204.7 lineto
51452.7 32092.2 lineto
51509 31867.3 lineto
51509 31586.1 lineto
51452.7 31361.1 lineto
51396.5 31248.6 lineto
51340.2 31192.4 lineto
51227.7 31136.1 lineto
51115.3 31136.1 lineto
51002.8 31192.4 lineto
50946.5 31248.6 lineto
50890.3 31361.1 lineto
50834 31586.1 lineto
50834 31867.3 lineto
50890.3 32092.2 lineto
50946.5 32204.7 lineto
51002.8 32261 lineto
51115.3 32317.2 lineto
stroke
newpath
51958.9 32317.2 moveto
51958.9 32092.2 lineto
stroke
newpath
52408.8 32317.2 moveto
52408.8 32092.2 lineto
stroke
newpath
54152.4 30686.2 moveto
54096.1 30742.4 lineto
53983.6 30911.1 lineto
53927.4 31023.6 lineto
53871.2 31192.4 lineto
53814.9 31473.6 lineto
53814.9 31698.5 lineto
53871.2 31979.8 lineto
53927.4 32148.5 lineto
53983.6 32261 lineto
54096.1 32429.7 lineto
54152.4 32485.9 lineto
stroke
newpath
55108.5 32317.2 moveto
54883.5 32317.2 lineto
54771.1 32261 lineto
54714.8 32204.7 lineto
54602.3 32036 lineto
54546.1 31811 lineto
54546.1 31361.1 lineto
54602.3 31248.6 lineto
54658.6 31192.4 lineto
54771.1 31136.1 lineto
54996 31136.1 lineto
55108.5 31192.4 lineto
55164.8 31248.6 lineto
55221 31361.1 lineto
55221 31642.3 lineto
55164.8 31754.8 lineto
55108.5 31811 lineto
54996 31867.3 lineto
54771.1 31867.3 lineto
54658.6 31811 lineto
54602.3 31754.8 lineto
54546.1 31642.3 lineto
stroke
newpath
56233.4 31923.5 moveto
56233.4 31136.1 lineto
stroke
newpath
55952.2 32373.5 moveto
55670.9 31529.8 lineto
56402.1 31529.8 lineto
stroke
newpath
57751.9 31136.1 moveto
57751.9 32317.2 lineto
stroke
newpath
58258.1 31136.1 moveto
58258.1 31754.8 lineto
58201.9 31867.3 lineto
58089.4 31923.5 lineto
57920.7 31923.5 lineto
57808.2 31867.3 lineto
57751.9 31811 lineto
stroke
newpath
58989.3 31136.1 moveto
58876.8 31192.4 lineto
58820.5 31248.6 lineto
58764.3 31361.1 lineto
58764.3 31698.5 lineto
58820.5 31811 lineto
58876.8 31867.3 lineto
58989.3 31923.5 lineto
59158 31923.5 lineto
59270.5 31867.3 lineto
59326.7 31811 lineto
59383 31698.5 lineto
59383 31361.1 lineto
59326.7 31248.6 lineto
59270.5 31192.4 lineto
59158 31136.1 lineto
58989.3 31136.1 lineto
stroke
newpath
60057.9 31136.1 moveto
59945.4 31192.4 lineto
59889.2 31304.8 lineto
59889.2 32317.2 lineto
stroke
newpath
60957.8 31192.4 moveto
60845.3 31136.1 lineto
60620.3 31136.1 lineto
60507.8 31192.4 lineto
60451.6 31304.8 lineto
60451.6 31754.8 lineto
60507.8 31867.3 lineto
60620.3 31923.5 lineto
60845.3 31923.5 lineto
60957.8 31867.3 lineto
61014 31754.8 lineto
61014 31642.3 lineto
60451.6 31529.8 lineto
stroke
newpath
61464 31192.4 moveto
61576.5 31136.1 lineto
61801.4 31136.1 lineto
61913.9 31192.4 lineto
61970.2 31304.8 lineto
61970.2 31361.1 lineto
61913.9 31473.6 lineto
61801.4 31529.8 lineto
61632.7 31529.8 lineto
61520.2 31586.1 lineto
61464 31698.5 lineto
61464 31754.8 lineto
61520.2 31867.3 lineto
61632.7 31923.5 lineto
61801.4 31923.5 lineto
61913.9 31867.3 lineto
stroke
newpath
62363.9 30686.2 moveto
62420.1 30742.4 lineto
62532.6 30911.1 lineto
62588.8 31023.6 lineto
62645.1 31192.4 lineto
62701.3 31473.6 lineto
62701.3 31698.5 lineto
62645.1 31979.8 lineto
62588.8 32148.5 lineto
62532.6 32261 lineto
62420.1 32429.7 lineto
62363.9 32485.9 lineto
stroke
newpath
35540.7 30272.5 moveto
35540.7 29950.2 lineto
stroke
newpath
35379.5 30111.4 moveto
35701.9 30111.4 lineto
stroke
0 0 0 setrgbcolor
0 0 0 setrgbcolor
newpath
37054.5 30758.2 moveto
37167 30758.2 lineto
37279.5 30701.9 lineto
37335.7 30645.7 lineto
37392 30533.2 lineto
37448.2 30308.2 lineto
37448.2 30027 lineto
37392 29802 lineto
37335.7 29689.5 lineto
37279.5 29633.3 lineto
37167 29577.1 lineto
37054.5 29577.1 lineto
36942 29633.3 lineto
36885.8 29689.5 lineto
36829.5 29802 lineto
36773.3 30027 lineto
36773.3 30308.2 lineto
36829.5 30533.2 lineto
36885.8 30645.7 lineto
36942 30701.9 lineto
37054.5 30758.2 lineto
stroke
newpath
37954.4 29689.5 moveto
38010.6 29633.3 lineto
37954.4 29577.1 lineto
37898.2 29633.3 lineto
37954.4 29689.5 lineto
37954.4 29577.1 lineto
stroke
newpath
38685.6 30252 moveto
38573.1 30308.2 lineto
38516.8 30364.5 lineto
38460.6 30476.9 lineto
38460.6 30533.2 lineto
38516.8 30645.7 lineto
38573.1 30701.9 lineto
38685.6 30758.2 lineto
38910.5 30758.2 lineto
39023 30701.9 lineto
39079.3 30645.7 lineto
39135.5 30533.2 lineto
39135.5 30476.9 lineto
39079.3 30364.5 lineto
39023 30308.2 lineto
38910.5 30252 lineto
38685.6 30252 lineto
38573.1 30195.7 lineto
38516.8 30139.5 lineto
38460.6 30027 lineto
38460.6 29802 lineto
38516.8 29689.5 lineto
38573.1 29633.3 lineto
38685.6 29577.1 lineto
38910.5 29577.1 lineto
39023 29633.3 lineto
39079.3 29689.5 lineto
39135.5 29802 lineto
39135.5 30027 lineto
39079.3 30139.5 lineto
39023 30195.7 lineto
38910.5 30252 lineto
stroke
newpath
40204.1 30758.2 moveto
39641.7 30758.2 lineto
39585.4 30195.7 lineto
39641.7 30252 lineto
39754.2 30308.2 lineto
40035.4 30308.2 lineto
40147.9 30252 lineto
40204.1 30195.7 lineto
40260.4 30083.2 lineto
40260.4 29802 lineto
40204.1 29689.5 lineto
40147.9 29633.3 lineto
40035.4 29577.1 lineto
39754.2 29577.1 lineto
39641.7 29633.3 lineto
39585.4 29689.5 lineto
stroke
newpath
40766.5 29577.1 moveto
40766.5 30364.5 lineto
stroke
newpath
40766.5 30252 moveto
40822.8 30308.2 lineto
40935.3 30364.5 lineto
41104 30364.5 lineto
41216.5 30308.2 lineto
41272.7 30195.7 lineto
41272.7 29577.1 lineto
stroke
newpath
41272.7 30195.7 moveto
41329 30308.2 lineto
41441.5 30364.5 lineto
41610.2 30364.5 lineto
41722.7 30308.2 lineto
41778.9 30195.7 lineto
41778.9 29577.1 lineto
stroke
newpath
42341.4 29577.1 moveto
42341.4 30364.5 lineto
stroke
newpath
42341.4 30252 moveto
42397.6 30308.2 lineto
42510.1 30364.5 lineto
42678.8 30364.5 lineto
42791.3 30308.2 lineto
42847.5 30195.7 lineto
42847.5 29577.1 lineto
stroke
newpath
42847.5 30195.7 moveto
42903.8 30308.2 lineto
43016.3 30364.5 lineto
43185 30364.5 lineto
43297.5 30308.2 lineto
43353.7 30195.7 lineto
43353.7 29577.1 lineto
stroke
newpath
45659.7 30814.4 moveto
44647.3 29295.8 lineto
stroke
newpath
47178.2 30758.2 moveto
47290.7 30758.2 lineto
47403.2 30701.9 lineto
47459.5 30645.7 lineto
47515.7 30533.2 lineto
47572 30308.2 lineto
47572 30027 lineto
47515.7 29802 lineto
47459.5 29689.5 lineto
47403.2 29633.3 lineto
47290.7 29577.1 lineto
47178.2 29577.1 lineto
47065.8 29633.3 lineto
47009.5 29689.5 lineto
46953.3 29802 lineto
46897 30027 lineto
46897 30308.2 lineto
46953.3 30533.2 lineto
47009.5 30645.7 lineto
47065.8 30701.9 lineto
47178.2 30758.2 lineto
stroke
newpath
48078.1 29689.5 moveto
48134.4 29633.3 lineto
48078.1 29577.1 lineto
48021.9 29633.3 lineto
48078.1 29689.5 lineto
48078.1 29577.1 lineto
stroke
newpath
48865.5 30758.2 moveto
48978 30758.2 lineto
49090.5 30701.9 lineto
49146.8 30645.7 lineto
49203 30533.2 lineto
49259.2 30308.2 lineto
49259.2 30027 lineto
49203 29802 lineto
49146.8 29689.5 lineto
49090.5 29633.3 lineto
48978 29577.1 lineto
48865.5 29577.1 lineto
48753.1 29633.3 lineto
48696.8 29689.5 lineto
48640.6 29802 lineto
48584.3 30027 lineto
48584.3 30308.2 lineto
48640.6 30533.2 lineto
48696.8 30645.7 lineto
48753.1 30701.9 lineto
48865.5 30758.2 lineto
stroke
newpath
49652.9 30758.2 moveto
50384.1 30758.2 lineto
49990.4 30308.2 lineto
50159.1 30308.2 lineto
50271.6 30252 lineto
50327.9 30195.7 lineto
50384.1 30083.2 lineto
50384.1 29802 lineto
50327.9 29689.5 lineto
50271.6 29633.3 lineto
50159.1 29577.1 lineto
49821.7 29577.1 lineto
49709.2 29633.3 lineto
49652.9 29689.5 lineto
stroke
newpath
50777.8 30758.2 moveto
51509 30758.2 lineto
51115.3 30308.2 lineto
51284 30308.2 lineto
51396.5 30252 lineto
51452.7 30195.7 lineto
51509 30083.2 lineto
51509 29802 lineto
51452.7 29689.5 lineto
51396.5 29633.3 lineto
51284 29577.1 lineto
50946.5 29577.1 lineto
50834 29633.3 lineto
50777.8 29689.5 lineto
stroke
newpath
51958.9 30758.2 moveto
51958.9 30533.2 lineto
stroke
newpath
52408.8 30758.2 moveto
52408.8 30533.2 lineto
stroke
newpath
54152.4 29127.1 moveto
54096.1 29183.4 lineto
53983.6 29352.1 lineto
53927.4 29464.6 lineto
53871.2 29633.3 lineto
53814.9 29914.5 lineto
53814.9 30139.5 lineto
53871.2 30420.7 lineto
53927.4 30589.4 lineto
53983.6 30701.9 lineto
54096.1 30870.6 lineto
54152.4 30926.9 lineto
stroke
newpath
54658.6 29577.1 moveto
54883.5 29577.1 lineto
54996 29633.3 lineto
55052.3 29689.5 lineto
55164.8 29858.3 lineto
55221 30083.2 lineto
55221 30533.2 lineto
55164.8 30645.7 lineto
55108.5 30701.9 lineto
54996 30758.2 lineto
54771.1 30758.2 lineto
54658.6 30701.9 lineto
54602.3 30645.7 lineto
54546.1 30533.2 lineto
54546.1 30252 lineto
54602.3 30139.5 lineto
54658.6 30083.2 lineto
54771.1 30027 lineto
54996 30027 lineto
55108.5 30083.2 lineto
55164.8 30139.5 lineto
55221 30252 lineto
stroke
newpath
56233.4 30758.2 moveto
56008.4 30758.2 lineto
55895.9 30701.9 lineto
55839.7 30645.7 lineto
55727.2 30476.9 lineto
55670.9 30252 lineto
55670.9 29802 lineto
55727.2 29689.5 lineto
55783.4 29633.3 lineto
55895.9 29577.1 lineto
56120.9 29577.1 lineto
56233.4 29633.3 lineto
56289.6 29689.5 lineto
56345.9 29802 lineto
56345.9 30083.2 lineto
56289.6 30195.7 lineto
56233.4 30252 lineto
56120.9 30308.2 lineto
55895.9 30308.2 lineto
55783.4 30252 lineto
55727.2 30195.7 lineto
55670.9 30083.2 lineto
stroke
newpath
57751.9 29577.1 moveto
57751.9 30758.2 lineto
stroke
newpath
58258.1 29577.1 moveto
58258.1 30195.7 lineto
58201.9 30308.2 lineto
58089.4 30364.5 lineto
57920.7 30364.5 lineto
57808.2 30308.2 lineto
57751.9 30252 lineto
stroke
newpath
58989.3 29577.1 moveto
58876.8 29633.3 lineto
58820.5 29689.5 lineto
58764.3 29802 lineto
58764.3 30139.5 lineto
58820.5 30252 lineto
58876.8 30308.2 lineto
58989.3 30364.5 lineto
59158 30364.5 lineto
59270.5 30308.2 lineto
59326.7 30252 lineto
59383 30139.5 lineto
59383 29802 lineto
59326.7 29689.5 lineto
59270.5 29633.3 lineto
59158 29577.1 lineto
58989.3 29577.1 lineto
stroke
newpath
60057.9 29577.1 moveto
59945.4 29633.3 lineto
59889.2 29745.8 lineto
59889.2 30758.2 lineto
stroke
newpath
60957.8 29633.3 moveto
60845.3 29577.1 lineto
60620.3 29577.1 lineto
60507.8 29633.3 lineto
60451.6 29745.8 lineto
60451.6 30195.7 lineto
60507.8 30308.2 lineto
60620.3 30364.5 lineto
60845.3 30364.5 lineto
60957.8 30308.2 lineto
61014 30195.7 lineto
61014 30083.2 lineto
60451.6 29970.8 lineto
stroke
newpath
61464 29633.3 moveto
61576.5 29577.1 lineto
61801.4 29577.1 lineto
61913.9 29633.3 lineto
61970.2 29745.8 lineto
61970.2 29802 lineto
61913.9 29914.5 lineto
61801.4 29970.8 lineto
61632.7 29970.8 lineto
61520.2 30027 lineto
61464 30139.5 lineto
61464 30195.7 lineto
61520.2 30308.2 lineto
61632.7 30364.5 lineto
61801.4 30364.5 lineto
61913.9 30308.2 lineto
stroke
newpath
62363.9 29127.1 moveto
62420.1 29183.4 lineto
62532.6 29352.1 lineto
62588.8 29464.6 lineto
62645.1 29633.3 lineto
62701.3 29914.5 lineto
62701.3 30139.5 lineto
62645.1 30420.7 lineto
62588.8 30589.4 lineto
62532.6 30701.9 lineto
62420.1 30870.6 lineto
62363.9 30926.9 lineto
stroke
newpath
35646.3 28418.2 moveto
35646.3 28686.4 lineto
35378.2 28686.4 lineto
35378.2 28418.2 lineto
35646.3 28418.2 lineto
poly0
0 0 0 setrgbcolor
0 0 0 setrgbcolor
newpath
37448.2 28018 moveto
36773.3 28018 lineto
stroke
newpath
37110.8 28018 moveto
37110.8 29199.1 lineto
36998.3 29030.4 lineto
36885.8 28917.9 lineto
36773.3 28861.7 lineto
stroke
newpath
37954.4 28130.5 moveto
38010.6 28074.2 lineto
37954.4 28018 lineto
37898.2 28074.2 lineto
37954.4 28130.5 lineto
37954.4 28018 lineto
stroke
newpath
38741.8 29199.1 moveto
38854.3 29199.1 lineto
38966.8 29142.9 lineto
39023 29086.6 lineto
39079.3 28974.1 lineto
39135.5 28749.2 lineto
39135.5 28467.9 lineto
39079.3 28243 lineto
39023 28130.5 lineto
38966.8 28074.2 lineto
38854.3 28018 lineto
38741.8 28018 lineto
38629.3 28074.2 lineto
38573.1 28130.5 lineto
38516.8 28243 lineto
38460.6 28467.9 lineto
38460.6 28749.2 lineto
38516.8 28974.1 lineto
38573.1 29086.6 lineto
38629.3 29142.9 lineto
38741.8 29199.1 lineto
stroke
newpath
39866.7 29199.1 moveto
39979.1 29199.1 lineto
40091.6 29142.9 lineto
40147.9 29086.6 lineto
40204.1 28974.1 lineto
40260.4 28749.2 lineto
40260.4 28467.9 lineto
40204.1 28243 lineto
40147.9 28130.5 lineto
40091.6 28074.2 lineto
39979.1 28018 lineto
39866.7 28018 lineto
39754.2 28074.2 lineto
39697.9 28130.5 lineto
39641.7 28243 lineto
39585.4 28467.9 lineto
39585.4 28749.2 lineto
39641.7 28974.1 lineto
39697.9 29086.6 lineto
39754.2 29142.9 lineto
39866.7 29199.1 lineto
stroke
newpath
40766.5 28018 moveto
40766.5 28805.4 lineto
stroke
newpath
40766.5 28692.9 moveto
40822.8 28749.2 lineto
40935.3 28805.4 lineto
41104 28805.4 lineto
41216.5 28749.2 lineto
41272.7 28636.7 lineto
41272.7 28018 lineto
stroke
newpath
41272.7 28636.7 moveto
41329 28749.2 lineto
41441.5 28805.4 lineto
41610.2 28805.4 lineto
41722.7 28749.2 lineto
41778.9 28636.7 lineto
41778.9 28018 lineto
stroke
newpath
42341.4 28018 moveto
42341.4 28805.4 lineto
stroke
newpath
42341.4 28692.9 moveto
42397.6 28749.2 lineto
42510.1 28805.4 lineto
42678.8 28805.4 lineto
42791.3 28749.2 lineto
42847.5 28636.7 lineto
42847.5 28018 lineto
stroke
newpath
42847.5 28636.7 moveto
42903.8 28749.2 lineto
43016.3 28805.4 lineto
43185 28805.4 lineto
43297.5 28749.2 lineto
43353.7 28636.7 lineto
43353.7 28018 lineto
stroke
newpath
45659.7 29255.4 moveto
44647.3 27736.8 lineto
stroke
newpath
47178.2 29199.1 moveto
47290.7 29199.1 lineto
47403.2 29142.9 lineto
47459.5 29086.6 lineto
47515.7 28974.1 lineto
47572 28749.2 lineto
47572 28467.9 lineto
47515.7 28243 lineto
47459.5 28130.5 lineto
47403.2 28074.2 lineto
47290.7 28018 lineto
47178.2 28018 lineto
47065.8 28074.2 lineto
47009.5 28130.5 lineto
46953.3 28243 lineto
46897 28467.9 lineto
46897 28749.2 lineto
46953.3 28974.1 lineto
47009.5 29086.6 lineto
47065.8 29142.9 lineto
47178.2 29199.1 lineto
stroke
newpath
48078.1 28130.5 moveto
48134.4 28074.2 lineto
48078.1 28018 lineto
48021.9 28074.2 lineto
48078.1 28130.5 lineto
48078.1 28018 lineto
stroke
newpath
48865.5 29199.1 moveto
48978 29199.1 lineto
49090.5 29142.9 lineto
49146.8 29086.6 lineto
49203 28974.1 lineto
49259.2 28749.2 lineto
49259.2 28467.9 lineto
49203 28243 lineto
49146.8 28130.5 lineto
49090.5 28074.2 lineto
48978 28018 lineto
48865.5 28018 lineto
48753.1 28074.2 lineto
48696.8 28130.5 lineto
48640.6 28243 lineto
48584.3 28467.9 lineto
48584.3 28749.2 lineto
48640.6 28974.1 lineto
48696.8 29086.6 lineto
48753.1 29142.9 lineto
48865.5 29199.1 lineto
stroke
newpath
49652.9 29199.1 moveto
50384.1 29199.1 lineto
49990.4 28749.2 lineto
50159.1 28749.2 lineto
50271.6 28692.9 lineto
50327.9 28636.7 lineto
50384.1 28524.2 lineto
50384.1 28243 lineto
50327.9 28130.5 lineto
50271.6 28074.2 lineto
50159.1 28018 lineto
49821.7 28018 lineto
49709.2 28074.2 lineto
49652.9 28130.5 lineto
stroke
newpath
50946.5 28018 moveto
51171.5 28018 lineto
51284 28074.2 lineto
51340.2 28130.5 lineto
51452.7 28299.2 lineto
51509 28524.2 lineto
51509 28974.1 lineto
51452.7 29086.6 lineto
51396.5 29142.9 lineto
51284 29199.1 lineto
51059 29199.1 lineto
50946.5 29142.9 lineto
50890.3 29086.6 lineto
50834 28974.1 lineto
50834 28692.9 lineto
50890.3 28580.4 lineto
50946.5 28524.2 lineto
51059 28467.9 lineto
51284 28467.9 lineto
51396.5 28524.2 lineto
51452.7 28580.4 lineto
51509 28692.9 lineto
stroke
newpath
51958.9 29199.1 moveto
51958.9 28974.1 lineto
stroke
newpath
52408.8 29199.1 moveto
52408.8 28974.1 lineto
stroke
newpath
54152.4 27568.1 moveto
54096.1 27624.3 lineto
53983.6 27793 lineto
53927.4 27905.5 lineto
53871.2 28074.2 lineto
53814.9 28355.5 lineto
53814.9 28580.4 lineto
53871.2 28861.7 lineto
53927.4 29030.4 lineto
53983.6 29142.9 lineto
54096.1 29311.6 lineto
54152.4 29367.8 lineto
stroke
newpath
55108.5 29199.1 moveto
54883.5 29199.1 lineto
54771.1 29142.9 lineto
54714.8 29086.6 lineto
54602.3 28917.9 lineto
54546.1 28692.9 lineto
54546.1 28243 lineto
54602.3 28130.5 lineto
54658.6 28074.2 lineto
54771.1 28018 lineto
54996 28018 lineto
55108.5 28074.2 lineto
55164.8 28130.5 lineto
55221 28243 lineto
55221 28524.2 lineto
55164.8 28636.7 lineto
55108.5 28692.9 lineto
54996 28749.2 lineto
54771.1 28749.2 lineto
54658.6 28692.9 lineto
54602.3 28636.7 lineto
54546.1 28524.2 lineto
stroke
newpath
55952.2 29199.1 moveto
56064.6 29199.1 lineto
56177.1 29142.9 lineto
56233.4 29086.6 lineto
56289.6 28974.1 lineto
56345.9 28749.2 lineto
56345.9 28467.9 lineto
56289.6 28243 lineto
56233.4 28130.5 lineto
56177.1 28074.2 lineto
56064.6 28018 lineto
55952.2 28018 lineto
55839.7 28074.2 lineto
55783.4 28130.5 lineto
55727.2 28243 lineto
55670.9 28467.9 lineto
55670.9 28749.2 lineto
55727.2 28974.1 lineto
55783.4 29086.6 lineto
55839.7 29142.9 lineto
55952.2 29199.1 lineto
stroke
newpath
57751.9 28018 moveto
57751.9 29199.1 lineto
stroke
newpath
58258.1 28018 moveto
58258.1 28636.7 lineto
58201.9 28749.2 lineto
58089.4 28805.4 lineto
57920.7 28805.4 lineto
57808.2 28749.2 lineto
57751.9 28692.9 lineto
stroke
newpath
58989.3 28018 moveto
58876.8 28074.2 lineto
58820.5 28130.5 lineto
58764.3 28243 lineto
58764.3 28580.4 lineto
58820.5 28692.9 lineto
58876.8 28749.2 lineto
58989.3 28805.4 lineto
59158 28805.4 lineto
59270.5 28749.2 lineto
59326.7 28692.9 lineto
59383 28580.4 lineto
59383 28243 lineto
59326.7 28130.5 lineto
59270.5 28074.2 lineto
59158 28018 lineto
58989.3 28018 lineto
stroke
newpath
60057.9 28018 moveto
59945.4 28074.2 lineto
59889.2 28186.7 lineto
59889.2 29199.1 lineto
stroke
newpath
60957.8 28074.2 moveto
60845.3 28018 lineto
60620.3 28018 lineto
60507.8 28074.2 lineto
60451.6 28186.7 lineto
60451.6 28636.7 lineto
60507.8 28749.2 lineto
60620.3 28805.4 lineto
60845.3 28805.4 lineto
60957.8 28749.2 lineto
61014 28636.7 lineto
61014 28524.2 lineto
60451.6 28411.7 lineto
stroke
newpath
61464 28074.2 moveto
61576.5 28018 lineto
61801.4 28018 lineto
61913.9 28074.2 lineto
61970.2 28186.7 lineto
61970.2 28243 lineto
61913.9 28355.5 lineto
61801.4 28411.7 lineto
61632.7 28411.7 lineto
61520.2 28467.9 lineto
61464 28580.4 lineto
61464 28636.7 lineto
61520.2 28749.2 lineto
61632.7 28805.4 lineto
61801.4 28805.4 lineto
61913.9 28749.2 lineto
stroke
newpath
62363.9 27568.1 moveto
62420.1 27624.3 lineto
62532.6 27793 lineto
62588.8 27905.5 lineto
62645.1 28074.2 lineto
62701.3 28355.5 lineto
62701.3 28580.4 lineto
62645.1 28861.7 lineto
62588.8 29030.4 lineto
62532.6 29142.9 lineto
62420.1 29311.6 lineto
62363.9 29367.8 lineto
stroke
newpath
35445.9 26737.3 moveto
35701.9 26993.3 lineto
35445.9 27249.2 lineto
35189.9 26993.3 lineto
35445.9 26737.3 lineto
poly0
0 0 0 setrgbcolor
0 0 0 setrgbcolor
newpath
37448.2 26459 moveto
36773.3 26459 lineto
stroke
newpath
37110.8 26459 moveto
37110.8 27640.1 lineto
36998.3 27471.3 lineto
36885.8 27358.8 lineto
36773.3 27302.6 lineto
stroke
newpath
37954.4 26571.4 moveto
38010.6 26515.2 lineto
37954.4 26459 lineto
37898.2 26515.2 lineto
37954.4 26571.4 lineto
37954.4 26459 lineto
stroke
newpath
38404.3 27640.1 moveto
39135.5 27640.1 lineto
38741.8 27190.1 lineto
38910.5 27190.1 lineto
39023 27133.9 lineto
39079.3 27077.6 lineto
39135.5 26965.1 lineto
39135.5 26683.9 lineto
39079.3 26571.4 lineto
39023 26515.2 lineto
38910.5 26459 lineto
38573.1 26459 lineto
38460.6 26515.2 lineto
38404.3 26571.4 lineto
stroke
newpath
40204.1 27640.1 moveto
39641.7 27640.1 lineto
39585.4 27077.6 lineto
39641.7 27133.9 lineto
39754.2 27190.1 lineto
40035.4 27190.1 lineto
40147.9 27133.9 lineto
40204.1 27077.6 lineto
40260.4 26965.1 lineto
40260.4 26683.9 lineto
40204.1 26571.4 lineto
40147.9 26515.2 lineto
40035.4 26459 lineto
39754.2 26459 lineto
39641.7 26515.2 lineto
39585.4 26571.4 lineto
stroke
newpath
40766.5 26459 moveto
40766.5 27246.4 lineto
stroke
newpath
40766.5 27133.9 moveto
40822.8 27190.1 lineto
40935.3 27246.4 lineto
41104 27246.4 lineto
41216.5 27190.1 lineto
41272.7 27077.6 lineto
41272.7 26459 lineto
stroke
newpath
41272.7 27077.6 moveto
41329 27190.1 lineto
41441.5 27246.4 lineto
41610.2 27246.4 lineto
41722.7 27190.1 lineto
41778.9 27077.6 lineto
41778.9 26459 lineto
stroke
newpath
42341.4 26459 moveto
42341.4 27246.4 lineto
stroke
newpath
42341.4 27133.9 moveto
42397.6 27190.1 lineto
42510.1 27246.4 lineto
42678.8 27246.4 lineto
42791.3 27190.1 lineto
42847.5 27077.6 lineto
42847.5 26459 lineto
stroke
newpath
42847.5 27077.6 moveto
42903.8 27190.1 lineto
43016.3 27246.4 lineto
43185 27246.4 lineto
43297.5 27190.1 lineto
43353.7 27077.6 lineto
43353.7 26459 lineto
stroke
newpath
45659.7 27696.3 moveto
44647.3 26177.7 lineto
stroke
newpath
47178.2 27640.1 moveto
47290.7 27640.1 lineto
47403.2 27583.8 lineto
47459.5 27527.6 lineto
47515.7 27415.1 lineto
47572 27190.1 lineto
47572 26908.9 lineto
47515.7 26683.9 lineto
47459.5 26571.4 lineto
47403.2 26515.2 lineto
47290.7 26459 lineto
47178.2 26459 lineto
47065.8 26515.2 lineto
47009.5 26571.4 lineto
46953.3 26683.9 lineto
46897 26908.9 lineto
46897 27190.1 lineto
46953.3 27415.1 lineto
47009.5 27527.6 lineto
47065.8 27583.8 lineto
47178.2 27640.1 lineto
stroke
newpath
48078.1 26571.4 moveto
48134.4 26515.2 lineto
48078.1 26459 lineto
48021.9 26515.2 lineto
48078.1 26571.4 lineto
48078.1 26459 lineto
stroke
newpath
48865.5 27640.1 moveto
48978 27640.1 lineto
49090.5 27583.8 lineto
49146.8 27527.6 lineto
49203 27415.1 lineto
49259.2 27190.1 lineto
49259.2 26908.9 lineto
49203 26683.9 lineto
49146.8 26571.4 lineto
49090.5 26515.2 lineto
48978 26459 lineto
48865.5 26459 lineto
48753.1 26515.2 lineto
48696.8 26571.4 lineto
48640.6 26683.9 lineto
48584.3 26908.9 lineto
48584.3 27190.1 lineto
48640.6 27415.1 lineto
48696.8 27527.6 lineto
48753.1 27583.8 lineto
48865.5 27640.1 lineto
stroke
newpath
50327.9 27640.1 moveto
49765.4 27640.1 lineto
49709.2 27077.6 lineto
49765.4 27133.9 lineto
49877.9 27190.1 lineto
50159.1 27190.1 lineto
50271.6 27133.9 lineto
50327.9 27077.6 lineto
50384.1 26965.1 lineto
50384.1 26683.9 lineto
50327.9 26571.4 lineto
50271.6 26515.2 lineto
50159.1 26459 lineto
49877.9 26459 lineto
49765.4 26515.2 lineto
49709.2 26571.4 lineto
stroke
newpath
50777.8 27640.1 moveto
51509 27640.1 lineto
51115.3 27190.1 lineto
51284 27190.1 lineto
51396.5 27133.9 lineto
51452.7 27077.6 lineto
51509 26965.1 lineto
51509 26683.9 lineto
51452.7 26571.4 lineto
51396.5 26515.2 lineto
51284 26459 lineto
50946.5 26459 lineto
50834 26515.2 lineto
50777.8 26571.4 lineto
stroke
newpath
51958.9 27640.1 moveto
51958.9 27415.1 lineto
stroke
newpath
52408.8 27640.1 moveto
52408.8 27415.1 lineto
stroke
newpath
54152.4 26009 moveto
54096.1 26065.2 lineto
53983.6 26234 lineto
53927.4 26346.5 lineto
53871.2 26515.2 lineto
53814.9 26796.4 lineto
53814.9 27021.4 lineto
53871.2 27302.6 lineto
53927.4 27471.3 lineto
53983.6 27583.8 lineto
54096.1 27752.5 lineto
54152.4 27808.8 lineto
stroke
newpath
55221 26459 moveto
54546.1 26459 lineto
stroke
newpath
54883.5 26459 moveto
54883.5 27640.1 lineto
54771.1 27471.3 lineto
54658.6 27358.8 lineto
54546.1 27302.6 lineto
stroke
newpath
55952.2 27640.1 moveto
56064.6 27640.1 lineto
56177.1 27583.8 lineto
56233.4 27527.6 lineto
56289.6 27415.1 lineto
56345.9 27190.1 lineto
56345.9 26908.9 lineto
56289.6 26683.9 lineto
56233.4 26571.4 lineto
56177.1 26515.2 lineto
56064.6 26459 lineto
55952.2 26459 lineto
55839.7 26515.2 lineto
55783.4 26571.4 lineto
55727.2 26683.9 lineto
55670.9 26908.9 lineto
55670.9 27190.1 lineto
55727.2 27415.1 lineto
55783.4 27527.6 lineto
55839.7 27583.8 lineto
55952.2 27640.1 lineto
stroke
newpath
57751.9 26459 moveto
57751.9 27640.1 lineto
stroke
newpath
58258.1 26459 moveto
58258.1 27077.6 lineto
58201.9 27190.1 lineto
58089.4 27246.4 lineto
57920.7 27246.4 lineto
57808.2 27190.1 lineto
57751.9 27133.9 lineto
stroke
newpath
58989.3 26459 moveto
58876.8 26515.2 lineto
58820.5 26571.4 lineto
58764.3 26683.9 lineto
58764.3 27021.4 lineto
58820.5 27133.9 lineto
58876.8 27190.1 lineto
58989.3 27246.4 lineto
59158 27246.4 lineto
59270.5 27190.1 lineto
59326.7 27133.9 lineto
59383 27021.4 lineto
59383 26683.9 lineto
59326.7 26571.4 lineto
59270.5 26515.2 lineto
59158 26459 lineto
58989.3 26459 lineto
stroke
newpath
60057.9 26459 moveto
59945.4 26515.2 lineto
59889.2 26627.7 lineto
59889.2 27640.1 lineto
stroke
newpath
60957.8 26515.2 moveto
60845.3 26459 lineto
60620.3 26459 lineto
60507.8 26515.2 lineto
60451.6 26627.7 lineto
60451.6 27077.6 lineto
60507.8 27190.1 lineto
60620.3 27246.4 lineto
60845.3 27246.4 lineto
60957.8 27190.1 lineto
61014 27077.6 lineto
61014 26965.1 lineto
60451.6 26852.7 lineto
stroke
newpath
61464 26515.2 moveto
61576.5 26459 lineto
61801.4 26459 lineto
61913.9 26515.2 lineto
61970.2 26627.7 lineto
61970.2 26683.9 lineto
61913.9 26796.4 lineto
61801.4 26852.7 lineto
61632.7 26852.7 lineto
61520.2 26908.9 lineto
61464 27021.4 lineto
61464 27077.6 lineto
61520.2 27190.1 lineto
61632.7 27246.4 lineto
61801.4 27246.4 lineto
61913.9 27190.1 lineto
stroke
newpath
62363.9 26009 moveto
62420.1 26065.2 lineto
62532.6 26234 lineto
62588.8 26346.5 lineto
62645.1 26515.2 lineto
62701.3 26796.4 lineto
62701.3 27021.4 lineto
62645.1 27302.6 lineto
62588.8 27471.3 lineto
62532.6 27583.8 lineto
62420.1 27752.5 lineto
62363.9 27808.8 lineto
stroke
newpath
34488.3 26041 moveto
35701.9 24827.4 lineto
stroke
newpath
35701.9 26041 moveto
34488.3 24827.4 lineto
stroke
35095.1 25434.2 606.764 cir0
0 0 0 setrgbcolor
0 0 0 setrgbcolor
newpath
36717.1 26081 moveto
37448.2 26081 lineto
37054.5 25631.1 lineto
37223.2 25631.1 lineto
37335.7 25574.8 lineto
37392 25518.6 lineto
37448.2 25406.1 lineto
37448.2 25124.9 lineto
37392 25012.4 lineto
37335.7 24956.1 lineto
37223.2 24899.9 lineto
36885.8 24899.9 lineto
36773.3 24956.1 lineto
36717.1 25012.4 lineto
stroke
newpath
37954.4 25012.4 moveto
38010.6 24956.1 lineto
37954.4 24899.9 lineto
37898.2 24956.1 lineto
37954.4 25012.4 lineto
37954.4 24899.9 lineto
stroke
newpath
38460.6 25968.5 moveto
38516.8 26024.8 lineto
38629.3 26081 lineto
38910.5 26081 lineto
39023 26024.8 lineto
39079.3 25968.5 lineto
39135.5 25856 lineto
39135.5 25743.5 lineto
39079.3 25574.8 lineto
38404.3 24899.9 lineto
39135.5 24899.9 lineto
stroke
newpath
39866.7 26081 moveto
39979.1 26081 lineto
40091.6 26024.8 lineto
40147.9 25968.5 lineto
40204.1 25856 lineto
40260.4 25631.1 lineto
40260.4 25349.8 lineto
40204.1 25124.9 lineto
40147.9 25012.4 lineto
40091.6 24956.1 lineto
39979.1 24899.9 lineto
39866.7 24899.9 lineto
39754.2 24956.1 lineto
39697.9 25012.4 lineto
39641.7 25124.9 lineto
39585.4 25349.8 lineto
39585.4 25631.1 lineto
39641.7 25856 lineto
39697.9 25968.5 lineto
39754.2 26024.8 lineto
39866.7 26081 lineto
stroke
newpath
40766.5 24899.9 moveto
40766.5 25687.3 lineto
stroke
newpath
40766.5 25574.8 moveto
40822.8 25631.1 lineto
40935.3 25687.3 lineto
41104 25687.3 lineto
41216.5 25631.1 lineto
41272.7 25518.6 lineto
41272.7 24899.9 lineto
stroke
newpath
41272.7 25518.6 moveto
41329 25631.1 lineto
41441.5 25687.3 lineto
41610.2 25687.3 lineto
41722.7 25631.1 lineto
41778.9 25518.6 lineto
41778.9 24899.9 lineto
stroke
newpath
42341.4 24899.9 moveto
42341.4 25687.3 lineto
stroke
newpath
42341.4 25574.8 moveto
42397.6 25631.1 lineto
42510.1 25687.3 lineto
42678.8 25687.3 lineto
42791.3 25631.1 lineto
42847.5 25518.6 lineto
42847.5 24899.9 lineto
stroke
newpath
42847.5 25518.6 moveto
42903.8 25631.1 lineto
43016.3 25687.3 lineto
43185 25687.3 lineto
43297.5 25631.1 lineto
43353.7 25518.6 lineto
43353.7 24899.9 lineto
stroke
newpath
45659.7 26137.2 moveto
44647.3 24618.7 lineto
stroke
newpath
47178.2 26081 moveto
47290.7 26081 lineto
47403.2 26024.8 lineto
47459.5 25968.5 lineto
47515.7 25856 lineto
47572 25631.1 lineto
47572 25349.8 lineto
47515.7 25124.9 lineto
47459.5 25012.4 lineto
47403.2 24956.1 lineto
47290.7 24899.9 lineto
47178.2 24899.9 lineto
47065.8 24956.1 lineto
47009.5 25012.4 lineto
46953.3 25124.9 lineto
46897 25349.8 lineto
46897 25631.1 lineto
46953.3 25856 lineto
47009.5 25968.5 lineto
47065.8 26024.8 lineto
47178.2 26081 lineto
stroke
newpath
48078.1 25012.4 moveto
48134.4 24956.1 lineto
48078.1 24899.9 lineto
48021.9 24956.1 lineto
48078.1 25012.4 lineto
48078.1 24899.9 lineto
stroke
newpath
49259.2 24899.9 moveto
48584.3 24899.9 lineto
stroke
newpath
48921.8 24899.9 moveto
48921.8 26081 lineto
48809.3 25912.3 lineto
48696.8 25799.8 lineto
48584.3 25743.5 lineto
stroke
newpath
49709.2 25968.5 moveto
49765.4 26024.8 lineto
49877.9 26081 lineto
50159.1 26081 lineto
50271.6 26024.8 lineto
50327.9 25968.5 lineto
50384.1 25856 lineto
50384.1 25743.5 lineto
50327.9 25574.8 lineto
49652.9 24899.9 lineto
50384.1 24899.9 lineto
stroke
newpath
51396.5 26081 moveto
51171.5 26081 lineto
51059 26024.8 lineto
51002.8 25968.5 lineto
50890.3 25799.8 lineto
50834 25574.8 lineto
50834 25124.9 lineto
50890.3 25012.4 lineto
50946.5 24956.1 lineto
51059 24899.9 lineto
51284 24899.9 lineto
51396.5 24956.1 lineto
51452.7 25012.4 lineto
51509 25124.9 lineto
51509 25406.1 lineto
51452.7 25518.6 lineto
51396.5 25574.8 lineto
51284 25631.1 lineto
51059 25631.1 lineto
50946.5 25574.8 lineto
50890.3 25518.6 lineto
50834 25406.1 lineto
stroke
newpath
51958.9 26081 moveto
51958.9 25856 lineto
stroke
newpath
52408.8 26081 moveto
52408.8 25856 lineto
stroke
newpath
54152.4 24450 moveto
54096.1 24506.2 lineto
53983.6 24674.9 lineto
53927.4 24787.4 lineto
53871.2 24956.1 lineto
53814.9 25237.4 lineto
53814.9 25462.3 lineto
53871.2 25743.5 lineto
53927.4 25912.3 lineto
53983.6 26024.8 lineto
54096.1 26193.5 lineto
54152.4 26249.7 lineto
stroke
newpath
54771.1 25574.8 moveto
54658.6 25631.1 lineto
54602.3 25687.3 lineto
54546.1 25799.8 lineto
54546.1 25856 lineto
54602.3 25968.5 lineto
54658.6 26024.8 lineto
54771.1 26081 lineto
54996 26081 lineto
55108.5 26024.8 lineto
55164.8 25968.5 lineto
55221 25856 lineto
55221 25799.8 lineto
55164.8 25687.3 lineto
55108.5 25631.1 lineto
54996 25574.8 lineto
54771.1 25574.8 lineto
54658.6 25518.6 lineto
54602.3 25462.3 lineto
54546.1 25349.8 lineto
54546.1 25124.9 lineto
54602.3 25012.4 lineto
54658.6 24956.1 lineto
54771.1 24899.9 lineto
54996 24899.9 lineto
55108.5 24956.1 lineto
55164.8 25012.4 lineto
55221 25124.9 lineto
55221 25349.8 lineto
55164.8 25462.3 lineto
55108.5 25518.6 lineto
54996 25574.8 lineto
stroke
newpath
56627.1 24899.9 moveto
56627.1 26081 lineto
stroke
newpath
57133.3 24899.9 moveto
57133.3 25518.6 lineto
57077 25631.1 lineto
56964.5 25687.3 lineto
56795.8 25687.3 lineto
56683.3 25631.1 lineto
56627.1 25574.8 lineto
stroke
newpath
57864.4 24899.9 moveto
57751.9 24956.1 lineto
57695.7 25012.4 lineto
57639.4 25124.9 lineto
57639.4 25462.3 lineto
57695.7 25574.8 lineto
57751.9 25631.1 lineto
57864.4 25687.3 lineto
58033.1 25687.3 lineto
58145.6 25631.1 lineto
58201.9 25574.8 lineto
58258.1 25462.3 lineto
58258.1 25124.9 lineto
58201.9 25012.4 lineto
58145.6 24956.1 lineto
58033.1 24899.9 lineto
57864.4 24899.9 lineto
stroke
newpath
58933 24899.9 moveto
58820.5 24956.1 lineto
58764.3 25068.6 lineto
58764.3 26081 lineto
stroke
newpath
59832.9 24956.1 moveto
59720.4 24899.9 lineto
59495.5 24899.9 lineto
59383 24956.1 lineto
59326.7 25068.6 lineto
59326.7 25518.6 lineto
59383 25631.1 lineto
59495.5 25687.3 lineto
59720.4 25687.3 lineto
59832.9 25631.1 lineto
59889.2 25518.6 lineto
59889.2 25406.1 lineto
59326.7 25293.6 lineto
stroke
newpath
60339.1 24956.1 moveto
60451.6 24899.9 lineto
60676.6 24899.9 lineto
60789 24956.1 lineto
60845.3 25068.6 lineto
60845.3 25124.9 lineto
60789 25237.4 lineto
60676.6 25293.6 lineto
60507.8 25293.6 lineto
60395.3 25349.8 lineto
60339.1 25462.3 lineto
60339.1 25518.6 lineto
60395.3 25631.1 lineto
60507.8 25687.3 lineto
60676.6 25687.3 lineto
60789 25631.1 lineto
stroke
newpath
61239 24450 moveto
61295.2 24506.2 lineto
61407.7 24674.9 lineto
61464 24787.4 lineto
61520.2 24956.1 lineto
61576.5 25237.4 lineto
61576.5 25462.3 lineto
61520.2 25743.5 lineto
61464 25912.3 lineto
61407.7 26024.8 lineto
61295.2 26193.5 lineto
61239 26249.7 lineto
stroke
showpage
grestore
%%EOF
