%!PS-Adobe-3.0
%%Creator: PCBNEW
%%CreationDate: Thu Sep  9 19:14:08 2021
%%Title: /Users/Augustin/OneDrive - Nexus365/Oxford/electronics/4wireMUX/4wireMux_rev1/20210909_4wireMux_rev1_export/4wireMux_rev1-NPTH-drl_map.ps
%%Pages: 1
%%PageOrder: Ascend
%%BoundingBox: 0 0 596 842
%%DocumentMedia: A4 595 842 0 () ()
%%Orientation: Landscape
%%EndComments
%%BeginProlog
/line { newpath moveto lineto stroke } bind def
/cir0 { newpath 0 360 arc stroke } bind def
/cir1 { newpath 0 360 arc gsave fill grestore stroke } bind def
/cir2 { newpath 0 360 arc gsave fill grestore stroke } bind def
/arc0 { newpath arc stroke } bind def
/arc1 { newpath 4 index 4 index moveto arc closepath gsave fill
    grestore stroke } bind def
/arc2 { newpath 4 index 4 index moveto arc closepath gsave fill
    grestore stroke } bind def
/poly0 { stroke } bind def
/poly1 { closepath gsave fill grestore stroke } bind def
/poly2 { closepath gsave fill grestore stroke } bind def
/rect0 { rectstroke } bind def
/rect1 { rectfill } bind def
/rect2 { rectfill } bind def
/linemode0 { 0 setlinecap 0 setlinejoin 0 setlinewidth } bind def
/linemode1 { 1 setlinecap 1 setlinejoin } bind def
/dashedline { [200] 100 setdash } bind def
/solidline { [] 0 setdash } bind def
/phantomshow { moveto
    /KicadFont findfont 0.000001 scalefont setfont
    show } bind def
/textshow { gsave
    findfont exch scalefont setfont concat 1 scale 0 0 moveto show
    } bind def
/reencodefont {
  findfont dup length dict begin
  { 1 index /FID ne
    { def }
    { pop pop } ifelse
  } forall
  /Encoding ISOLatin1Encoding def
  currentdict
  end } bind def
/KicadFont /Helvetica reencodefont definefont pop
/KicadFont-Bold /Helvetica-Bold reencodefont definefont pop
/KicadFont-Oblique /Helvetica-Oblique reencodefont definefont pop
/KicadFont-BoldOblique /Helvetica-BoldOblique reencodefont definefont pop
%%EndProlog
%%Page: 1 1
%%BeginPageSetup
gsave
0.0072 0.0072 scale
linemode1
82680 0 translate 90 rotate
52.9757 setlinewidth
%%EndPageSetup
0 0 0 setrgbcolor
20.8566 setlinewidth
31560 38270.8 1251.39 180 270 arc0
0 0 0 setrgbcolor
85370 38270.8 1251.39 -90 -0 arc0
0 0 0 setrgbcolor
85370 77481.2 1251.39 -0 90 arc0
0 0 0 setrgbcolor
31560 77481.2 1251.39 90 180 arc0
0 0 0 setrgbcolor
newpath
30308.6 38270.8 moveto
30308.6 77481.2 lineto
stroke
0 0 0 setrgbcolor
newpath
85370 37019.4 moveto
31560 37019.4 lineto
stroke
0 0 0 setrgbcolor
newpath
86621.4 77481.2 moveto
86621.4 38270.8 lineto
stroke
0 0 0 setrgbcolor
newpath
31560 78732.6 moveto
85370 78732.6 lineto
stroke
78.7398 setlinewidth
118.11 setlinewidth
0 0 0 setrgbcolor
0 0 0 setrgbcolor
newpath
31425.9 35175.5 moveto
31425.9 36356.6 lineto
31707.1 36356.6 lineto
31875.8 36300.3 lineto
31988.3 36187.9 lineto
32044.6 36075.4 lineto
32100.8 35850.4 lineto
32100.8 35681.7 lineto
32044.6 35456.7 lineto
31988.3 35344.2 lineto
31875.8 35231.7 lineto
31707.1 35175.5 lineto
31425.9 35175.5 lineto
stroke
newpath
32607 35175.5 moveto
32607 35962.9 lineto
stroke
newpath
32607 35737.9 moveto
32663.2 35850.4 lineto
32719.5 35906.6 lineto
32832 35962.9 lineto
32944.4 35962.9 lineto
stroke
newpath
33338.1 35175.5 moveto
33338.1 35962.9 lineto
stroke
newpath
33338.1 36356.6 moveto
33281.9 36300.3 lineto
33338.1 36244.1 lineto
33394.4 36300.3 lineto
33338.1 36356.6 lineto
33338.1 36244.1 lineto
stroke
newpath
34069.3 35175.5 moveto
33956.8 35231.7 lineto
33900.6 35344.2 lineto
33900.6 36356.6 lineto
stroke
newpath
34688 35175.5 moveto
34575.5 35231.7 lineto
34519.2 35344.2 lineto
34519.2 36356.6 lineto
stroke
newpath
36037.8 35175.5 moveto
36037.8 36356.6 lineto
36431.5 35512.9 lineto
36825.2 36356.6 lineto
36825.2 35175.5 lineto
stroke
newpath
37893.8 35175.5 moveto
37893.8 35794.2 lineto
37837.6 35906.6 lineto
37725.1 35962.9 lineto
37500.1 35962.9 lineto
37387.6 35906.6 lineto
stroke
newpath
37893.8 35231.7 moveto
37781.3 35175.5 lineto
37500.1 35175.5 lineto
37387.6 35231.7 lineto
37331.4 35344.2 lineto
37331.4 35456.7 lineto
37387.6 35569.2 lineto
37500.1 35625.4 lineto
37781.3 35625.4 lineto
37893.8 35681.7 lineto
stroke
newpath
38456.3 35962.9 moveto
38456.3 34781.8 lineto
stroke
newpath
38456.3 35906.6 moveto
38568.7 35962.9 lineto
38793.7 35962.9 lineto
38906.2 35906.6 lineto
38962.4 35850.4 lineto
39018.7 35737.9 lineto
39018.7 35400.5 lineto
38962.4 35288 lineto
38906.2 35231.7 lineto
38793.7 35175.5 lineto
38568.7 35175.5 lineto
38456.3 35231.7 lineto
stroke
newpath
39524.9 35288 moveto
39581.1 35231.7 lineto
39524.9 35175.5 lineto
39468.6 35231.7 lineto
39524.9 35288 lineto
39524.9 35175.5 lineto
stroke
newpath
39524.9 35906.6 moveto
39581.1 35850.4 lineto
39524.9 35794.2 lineto
39468.6 35850.4 lineto
39524.9 35906.6 lineto
39524.9 35794.2 lineto
stroke
showpage
grestore
%%EOF
