%!PS-Adobe-3.0
%%Creator: PCBNEW
%%CreationDate: Thu Sep  9 19:14:08 2021
%%Title: /Users/Augustin/OneDrive - Nexus365/Oxford/electronics/4wireMUX/4wireMux_rev1/20210909_4wireMux_rev1_export/4wireMux_rev1-PTH-drl_map.ps
%%Pages: 1
%%PageOrder: Ascend
%%BoundingBox: 0 0 596 842
%%DocumentMedia: A4 595 842 0 () ()
%%Orientation: Landscape
%%EndComments
%%BeginProlog
/line { newpath moveto lineto stroke } bind def
/cir0 { newpath 0 360 arc stroke } bind def
/cir1 { newpath 0 360 arc gsave fill grestore stroke } bind def
/cir2 { newpath 0 360 arc gsave fill grestore stroke } bind def
/arc0 { newpath arc stroke } bind def
/arc1 { newpath 4 index 4 index moveto arc closepath gsave fill
    grestore stroke } bind def
/arc2 { newpath 4 index 4 index moveto arc closepath gsave fill
    grestore stroke } bind def
/poly0 { stroke } bind def
/poly1 { closepath gsave fill grestore stroke } bind def
/poly2 { closepath gsave fill grestore stroke } bind def
/rect0 { rectstroke } bind def
/rect1 { rectfill } bind def
/rect2 { rectfill } bind def
/linemode0 { 0 setlinecap 0 setlinejoin 0 setlinewidth } bind def
/linemode1 { 1 setlinecap 1 setlinejoin } bind def
/dashedline { [200] 100 setdash } bind def
/solidline { [] 0 setdash } bind def
/phantomshow { moveto
    /KicadFont findfont 0.000001 scalefont setfont
    show } bind def
/textshow { gsave
    findfont exch scalefont setfont concat 1 scale 0 0 moveto show
    } bind def
/reencodefont {
  findfont dup length dict begin
  { 1 index /FID ne
    { def }
    { pop pop } ifelse
  } forall
  /Encoding ISOLatin1Encoding def
  currentdict
  end } bind def
/KicadFont /Helvetica reencodefont definefont pop
/KicadFont-Bold /Helvetica-Bold reencodefont definefont pop
/KicadFont-Oblique /Helvetica-Oblique reencodefont definefont pop
/KicadFont-BoldOblique /Helvetica-BoldOblique reencodefont definefont pop
%%EndProlog
%%Page: 1 1
%%BeginPageSetup
gsave
0.0072 0.0072 scale
linemode1
82680 0 translate 90 rotate
52.9757 setlinewidth
%%EndPageSetup
0 0 0 setrgbcolor
20.8566 setlinewidth
31560 38270.8 1251.39 180 270 arc0
0 0 0 setrgbcolor
85370 38270.8 1251.39 -90 -0 arc0
0 0 0 setrgbcolor
85370 77481.2 1251.39 -0 90 arc0
0 0 0 setrgbcolor
31560 77481.2 1251.39 90 180 arc0
0 0 0 setrgbcolor
newpath
30308.6 38270.8 moveto
30308.6 77481.2 lineto
stroke
0 0 0 setrgbcolor
newpath
85370 37019.4 moveto
31560 37019.4 lineto
stroke
0 0 0 setrgbcolor
newpath
86621.4 77481.2 moveto
86621.4 38270.8 lineto
stroke
0 0 0 setrgbcolor
newpath
31560 78732.6 moveto
85370 78732.6 lineto
stroke
78.7398 setlinewidth
newpath
37420.7 60775.1 moveto
37587.6 60608.2 lineto
stroke
newpath
37587.6 60775.1 moveto
37420.7 60608.2 lineto
stroke
newpath
38463.6 63069.3 moveto
38630.4 62902.4 lineto
stroke
newpath
38630.4 63069.3 moveto
38463.6 62902.4 lineto
stroke
newpath
39923.5 61087.9 moveto
40090.4 60921.1 lineto
stroke
newpath
40090.4 61087.9 moveto
39923.5 60921.1 lineto
stroke
newpath
41800.6 57229.4 moveto
41967.5 57062.6 lineto
stroke
newpath
41967.5 57229.4 moveto
41800.6 57062.6 lineto
stroke
newpath
46701.9 39918.5 moveto
46868.8 39751.6 lineto
stroke
newpath
46868.8 39918.5 moveto
46701.9 39751.6 lineto
stroke
newpath
49100.4 43985.5 moveto
49267.3 43818.7 lineto
stroke
newpath
49267.3 43985.5 moveto
49100.4 43818.7 lineto
stroke
newpath
51611.5 54735 moveto
51778.4 54568.1 lineto
stroke
newpath
51778.4 54735 moveto
51611.5 54568.1 lineto
stroke
newpath
55253.1 67866.3 moveto
55419.9 67699.4 lineto
stroke
newpath
55419.9 67866.3 moveto
55253.1 67699.4 lineto
stroke
newpath
57547.3 60983.6 moveto
57714.2 60816.8 lineto
stroke
newpath
57714.2 60983.6 moveto
57547.3 60816.8 lineto
stroke
newpath
57547.3 56916.6 moveto
57714.2 56749.7 lineto
stroke
newpath
57714.2 56916.6 moveto
57547.3 56749.7 lineto
stroke
newpath
57755.9 65572.1 moveto
57922.7 65405.2 lineto
stroke
newpath
57922.7 65572.1 moveto
57755.9 65405.2 lineto
stroke
newpath
61405.8 49616.8 moveto
61572.6 49449.9 lineto
stroke
newpath
61572.6 49616.8 moveto
61405.8 49449.9 lineto
stroke
newpath
61405.8 48991.1 moveto
61572.6 48824.3 lineto
stroke
newpath
61572.6 48991.1 moveto
61405.8 48824.3 lineto
stroke
newpath
63178.6 39188.5 moveto
63345.4 39021.7 lineto
stroke
newpath
63345.4 39188.5 moveto
63178.6 39021.7 lineto
stroke
newpath
63787.6 50225.8 moveto
63954.4 50059 lineto
stroke
newpath
63954.4 50225.8 moveto
63787.6 50059 lineto
stroke
newpath
64847.1 66302.1 moveto
65014 66135.2 lineto
stroke
newpath
65014 66302.1 moveto
64847.1 66135.2 lineto
stroke
newpath
64847.1 53788.1 moveto
65014 53621.3 lineto
stroke
newpath
65014 53788.1 moveto
64847.1 53621.3 lineto
stroke
newpath
64847.1 52953.9 moveto
65014 52787 lineto
stroke
newpath
65014 52953.9 moveto
64847.1 52787 lineto
stroke
newpath
64847.1 52119.6 moveto
65014 51952.7 lineto
stroke
newpath
65014 52119.6 moveto
64847.1 51952.7 lineto
stroke
newpath
64847.1 51285.3 moveto
65014 51118.5 lineto
stroke
newpath
65014 51285.3 moveto
64847.1 51118.5 lineto
stroke
newpath
65785.7 61609.3 moveto
65952.5 61442.5 lineto
stroke
newpath
65952.5 61609.3 moveto
65785.7 61442.5 lineto
stroke
newpath
66932.8 68387.7 moveto
67099.6 68220.9 lineto
stroke
newpath
67099.6 68387.7 moveto
66932.8 68220.9 lineto
stroke
newpath
66932.8 39188.5 moveto
67099.6 39021.7 lineto
stroke
newpath
67099.6 39188.5 moveto
66932.8 39021.7 lineto
stroke
newpath
67662.7 59523.7 moveto
67829.6 59356.8 lineto
stroke
newpath
67829.6 59523.7 moveto
67662.7 59356.8 lineto
stroke
newpath
67662.7 40857 moveto
67829.6 40690.2 lineto
stroke
newpath
67829.6 40857 moveto
67662.7 40690.2 lineto
stroke
newpath
68079.9 40335.6 moveto
68246.7 40168.8 lineto
stroke
newpath
68246.7 40335.6 moveto
68079.9 40168.8 lineto
stroke
newpath
68705.6 62860.7 moveto
68872.4 62693.9 lineto
stroke
newpath
68872.4 62860.7 moveto
68705.6 62693.9 lineto
stroke
newpath
69122.7 61505 moveto
69289.6 61338.2 lineto
stroke
newpath
69289.6 61505 moveto
69122.7 61338.2 lineto
stroke
newpath
69644.1 48991.1 moveto
69811 48824.3 lineto
stroke
newpath
69811 48991.1 moveto
69644.1 48824.3 lineto
stroke
newpath
71104.1 49616.8 moveto
71270.9 49449.9 lineto
stroke
newpath
71270.9 49616.8 moveto
71104.1 49449.9 lineto
stroke
newpath
71938.3 58793.7 moveto
72105.2 58626.8 lineto
stroke
newpath
72105.2 58793.7 moveto
71938.3 58626.8 lineto
stroke
newpath
71938.3 55456.6 moveto
72105.2 55289.8 lineto
stroke
newpath
72105.2 55456.6 moveto
71938.3 55289.8 lineto
stroke
newpath
72126 41357.6 moveto
72292.9 41190.7 lineto
stroke
newpath
72292.9 41357.6 moveto
72126 41190.7 lineto
stroke
newpath
72355.5 58793.7 moveto
72522.3 58626.8 lineto
stroke
newpath
72522.3 58793.7 moveto
72355.5 58626.8 lineto
stroke
newpath
72355.5 56290.9 moveto
72522.3 56124 lineto
stroke
newpath
72522.3 56290.9 moveto
72355.5 56124 lineto
stroke
newpath
72772.6 58793.7 moveto
72939.5 58626.8 lineto
stroke
newpath
72939.5 58793.7 moveto
72772.6 58626.8 lineto
stroke
newpath
72772.6 57125.2 moveto
72939.5 56958.3 lineto
stroke
newpath
72939.5 57125.2 moveto
72772.6 56958.3 lineto
stroke
newpath
74024 58793.7 moveto
74190.8 58626.8 lineto
stroke
newpath
74190.8 58793.7 moveto
74024 58626.8 lineto
stroke
newpath
74441.1 58793.7 moveto
74608 58626.8 lineto
stroke
newpath
74608 58793.7 moveto
74441.1 58626.8 lineto
stroke
newpath
74858.3 58793.7 moveto
75025.1 58626.8 lineto
stroke
newpath
75025.1 58793.7 moveto
74858.3 58626.8 lineto
stroke
newpath
75275.4 58793.7 moveto
75442.2 58626.8 lineto
stroke
newpath
75442.2 58793.7 moveto
75275.4 58626.8 lineto
stroke
newpath
76109.7 58793.7 moveto
76276.5 58626.8 lineto
stroke
newpath
76276.5 58793.7 moveto
76109.7 58626.8 lineto
stroke
newpath
82176.8 44279.6 moveto
82343.7 44112.8 lineto
stroke
newpath
82343.7 44279.6 moveto
82176.8 44112.8 lineto
stroke
newpath
82366.6 60983.6 moveto
82533.5 60816.8 lineto
stroke
newpath
82533.5 60983.6 moveto
82366.6 60816.8 lineto
stroke
newpath
82677.4 43253.5 moveto
82844.2 43086.6 lineto
stroke
newpath
82844.2 43253.5 moveto
82677.4 43086.6 lineto
stroke
newpath
83200.9 41587 moveto
83367.7 41420.2 lineto
stroke
newpath
83367.7 41587 moveto
83200.9 41420.2 lineto
stroke
50164.1 43276.4 104.283 cir0
50457.3 43984.3 104.283 cir0
50457.3 42568.5 104.283 cir0
51165.2 44277.5 104.283 cir0
51165.2 42275.3 104.283 cir0
51873.1 43984.3 104.283 cir0
51873.1 42568.5 104.283 cir0
52166.3 43276.4 104.283 cir0
50164.1 76646.9 104.283 cir0
50457.3 77354.8 104.283 cir0
50457.3 75939 104.283 cir0
51165.2 77648 104.283 cir0
51165.2 75645.8 104.283 cir0
51873.1 77354.8 104.283 cir0
51873.1 75939 104.283 cir0
52166.3 76646.9 104.283 cir0
83534.6 57876 104.283 cir0
83827.8 58583.9 104.283 cir0
83827.8 57168.1 104.283 cir0
84535.7 58877.1 104.283 cir0
84535.7 56874.9 104.283 cir0
85243.6 58583.9 104.283 cir0
85243.6 57168.1 104.283 cir0
85536.8 57876 104.283 cir0
50164.1 72475.6 104.283 cir0
50457.3 73183.5 104.283 cir0
50457.3 71767.7 104.283 cir0
51165.2 73476.7 104.283 cir0
51165.2 71474.5 104.283 cir0
51873.1 73183.5 104.283 cir0
51873.1 71767.7 104.283 cir0
52166.3 72475.6 104.283 cir0
64763.7 43276.4 104.283 cir0
65056.9 43984.3 104.283 cir0
65056.9 42568.5 104.283 cir0
65764.8 44277.5 104.283 cir0
65764.8 42275.3 104.283 cir0
66472.7 43984.3 104.283 cir0
66472.7 42568.5 104.283 cir0
66765.9 43276.4 104.283 cir0
64763.7 72475.6 104.283 cir0
65056.9 73183.5 104.283 cir0
65056.9 71767.7 104.283 cir0
65764.8 73476.7 104.283 cir0
65764.8 71474.5 104.283 cir0
66472.7 73183.5 104.283 cir0
66472.7 71767.7 104.283 cir0
66765.9 72475.6 104.283 cir0
35564.5 43276.4 104.283 cir0
35857.7 43984.3 104.283 cir0
35857.7 42568.5 104.283 cir0
36565.6 44277.5 104.283 cir0
36565.6 42275.3 104.283 cir0
37273.5 43984.3 104.283 cir0
37273.5 42568.5 104.283 cir0
37566.7 43276.4 104.283 cir0
31393.2 57876 104.283 cir0
31686.4 58583.9 104.283 cir0
31686.4 57168.1 104.283 cir0
32394.3 58877.1 104.283 cir0
32394.3 56874.9 104.283 cir0
33102.2 58583.9 104.283 cir0
33102.2 57168.1 104.283 cir0
33395.4 57876 104.283 cir0
35564.5 72475.6 104.283 cir0
35857.7 73183.5 104.283 cir0
35857.7 71767.7 104.283 cir0
36565.6 73476.7 104.283 cir0
36565.6 71474.5 104.283 cir0
37273.5 73183.5 104.283 cir0
37273.5 71767.7 104.283 cir0
37566.7 72475.6 104.283 cir0
31393.2 39105.1 104.283 cir0
31686.4 39813 104.283 cir0
31686.4 38397.2 104.283 cir0
32394.3 40106.2 104.283 cir0
32394.3 38104 104.283 cir0
33102.2 39813 104.283 cir0
33102.2 38397.2 104.283 cir0
33395.4 39105.1 104.283 cir0
31393.2 76646.9 104.283 cir0
31686.4 77354.8 104.283 cir0
31686.4 75939 104.283 cir0
32394.3 77648 104.283 cir0
32394.3 75645.8 104.283 cir0
33102.2 77354.8 104.283 cir0
33102.2 75939 104.283 cir0
33395.4 76646.9 104.283 cir0
83534.6 76646.9 104.283 cir0
83827.8 77354.8 104.283 cir0
83827.8 75939 104.283 cir0
84535.7 77648 104.283 cir0
84535.7 75645.8 104.283 cir0
85243.6 77354.8 104.283 cir0
85243.6 75939 104.283 cir0
85536.8 76646.9 104.283 cir0
50164.1 39105.1 104.283 cir0
50457.3 39813 104.283 cir0
50457.3 38397.2 104.283 cir0
51165.2 40106.2 104.283 cir0
51165.2 38104 104.283 cir0
51873.1 39813 104.283 cir0
51873.1 38397.2 104.283 cir0
52166.3 39105.1 104.283 cir0
64763.7 57876 104.283 cir0
65056.9 58583.9 104.283 cir0
65056.9 57168.1 104.283 cir0
65764.8 58877.1 104.283 cir0
65764.8 56874.9 104.283 cir0
66472.7 58583.9 104.283 cir0
66472.7 57168.1 104.283 cir0
66765.9 57876 104.283 cir0
35564.5 57876 104.283 cir0
35857.7 58583.9 104.283 cir0
35857.7 57168.1 104.283 cir0
36565.6 58877.1 104.283 cir0
36565.6 56874.9 104.283 cir0
37273.5 58583.9 104.283 cir0
37273.5 57168.1 104.283 cir0
37566.7 57876 104.283 cir0
newpath
56041.5 56818.6 moveto
56041.5 56464 lineto
stroke
newpath
55864.2 56641.3 moveto
56218.7 56641.3 lineto
stroke
newpath
56041.5 55759.1 moveto
56041.5 55404.5 lineto
stroke
newpath
55864.2 55581.8 moveto
56218.7 55581.8 lineto
stroke
newpath
56041.5 54699.5 moveto
56041.5 54345 lineto
stroke
newpath
55864.2 54522.3 moveto
56218.7 54522.3 lineto
stroke
newpath
59220 56818.6 moveto
59220 56464 lineto
stroke
newpath
59042.7 56641.3 moveto
59397.3 56641.3 lineto
stroke
newpath
59220 55759.1 moveto
59220 55404.5 lineto
stroke
newpath
59042.7 55581.8 moveto
59397.3 55581.8 lineto
stroke
newpath
59220 54699.5 moveto
59220 54345 lineto
stroke
newpath
59042.7 54522.3 moveto
59397.3 54522.3 lineto
stroke
newpath
47811.5 66733.8 moveto
47811.5 66379.2 lineto
stroke
newpath
47634.2 66556.5 moveto
47988.7 66556.5 lineto
stroke
newpath
47811.5 63555.2 moveto
47811.5 63200.7 lineto
stroke
newpath
47634.2 63378 moveto
47988.7 63378 lineto
stroke
newpath
48871 66733.8 moveto
48871 66379.2 lineto
stroke
newpath
48693.7 66556.5 moveto
49048.3 66556.5 lineto
stroke
newpath
48871 63555.2 moveto
48871 63200.7 lineto
stroke
newpath
48693.7 63378 moveto
49048.3 63378 lineto
stroke
newpath
49930.5 66733.8 moveto
49930.5 66379.2 lineto
stroke
newpath
49753.2 66556.5 moveto
50107.8 66556.5 lineto
stroke
newpath
49930.5 63555.2 moveto
49930.5 63200.7 lineto
stroke
newpath
49753.2 63378 moveto
50107.8 63378 lineto
stroke
newpath
43110.4 56818.6 moveto
43110.4 56464 lineto
stroke
newpath
42933.1 56641.3 moveto
43287.7 56641.3 lineto
stroke
newpath
43110.4 55759.1 moveto
43110.4 55404.5 lineto
stroke
newpath
42933.1 55581.8 moveto
43287.7 55581.8 lineto
stroke
newpath
43110.4 54699.5 moveto
43110.4 54345 lineto
stroke
newpath
42933.1 54522.3 moveto
43287.7 54522.3 lineto
stroke
newpath
46288.9 56818.6 moveto
46288.9 56464 lineto
stroke
newpath
46111.7 56641.3 moveto
46466.2 56641.3 lineto
stroke
newpath
46288.9 55759.1 moveto
46288.9 55404.5 lineto
stroke
newpath
46111.7 55581.8 moveto
46466.2 55581.8 lineto
stroke
newpath
46288.9 54699.5 moveto
46288.9 54345 lineto
stroke
newpath
46111.7 54522.3 moveto
46466.2 54522.3 lineto
stroke
newpath
56041.5 61407 moveto
56041.5 61052.5 lineto
stroke
newpath
55864.2 61229.7 moveto
56218.7 61229.7 lineto
stroke
newpath
56041.5 60347.5 moveto
56041.5 59992.9 lineto
stroke
newpath
55864.2 60170.2 moveto
56218.7 60170.2 lineto
stroke
newpath
56041.5 59288 moveto
56041.5 58933.4 lineto
stroke
newpath
55864.2 59110.7 moveto
56218.7 59110.7 lineto
stroke
newpath
59220 61407 moveto
59220 61052.5 lineto
stroke
newpath
59042.7 61229.7 moveto
59397.3 61229.7 lineto
stroke
newpath
59220 60347.5 moveto
59220 59992.9 lineto
stroke
newpath
59042.7 60170.2 moveto
59397.3 60170.2 lineto
stroke
newpath
59220 59288 moveto
59220 58933.4 lineto
stroke
newpath
59042.7 59110.7 moveto
59397.3 59110.7 lineto
stroke
newpath
56041.5 65891.2 moveto
56041.5 65536.6 lineto
stroke
newpath
55864.2 65713.9 moveto
56218.7 65713.9 lineto
stroke
newpath
56041.5 64831.7 moveto
56041.5 64477.1 lineto
stroke
newpath
55864.2 64654.4 moveto
56218.7 64654.4 lineto
stroke
newpath
56041.5 63772.2 moveto
56041.5 63417.6 lineto
stroke
newpath
55864.2 63594.9 moveto
56218.7 63594.9 lineto
stroke
newpath
59220 65891.2 moveto
59220 65536.6 lineto
stroke
newpath
59042.7 65713.9 moveto
59397.3 65713.9 lineto
stroke
newpath
59220 64831.7 moveto
59220 64477.1 lineto
stroke
newpath
59042.7 64654.4 moveto
59397.3 64654.4 lineto
stroke
newpath
59220 63772.2 moveto
59220 63417.6 lineto
stroke
newpath
59042.7 63594.9 moveto
59397.3 63594.9 lineto
stroke
newpath
43110.4 52438.7 moveto
43110.4 52084.1 lineto
stroke
newpath
42933.1 52261.4 moveto
43287.7 52261.4 lineto
stroke
newpath
43110.4 51379.2 moveto
43110.4 51024.6 lineto
stroke
newpath
42933.1 51201.9 moveto
43287.7 51201.9 lineto
stroke
newpath
43110.4 50319.7 moveto
43110.4 49965.1 lineto
stroke
newpath
42933.1 50142.4 moveto
43287.7 50142.4 lineto
stroke
newpath
46288.9 52438.7 moveto
46288.9 52084.1 lineto
stroke
newpath
46111.7 52261.4 moveto
46466.2 52261.4 lineto
stroke
newpath
46288.9 51379.2 moveto
46288.9 51024.6 lineto
stroke
newpath
46111.7 51201.9 moveto
46466.2 51201.9 lineto
stroke
newpath
46288.9 50319.7 moveto
46288.9 49965.1 lineto
stroke
newpath
46111.7 50142.4 moveto
46466.2 50142.4 lineto
stroke
newpath
52399.9 66733.8 moveto
52399.9 66379.2 lineto
stroke
newpath
52222.6 66556.5 moveto
52577.2 66556.5 lineto
stroke
newpath
52399.9 63555.2 moveto
52399.9 63200.7 lineto
stroke
newpath
52222.6 63378 moveto
52577.2 63378 lineto
stroke
newpath
53459.4 66733.8 moveto
53459.4 66379.2 lineto
stroke
newpath
53282.1 66556.5 moveto
53636.7 66556.5 lineto
stroke
newpath
53459.4 63555.2 moveto
53459.4 63200.7 lineto
stroke
newpath
53282.1 63378 moveto
53636.7 63378 lineto
stroke
newpath
54518.9 66733.8 moveto
54518.9 66379.2 lineto
stroke
newpath
54341.7 66556.5 moveto
54696.2 66556.5 lineto
stroke
newpath
54518.9 63555.2 moveto
54518.9 63200.7 lineto
stroke
newpath
54341.7 63378 moveto
54696.2 63378 lineto
stroke
newpath
47915.8 51821.3 moveto
47915.8 51466.8 lineto
stroke
newpath
47738.5 51644.1 moveto
48093 51644.1 lineto
stroke
newpath
47915.8 48642.8 moveto
47915.8 48288.2 lineto
stroke
newpath
47738.5 48465.5 moveto
48093 48465.5 lineto
stroke
newpath
48975.3 51821.3 moveto
48975.3 51466.8 lineto
stroke
newpath
48798 51644.1 moveto
49152.5 51644.1 lineto
stroke
newpath
48975.3 48642.8 moveto
48975.3 48288.2 lineto
stroke
newpath
48798 48465.5 moveto
49152.5 48465.5 lineto
stroke
newpath
50034.8 51821.3 moveto
50034.8 51466.8 lineto
stroke
newpath
49857.5 51644.1 moveto
50212.1 51644.1 lineto
stroke
newpath
50034.8 48642.8 moveto
50034.8 48288.2 lineto
stroke
newpath
49857.5 48465.5 moveto
50212.1 48465.5 lineto
stroke
newpath
43110.4 61407 moveto
43110.4 61052.5 lineto
stroke
newpath
42933.1 61229.7 moveto
43287.7 61229.7 lineto
stroke
newpath
43110.4 60347.5 moveto
43110.4 59992.9 lineto
stroke
newpath
42933.1 60170.2 moveto
43287.7 60170.2 lineto
stroke
newpath
43110.4 59288 moveto
43110.4 58933.4 lineto
stroke
newpath
42933.1 59110.7 moveto
43287.7 59110.7 lineto
stroke
newpath
46288.9 61407 moveto
46288.9 61052.5 lineto
stroke
newpath
46111.7 61229.7 moveto
46466.2 61229.7 lineto
stroke
newpath
46288.9 60347.5 moveto
46288.9 59992.9 lineto
stroke
newpath
46111.7 60170.2 moveto
46466.2 60170.2 lineto
stroke
newpath
46288.9 59288 moveto
46288.9 58933.4 lineto
stroke
newpath
46111.7 59110.7 moveto
46466.2 59110.7 lineto
stroke
newpath
43110.4 65786.9 moveto
43110.4 65432.3 lineto
stroke
newpath
42933.1 65609.6 moveto
43287.7 65609.6 lineto
stroke
newpath
43110.4 64727.4 moveto
43110.4 64372.8 lineto
stroke
newpath
42933.1 64550.1 moveto
43287.7 64550.1 lineto
stroke
newpath
43110.4 63667.9 moveto
43110.4 63313.3 lineto
stroke
newpath
42933.1 63490.6 moveto
43287.7 63490.6 lineto
stroke
newpath
46288.9 65786.9 moveto
46288.9 65432.3 lineto
stroke
newpath
46111.7 65609.6 moveto
46466.2 65609.6 lineto
stroke
newpath
46288.9 64727.4 moveto
46288.9 64372.8 lineto
stroke
newpath
46111.7 64550.1 moveto
46466.2 64550.1 lineto
stroke
newpath
46288.9 63667.9 moveto
46288.9 63313.3 lineto
stroke
newpath
46111.7 63490.6 moveto
46466.2 63490.6 lineto
stroke
newpath
52295.6 51821.3 moveto
52295.6 51466.8 lineto
stroke
newpath
52118.3 51644.1 moveto
52472.9 51644.1 lineto
stroke
newpath
52295.6 48642.8 moveto
52295.6 48288.2 lineto
stroke
newpath
52118.3 48465.5 moveto
52472.9 48465.5 lineto
stroke
newpath
53355.1 51821.3 moveto
53355.1 51466.8 lineto
stroke
newpath
53177.9 51644.1 moveto
53532.4 51644.1 lineto
stroke
newpath
53355.1 48642.8 moveto
53355.1 48288.2 lineto
stroke
newpath
53177.9 48465.5 moveto
53532.4 48465.5 lineto
stroke
newpath
54414.7 51821.3 moveto
54414.7 51466.8 lineto
stroke
newpath
54237.4 51644.1 moveto
54591.9 51644.1 lineto
stroke
newpath
54414.7 48642.8 moveto
54414.7 48288.2 lineto
stroke
newpath
54237.4 48465.5 moveto
54591.9 48465.5 lineto
stroke
newpath
56041.5 52438.7 moveto
56041.5 52084.1 lineto
stroke
newpath
55864.2 52261.4 moveto
56218.7 52261.4 lineto
stroke
newpath
56041.5 51379.2 moveto
56041.5 51024.6 lineto
stroke
newpath
55864.2 51201.9 moveto
56218.7 51201.9 lineto
stroke
newpath
56041.5 50319.7 moveto
56041.5 49965.1 lineto
stroke
newpath
55864.2 50142.4 moveto
56218.7 50142.4 lineto
stroke
newpath
59220 52438.7 moveto
59220 52084.1 lineto
stroke
newpath
59042.7 52261.4 moveto
59397.3 52261.4 lineto
stroke
newpath
59220 51379.2 moveto
59220 51024.6 lineto
stroke
newpath
59042.7 51201.9 moveto
59397.3 51201.9 lineto
stroke
newpath
59220 50319.7 moveto
59220 49965.1 lineto
stroke
newpath
59042.7 50142.4 moveto
59397.3 50142.4 lineto
stroke
newpath
82493.2 70884.8 moveto
82493.2 71179.8 lineto
82198.3 71179.8 lineto
82198.3 70884.8 lineto
82493.2 70884.8 lineto
poly0
newpath
82493.2 69825.3 moveto
82493.2 70120.3 lineto
82198.3 70120.3 lineto
82198.3 69825.3 lineto
82493.2 69825.3 lineto
poly0
newpath
73693.9 40125.6 moveto
73693.9 40420.5 lineto
73398.9 40420.5 lineto
73398.9 40125.6 lineto
73693.9 40125.6 lineto
poly0
newpath
74271.6 38940.9 moveto
74271.6 39235.9 lineto
73976.6 39235.9 lineto
73976.6 38940.9 lineto
74271.6 38940.9 lineto
poly0
newpath
74849.3 40125.6 moveto
74849.3 40420.5 lineto
74554.4 40420.5 lineto
74554.4 40125.6 lineto
74849.3 40125.6 lineto
poly0
newpath
75427 38940.9 moveto
75427 39235.9 lineto
75132.1 39235.9 lineto
75132.1 38940.9 lineto
75427 38940.9 lineto
poly0
newpath
76004.8 40125.6 moveto
76004.8 40420.5 lineto
75709.8 40420.5 lineto
75709.8 40125.6 lineto
76004.8 40125.6 lineto
poly0
newpath
76582.5 38940.9 moveto
76582.5 39235.9 lineto
76287.5 39235.9 lineto
76287.5 38940.9 lineto
76582.5 38940.9 lineto
poly0
newpath
77160.2 40125.6 moveto
77160.2 40420.5 lineto
76865.3 40420.5 lineto
76865.3 40125.6 lineto
77160.2 40125.6 lineto
poly0
newpath
77737.9 38940.9 moveto
77737.9 39235.9 lineto
77443 39235.9 lineto
77443 38940.9 lineto
77737.9 38940.9 lineto
poly0
newpath
78315.7 40125.6 moveto
78315.7 40420.5 lineto
78020.7 40420.5 lineto
78020.7 40125.6 lineto
78315.7 40125.6 lineto
poly0
newpath
78893.4 38940.9 moveto
78893.4 39235.9 lineto
78598.4 39235.9 lineto
78598.4 38940.9 lineto
78893.4 38940.9 lineto
poly0
newpath
79471.1 40125.6 moveto
79471.1 40420.5 lineto
79176.2 40420.5 lineto
79176.2 40125.6 lineto
79471.1 40125.6 lineto
poly0
newpath
80048.9 38940.9 moveto
80048.9 39235.9 lineto
79753.9 39235.9 lineto
79753.9 38940.9 lineto
80048.9 38940.9 lineto
poly0
newpath
80626.6 40125.6 moveto
80626.6 40420.5 lineto
80331.6 40420.5 lineto
80331.6 40125.6 lineto
80626.6 40125.6 lineto
poly0
newpath
81204.3 38940.9 moveto
81204.3 39235.9 lineto
80909.3 39235.9 lineto
80909.3 38940.9 lineto
81204.3 38940.9 lineto
poly0
newpath
81782 40125.6 moveto
81782 40420.5 lineto
81487.1 40420.5 lineto
81487.1 40125.6 lineto
81782 40125.6 lineto
poly0
newpath
52902 60377.3 moveto
52902 60672.3 lineto
52607 60672.3 lineto
52607 60377.3 lineto
52902 60377.3 lineto
poly0
newpath
52902 59317.8 moveto
52902 59612.7 lineto
52607 59612.7 lineto
52607 59317.8 lineto
52902 59317.8 lineto
poly0
newpath
52902 58258.3 moveto
52902 58553.2 lineto
52607 58553.2 lineto
52607 58258.3 lineto
52902 58258.3 lineto
poly0
newpath
52902 57198.8 moveto
52902 57493.7 lineto
52607 57493.7 lineto
52607 57198.8 lineto
52902 57198.8 lineto
poly0
newpath
52902 56139.3 moveto
52902 56434.2 lineto
52607 56434.2 lineto
52607 56139.3 lineto
52902 56139.3 lineto
poly0
newpath
52902 55079.7 moveto
52902 55374.7 lineto
52607 55374.7 lineto
52607 55079.7 lineto
52902 55079.7 lineto
poly0
newpath
53961.5 60377.3 moveto
53961.5 60672.3 lineto
53666.5 60672.3 lineto
53666.5 60377.3 lineto
53961.5 60377.3 lineto
poly0
newpath
53961.5 59317.8 moveto
53961.5 59612.7 lineto
53666.5 59612.7 lineto
53666.5 59317.8 lineto
53961.5 59317.8 lineto
poly0
newpath
53961.5 58258.3 moveto
53961.5 58553.2 lineto
53666.5 58553.2 lineto
53666.5 58258.3 lineto
53961.5 58258.3 lineto
poly0
newpath
53961.5 57198.8 moveto
53961.5 57493.7 lineto
53666.5 57493.7 lineto
53666.5 57198.8 lineto
53961.5 57198.8 lineto
poly0
newpath
53961.5 56139.3 moveto
53961.5 56434.2 lineto
53666.5 56434.2 lineto
53666.5 56139.3 lineto
53961.5 56139.3 lineto
poly0
newpath
53961.5 55079.7 moveto
53961.5 55374.7 lineto
53666.5 55374.7 lineto
53666.5 55079.7 lineto
53961.5 55079.7 lineto
poly0
newpath
77592 76916.6 moveto
77592 77211.5 lineto
77297 77211.5 lineto
77297 76916.6 lineto
77592 76916.6 lineto
poly0
newpath
77592 75857 moveto
77592 76152 lineto
77297 76152 lineto
77297 75857 lineto
77592 75857 lineto
poly0
newpath
77592 74797.5 moveto
77592 75092.5 lineto
77297 75092.5 lineto
77297 74797.5 lineto
77592 74797.5 lineto
poly0
newpath
77592 73738 moveto
77592 74033 lineto
77297 74033 lineto
77297 73738 lineto
77592 73738 lineto
poly0
newpath
77592 72678.5 moveto
77592 72973.5 lineto
77297 72973.5 lineto
77297 72678.5 lineto
77592 72678.5 lineto
poly0
newpath
77592 71619 moveto
77592 71914 lineto
77297 71914 lineto
77297 71619 lineto
77592 71619 lineto
poly0
newpath
77592 70559.5 moveto
77592 70854.4 lineto
77297 70854.4 lineto
77297 70559.5 lineto
77592 70559.5 lineto
poly0
newpath
77592 69500 moveto
77592 69794.9 lineto
77297 69794.9 lineto
77297 69500 lineto
77592 69500 lineto
poly0
newpath
77592 68440.5 moveto
77592 68735.4 lineto
77297 68735.4 lineto
77297 68440.5 lineto
77592 68440.5 lineto
poly0
newpath
77592 67380.9 moveto
77592 67675.9 lineto
77297 67675.9 lineto
77297 67380.9 lineto
77592 67380.9 lineto
poly0
newpath
77592 66321.4 moveto
77592 66616.4 lineto
77297 66616.4 lineto
77297 66321.4 lineto
77592 66321.4 lineto
poly0
newpath
77592 65261.9 moveto
77592 65556.9 lineto
77297 65556.9 lineto
77297 65261.9 lineto
77592 65261.9 lineto
poly0
newpath
77592 64202.4 moveto
77592 64497.4 lineto
77297 64497.4 lineto
77297 64202.4 lineto
77592 64202.4 lineto
poly0
newpath
77592 63142.9 moveto
77592 63437.8 lineto
77297 63437.8 lineto
77297 63142.9 lineto
77592 63142.9 lineto
poly0
newpath
77592 62083.4 moveto
77592 62378.3 lineto
77297 62378.3 lineto
77297 62083.4 lineto
77592 62083.4 lineto
poly0
newpath
77592 61023.9 moveto
77592 61318.8 lineto
77297 61318.8 lineto
77297 61023.9 lineto
77592 61023.9 lineto
poly0
newpath
77592 59964.3 moveto
77592 60259.3 lineto
77297 60259.3 lineto
77297 59964.3 lineto
77592 59964.3 lineto
poly0
newpath
48663.9 60377.3 moveto
48663.9 60672.3 lineto
48368.9 60672.3 lineto
48368.9 60377.3 lineto
48663.9 60377.3 lineto
poly0
newpath
48663.9 59317.8 moveto
48663.9 59612.7 lineto
48368.9 59612.7 lineto
48368.9 59317.8 lineto
48663.9 59317.8 lineto
poly0
newpath
48663.9 58258.3 moveto
48663.9 58553.2 lineto
48368.9 58553.2 lineto
48368.9 58258.3 lineto
48663.9 58258.3 lineto
poly0
newpath
48663.9 57198.8 moveto
48663.9 57493.7 lineto
48368.9 57493.7 lineto
48368.9 57198.8 lineto
48663.9 57198.8 lineto
poly0
newpath
48663.9 56139.3 moveto
48663.9 56434.2 lineto
48368.9 56434.2 lineto
48368.9 56139.3 lineto
48663.9 56139.3 lineto
poly0
newpath
48663.9 55079.7 moveto
48663.9 55374.7 lineto
48368.9 55374.7 lineto
48368.9 55079.7 lineto
48663.9 55079.7 lineto
poly0
newpath
49723.4 60377.3 moveto
49723.4 60672.3 lineto
49428.5 60672.3 lineto
49428.5 60377.3 lineto
49723.4 60377.3 lineto
poly0
newpath
49723.4 59317.8 moveto
49723.4 59612.7 lineto
49428.5 59612.7 lineto
49428.5 59317.8 lineto
49723.4 59317.8 lineto
poly0
newpath
49723.4 58258.3 moveto
49723.4 58553.2 lineto
49428.5 58553.2 lineto
49428.5 58258.3 lineto
49723.4 58258.3 lineto
poly0
newpath
49723.4 57198.8 moveto
49723.4 57493.7 lineto
49428.5 57493.7 lineto
49428.5 57198.8 lineto
49723.4 57198.8 lineto
poly0
newpath
49723.4 56139.3 moveto
49723.4 56434.2 lineto
49428.5 56434.2 lineto
49428.5 56139.3 lineto
49723.4 56139.3 lineto
poly0
newpath
49723.4 55079.7 moveto
49723.4 55374.7 lineto
49428.5 55374.7 lineto
49428.5 55079.7 lineto
49723.4 55079.7 lineto
poly0
newpath
71234.9 76916.6 moveto
71234.9 77211.5 lineto
70939.9 77211.5 lineto
70939.9 76916.6 lineto
71234.9 76916.6 lineto
poly0
newpath
71234.9 75857 moveto
71234.9 76152 lineto
70939.9 76152 lineto
70939.9 75857 lineto
71234.9 75857 lineto
poly0
newpath
71234.9 74797.5 moveto
71234.9 75092.5 lineto
70939.9 75092.5 lineto
70939.9 74797.5 lineto
71234.9 74797.5 lineto
poly0
newpath
71234.9 73738 moveto
71234.9 74033 lineto
70939.9 74033 lineto
70939.9 73738 lineto
71234.9 73738 lineto
poly0
newpath
71234.9 72678.5 moveto
71234.9 72973.5 lineto
70939.9 72973.5 lineto
70939.9 72678.5 lineto
71234.9 72678.5 lineto
poly0
newpath
71234.9 71619 moveto
71234.9 71914 lineto
70939.9 71914 lineto
70939.9 71619 lineto
71234.9 71619 lineto
poly0
newpath
71234.9 70559.5 moveto
71234.9 70854.4 lineto
70939.9 70854.4 lineto
70939.9 70559.5 lineto
71234.9 70559.5 lineto
poly0
newpath
71234.9 69500 moveto
71234.9 69794.9 lineto
70939.9 69794.9 lineto
70939.9 69500 lineto
71234.9 69500 lineto
poly0
newpath
71234.9 68440.5 moveto
71234.9 68735.4 lineto
70939.9 68735.4 lineto
70939.9 68440.5 lineto
71234.9 68440.5 lineto
poly0
newpath
71234.9 67380.9 moveto
71234.9 67675.9 lineto
70939.9 67675.9 lineto
70939.9 67380.9 lineto
71234.9 67380.9 lineto
poly0
newpath
71234.9 66321.4 moveto
71234.9 66616.4 lineto
70939.9 66616.4 lineto
70939.9 66321.4 lineto
71234.9 66321.4 lineto
poly0
newpath
71234.9 65261.9 moveto
71234.9 65556.9 lineto
70939.9 65556.9 lineto
70939.9 65261.9 lineto
71234.9 65261.9 lineto
poly0
newpath
71234.9 64202.4 moveto
71234.9 64497.4 lineto
70939.9 64497.4 lineto
70939.9 64202.4 lineto
71234.9 64202.4 lineto
poly0
newpath
71234.9 63142.9 moveto
71234.9 63437.8 lineto
70939.9 63437.8 lineto
70939.9 63142.9 lineto
71234.9 63142.9 lineto
poly0
newpath
71234.9 62083.4 moveto
71234.9 62378.3 lineto
70939.9 62378.3 lineto
70939.9 62083.4 lineto
71234.9 62083.4 lineto
poly0
newpath
71234.9 61023.9 moveto
71234.9 61318.8 lineto
70939.9 61318.8 lineto
70939.9 61023.9 lineto
71234.9 61023.9 lineto
poly0
newpath
71234.9 59964.3 moveto
71234.9 60259.3 lineto
70939.9 60259.3 lineto
70939.9 59964.3 lineto
71234.9 59964.3 lineto
poly0
newpath
41738 77439.5 moveto
42030 77731.4 lineto
41738 78023.4 lineto
41446 77731.4 lineto
41738 77439.5 lineto
poly0
newpath
41738 73184.7 moveto
42030 73476.7 lineto
41738 73768.7 lineto
41446 73476.7 lineto
41738 73184.7 lineto
poly0
newpath
43865.4 75312.1 moveto
44157.4 75604.1 lineto
43865.4 75896.1 lineto
43573.4 75604.1 lineto
43865.4 75312.1 lineto
poly0
newpath
45992.8 77439.5 moveto
46284.8 77731.4 lineto
45992.8 78023.4 lineto
45700.8 77731.4 lineto
45992.8 77439.5 lineto
poly0
newpath
45992.8 73184.7 moveto
46284.8 73476.7 lineto
45992.8 73768.7 lineto
45700.8 73476.7 lineto
45992.8 73184.7 lineto
poly0
newpath
57380.5 77439.5 moveto
57672.5 77731.4 lineto
57380.5 78023.4 lineto
57088.5 77731.4 lineto
57380.5 77439.5 lineto
poly0
newpath
57380.5 73184.7 moveto
57672.5 73476.7 lineto
57380.5 73768.7 lineto
57088.5 73476.7 lineto
57380.5 73184.7 lineto
poly0
newpath
59507.8 75312.1 moveto
59799.8 75604.1 lineto
59507.8 75896.1 lineto
59215.8 75604.1 lineto
59507.8 75312.1 lineto
poly0
newpath
61635.2 77439.5 moveto
61927.2 77731.4 lineto
61635.2 78023.4 lineto
61343.2 77731.4 lineto
61635.2 77439.5 lineto
poly0
newpath
61635.2 73184.7 moveto
61927.2 73476.7 lineto
61635.2 73768.7 lineto
61343.2 73476.7 lineto
61635.2 73184.7 lineto
poly0
newpath
50497.8 43943.8 moveto
51832.6 42609 lineto
stroke
newpath
51832.6 43943.8 moveto
50497.8 42609 lineto
stroke
51165.2 43276.4 667.41 cir0
newpath
83868.3 58543.4 moveto
85203.1 57208.6 lineto
stroke
newpath
85203.1 58543.4 moveto
83868.3 57208.6 lineto
stroke
84535.7 57876 667.41 cir0
newpath
65097.4 73143 moveto
66432.2 71808.2 lineto
stroke
newpath
66432.2 73143 moveto
65097.4 71808.2 lineto
stroke
65764.8 72475.6 667.41 cir0
newpath
35898.2 43943.8 moveto
37233 42609 lineto
stroke
newpath
37233 43943.8 moveto
35898.2 42609 lineto
stroke
36565.6 43276.4 667.41 cir0
newpath
31726.9 77314.3 moveto
33061.7 75979.5 lineto
stroke
newpath
33061.7 77314.3 moveto
31726.9 75979.5 lineto
stroke
32394.3 76646.9 667.41 cir0
newpath
50497.8 39772.5 moveto
51832.6 38437.7 lineto
stroke
newpath
51832.6 39772.5 moveto
50497.8 38437.7 lineto
stroke
51165.2 39105.1 667.41 cir0
newpath
65097.4 58543.4 moveto
66432.2 57208.6 lineto
stroke
newpath
66432.2 58543.4 moveto
65097.4 57208.6 lineto
stroke
65764.8 57876 667.41 cir0
newpath
35898.2 58543.4 moveto
37233 57208.6 lineto
stroke
newpath
37233 58543.4 moveto
35898.2 57208.6 lineto
stroke
36565.6 57876 667.41 cir0
newpath
69977.8 40815.3 moveto
71312.6 39480.5 lineto
stroke
newpath
71312.6 40815.3 moveto
69977.8 39480.5 lineto
stroke
70645.2 40147.9 667.41 cir0
newpath
83868.3 40815.3 moveto
85203.1 39480.5 lineto
stroke
newpath
85203.1 40815.3 moveto
83868.3 39480.5 lineto
stroke
84535.7 40147.9 667.41 cir0
newpath
50497.8 77314.3 moveto
51832.6 75979.5 lineto
stroke
newpath
51832.6 77314.3 moveto
50497.8 75979.5 lineto
stroke
51165.2 76646.9 667.41 cir0
newpath
50497.8 73143 moveto
51832.6 71808.2 lineto
stroke
newpath
51832.6 73143 moveto
50497.8 71808.2 lineto
stroke
51165.2 72475.6 667.41 cir0
newpath
65097.4 43943.8 moveto
66432.2 42609 lineto
stroke
newpath
66432.2 43943.8 moveto
65097.4 42609 lineto
stroke
65764.8 43276.4 667.41 cir0
newpath
31726.9 58543.4 moveto
33061.7 57208.6 lineto
stroke
newpath
33061.7 58543.4 moveto
31726.9 57208.6 lineto
stroke
32394.3 57876 667.41 cir0
newpath
35898.2 73143 moveto
37233 71808.2 lineto
stroke
newpath
37233 73143 moveto
35898.2 71808.2 lineto
stroke
36565.6 72475.6 667.41 cir0
newpath
31726.9 39772.5 moveto
33061.7 38437.7 lineto
stroke
newpath
33061.7 39772.5 moveto
31726.9 38437.7 lineto
stroke
32394.3 39105.1 667.41 cir0
newpath
83868.3 77314.3 moveto
85203.1 75979.5 lineto
stroke
newpath
85203.1 77314.3 moveto
83868.3 75979.5 lineto
stroke
84535.7 76646.9 667.41 cir0
118.11 setlinewidth
0 0 0 setrgbcolor
0 0 0 setrgbcolor
newpath
31425.9 35175.5 moveto
31425.9 36356.6 lineto
31707.1 36356.6 lineto
31875.8 36300.3 lineto
31988.3 36187.9 lineto
32044.6 36075.4 lineto
32100.8 35850.4 lineto
32100.8 35681.7 lineto
32044.6 35456.7 lineto
31988.3 35344.2 lineto
31875.8 35231.7 lineto
31707.1 35175.5 lineto
31425.9 35175.5 lineto
stroke
newpath
32607 35175.5 moveto
32607 35962.9 lineto
stroke
newpath
32607 35737.9 moveto
32663.2 35850.4 lineto
32719.5 35906.6 lineto
32832 35962.9 lineto
32944.4 35962.9 lineto
stroke
newpath
33338.1 35175.5 moveto
33338.1 35962.9 lineto
stroke
newpath
33338.1 36356.6 moveto
33281.9 36300.3 lineto
33338.1 36244.1 lineto
33394.4 36300.3 lineto
33338.1 36356.6 lineto
33338.1 36244.1 lineto
stroke
newpath
34069.3 35175.5 moveto
33956.8 35231.7 lineto
33900.6 35344.2 lineto
33900.6 36356.6 lineto
stroke
newpath
34688 35175.5 moveto
34575.5 35231.7 lineto
34519.2 35344.2 lineto
34519.2 36356.6 lineto
stroke
newpath
36037.8 35175.5 moveto
36037.8 36356.6 lineto
36431.5 35512.9 lineto
36825.2 36356.6 lineto
36825.2 35175.5 lineto
stroke
newpath
37893.8 35175.5 moveto
37893.8 35794.2 lineto
37837.6 35906.6 lineto
37725.1 35962.9 lineto
37500.1 35962.9 lineto
37387.6 35906.6 lineto
stroke
newpath
37893.8 35231.7 moveto
37781.3 35175.5 lineto
37500.1 35175.5 lineto
37387.6 35231.7 lineto
37331.4 35344.2 lineto
37331.4 35456.7 lineto
37387.6 35569.2 lineto
37500.1 35625.4 lineto
37781.3 35625.4 lineto
37893.8 35681.7 lineto
stroke
newpath
38456.3 35962.9 moveto
38456.3 34781.8 lineto
stroke
newpath
38456.3 35906.6 moveto
38568.7 35962.9 lineto
38793.7 35962.9 lineto
38906.2 35906.6 lineto
38962.4 35850.4 lineto
39018.7 35737.9 lineto
39018.7 35400.5 lineto
38962.4 35288 lineto
38906.2 35231.7 lineto
38793.7 35175.5 lineto
38568.7 35175.5 lineto
38456.3 35231.7 lineto
stroke
newpath
39524.9 35288 moveto
39581.1 35231.7 lineto
39524.9 35175.5 lineto
39468.6 35231.7 lineto
39524.9 35288 lineto
39524.9 35175.5 lineto
stroke
newpath
39524.9 35906.6 moveto
39581.1 35850.4 lineto
39524.9 35794.2 lineto
39468.6 35850.4 lineto
39524.9 35906.6 lineto
39524.9 35794.2 lineto
stroke
newpath
30131.4 33312.9 moveto
30298.2 33146.1 lineto
stroke
newpath
30298.2 33312.9 moveto
30131.4 33146.1 lineto
stroke
0 0 0 setrgbcolor
0 0 0 setrgbcolor
newpath
31650.9 33876.3 moveto
31763.3 33876.3 lineto
31875.8 33820 lineto
31932.1 33763.8 lineto
31988.3 33651.3 lineto
32044.6 33426.3 lineto
32044.6 33145.1 lineto
31988.3 32920.1 lineto
31932.1 32807.7 lineto
31875.8 32751.4 lineto
31763.3 32695.2 lineto
31650.9 32695.2 lineto
31538.4 32751.4 lineto
31482.1 32807.7 lineto
31425.9 32920.1 lineto
31369.6 33145.1 lineto
31369.6 33426.3 lineto
31425.9 33651.3 lineto
31482.1 33763.8 lineto
31538.4 33820 lineto
31650.9 33876.3 lineto
stroke
newpath
32550.7 32807.7 moveto
32607 32751.4 lineto
32550.7 32695.2 lineto
32494.5 32751.4 lineto
32550.7 32807.7 lineto
32550.7 32695.2 lineto
stroke
newpath
33619.4 33482.6 moveto
33619.4 32695.2 lineto
stroke
newpath
33338.1 33932.5 moveto
33056.9 33088.9 lineto
33788.1 33088.9 lineto
stroke
newpath
34463 33876.3 moveto
34575.5 33876.3 lineto
34688 33820 lineto
34744.2 33763.8 lineto
34800.5 33651.3 lineto
34856.7 33426.3 lineto
34856.7 33145.1 lineto
34800.5 32920.1 lineto
34744.2 32807.7 lineto
34688 32751.4 lineto
34575.5 32695.2 lineto
34463 32695.2 lineto
34350.5 32751.4 lineto
34294.3 32807.7 lineto
34238 32920.1 lineto
34181.8 33145.1 lineto
34181.8 33426.3 lineto
34238 33651.3 lineto
34294.3 33763.8 lineto
34350.5 33820 lineto
34463 33876.3 lineto
stroke
newpath
35362.9 32695.2 moveto
35362.9 33482.6 lineto
stroke
newpath
35362.9 33370.1 moveto
35419.1 33426.3 lineto
35531.6 33482.6 lineto
35700.3 33482.6 lineto
35812.8 33426.3 lineto
35869.1 33313.8 lineto
35869.1 32695.2 lineto
stroke
newpath
35869.1 33313.8 moveto
35925.3 33426.3 lineto
36037.8 33482.6 lineto
36206.5 33482.6 lineto
36319 33426.3 lineto
36375.3 33313.8 lineto
36375.3 32695.2 lineto
stroke
newpath
36937.7 32695.2 moveto
36937.7 33482.6 lineto
stroke
newpath
36937.7 33370.1 moveto
36993.9 33426.3 lineto
37106.4 33482.6 lineto
37275.2 33482.6 lineto
37387.6 33426.3 lineto
37443.9 33313.8 lineto
37443.9 32695.2 lineto
stroke
newpath
37443.9 33313.8 moveto
37500.1 33426.3 lineto
37612.6 33482.6 lineto
37781.3 33482.6 lineto
37893.8 33426.3 lineto
37950.1 33313.8 lineto
37950.1 32695.2 lineto
stroke
newpath
40256 33932.5 moveto
39243.7 32414 lineto
stroke
newpath
41774.6 33876.3 moveto
41887.1 33876.3 lineto
41999.6 33820 lineto
42055.8 33763.8 lineto
42112 33651.3 lineto
42168.3 33426.3 lineto
42168.3 33145.1 lineto
42112 32920.1 lineto
42055.8 32807.7 lineto
41999.6 32751.4 lineto
41887.1 32695.2 lineto
41774.6 32695.2 lineto
41662.1 32751.4 lineto
41605.9 32807.7 lineto
41549.6 32920.1 lineto
41493.4 33145.1 lineto
41493.4 33426.3 lineto
41549.6 33651.3 lineto
41605.9 33763.8 lineto
41662.1 33820 lineto
41774.6 33876.3 lineto
stroke
newpath
42674.5 32807.7 moveto
42730.7 32751.4 lineto
42674.5 32695.2 lineto
42618.2 32751.4 lineto
42674.5 32807.7 lineto
42674.5 32695.2 lineto
stroke
newpath
43461.9 33876.3 moveto
43574.4 33876.3 lineto
43686.8 33820 lineto
43743.1 33763.8 lineto
43799.3 33651.3 lineto
43855.6 33426.3 lineto
43855.6 33145.1 lineto
43799.3 32920.1 lineto
43743.1 32807.7 lineto
43686.8 32751.4 lineto
43574.4 32695.2 lineto
43461.9 32695.2 lineto
43349.4 32751.4 lineto
43293.1 32807.7 lineto
43236.9 32920.1 lineto
43180.7 33145.1 lineto
43180.7 33426.3 lineto
43236.9 33651.3 lineto
43293.1 33763.8 lineto
43349.4 33820 lineto
43461.9 33876.3 lineto
stroke
newpath
44980.4 32695.2 moveto
44305.5 32695.2 lineto
stroke
newpath
44643 32695.2 moveto
44643 33876.3 lineto
44530.5 33707.5 lineto
44418 33595.1 lineto
44305.5 33538.8 lineto
stroke
newpath
45992.8 33876.3 moveto
45767.8 33876.3 lineto
45655.4 33820 lineto
45599.1 33763.8 lineto
45486.6 33595.1 lineto
45430.4 33370.1 lineto
45430.4 32920.1 lineto
45486.6 32807.7 lineto
45542.9 32751.4 lineto
45655.4 32695.2 lineto
45880.3 32695.2 lineto
45992.8 32751.4 lineto
46049.1 32807.7 lineto
46105.3 32920.1 lineto
46105.3 33201.4 lineto
46049.1 33313.8 lineto
45992.8 33370.1 lineto
45880.3 33426.3 lineto
45655.4 33426.3 lineto
45542.9 33370.1 lineto
45486.6 33313.8 lineto
45430.4 33201.4 lineto
stroke
newpath
46555.2 33876.3 moveto
46555.2 33651.3 lineto
stroke
newpath
47005.2 33876.3 moveto
47005.2 33651.3 lineto
stroke
newpath
48748.7 32245.2 moveto
48692.5 32301.5 lineto
48580 32470.2 lineto
48523.7 32582.7 lineto
48467.5 32751.4 lineto
48411.3 33032.6 lineto
48411.3 33257.6 lineto
48467.5 33538.8 lineto
48523.7 33707.5 lineto
48580 33820 lineto
48692.5 33988.8 lineto
48748.7 34045 lineto
stroke
newpath
49704.8 33482.6 moveto
49704.8 32695.2 lineto
stroke
newpath
49423.6 33932.5 moveto
49142.4 33088.9 lineto
49873.6 33088.9 lineto
stroke
newpath
50829.7 33876.3 moveto
50604.7 33876.3 lineto
50492.2 33820 lineto
50436 33763.8 lineto
50323.5 33595.1 lineto
50267.3 33370.1 lineto
50267.3 32920.1 lineto
50323.5 32807.7 lineto
50379.8 32751.4 lineto
50492.2 32695.2 lineto
50717.2 32695.2 lineto
50829.7 32751.4 lineto
50885.9 32807.7 lineto
50942.2 32920.1 lineto
50942.2 33201.4 lineto
50885.9 33313.8 lineto
50829.7 33370.1 lineto
50717.2 33426.3 lineto
50492.2 33426.3 lineto
50379.8 33370.1 lineto
50323.5 33313.8 lineto
50267.3 33201.4 lineto
stroke
newpath
52348.3 32695.2 moveto
52348.3 33876.3 lineto
stroke
newpath
52854.5 32695.2 moveto
52854.5 33313.8 lineto
52798.2 33426.3 lineto
52685.7 33482.6 lineto
52517 33482.6 lineto
52404.5 33426.3 lineto
52348.3 33370.1 lineto
stroke
newpath
53585.6 32695.2 moveto
53473.1 32751.4 lineto
53416.9 32807.7 lineto
53360.6 32920.1 lineto
53360.6 33257.6 lineto
53416.9 33370.1 lineto
53473.1 33426.3 lineto
53585.6 33482.6 lineto
53754.3 33482.6 lineto
53866.8 33426.3 lineto
53923.1 33370.1 lineto
53979.3 33257.6 lineto
53979.3 32920.1 lineto
53923.1 32807.7 lineto
53866.8 32751.4 lineto
53754.3 32695.2 lineto
53585.6 32695.2 lineto
stroke
newpath
54654.2 32695.2 moveto
54541.7 32751.4 lineto
54485.5 32863.9 lineto
54485.5 33876.3 lineto
stroke
newpath
55554.1 32751.4 moveto
55441.6 32695.2 lineto
55216.7 32695.2 lineto
55104.2 32751.4 lineto
55047.9 32863.9 lineto
55047.9 33313.8 lineto
55104.2 33426.3 lineto
55216.7 33482.6 lineto
55441.6 33482.6 lineto
55554.1 33426.3 lineto
55610.4 33313.8 lineto
55610.4 33201.4 lineto
55047.9 33088.9 lineto
stroke
newpath
56060.3 32751.4 moveto
56172.8 32695.2 lineto
56397.8 32695.2 lineto
56510.2 32751.4 lineto
56566.5 32863.9 lineto
56566.5 32920.1 lineto
56510.2 33032.6 lineto
56397.8 33088.9 lineto
56229 33088.9 lineto
56116.5 33145.1 lineto
56060.3 33257.6 lineto
56060.3 33313.8 lineto
56116.5 33426.3 lineto
56229 33482.6 lineto
56397.8 33482.6 lineto
56510.2 33426.3 lineto
stroke
newpath
56960.2 32245.2 moveto
57016.4 32301.5 lineto
57128.9 32470.2 lineto
57185.2 32582.7 lineto
57241.4 32751.4 lineto
57297.6 33032.6 lineto
57297.6 33257.6 lineto
57241.4 33538.8 lineto
57185.2 33707.5 lineto
57128.9 33820 lineto
57016.4 33988.8 lineto
56960.2 34045 lineto
stroke
30193.9 31670.4 104.283 cir0
0 0 0 setrgbcolor
0 0 0 setrgbcolor
newpath
31650.9 32317.2 moveto
31763.3 32317.2 lineto
31875.8 32261 lineto
31932.1 32204.7 lineto
31988.3 32092.2 lineto
32044.6 31867.3 lineto
32044.6 31586.1 lineto
31988.3 31361.1 lineto
31932.1 31248.6 lineto
31875.8 31192.4 lineto
31763.3 31136.1 lineto
31650.9 31136.1 lineto
31538.4 31192.4 lineto
31482.1 31248.6 lineto
31425.9 31361.1 lineto
31369.6 31586.1 lineto
31369.6 31867.3 lineto
31425.9 32092.2 lineto
31482.1 32204.7 lineto
31538.4 32261 lineto
31650.9 32317.2 lineto
stroke
newpath
32550.7 31248.6 moveto
32607 31192.4 lineto
32550.7 31136.1 lineto
32494.5 31192.4 lineto
32550.7 31248.6 lineto
32550.7 31136.1 lineto
stroke
newpath
33675.6 32317.2 moveto
33113.2 32317.2 lineto
33056.9 31754.8 lineto
33113.2 31811 lineto
33225.7 31867.3 lineto
33506.9 31867.3 lineto
33619.4 31811 lineto
33675.6 31754.8 lineto
33731.8 31642.3 lineto
33731.8 31361.1 lineto
33675.6 31248.6 lineto
33619.4 31192.4 lineto
33506.9 31136.1 lineto
33225.7 31136.1 lineto
33113.2 31192.4 lineto
33056.9 31248.6 lineto
stroke
newpath
34463 32317.2 moveto
34575.5 32317.2 lineto
34688 32261 lineto
34744.2 32204.7 lineto
34800.5 32092.2 lineto
34856.7 31867.3 lineto
34856.7 31586.1 lineto
34800.5 31361.1 lineto
34744.2 31248.6 lineto
34688 31192.4 lineto
34575.5 31136.1 lineto
34463 31136.1 lineto
34350.5 31192.4 lineto
34294.3 31248.6 lineto
34238 31361.1 lineto
34181.8 31586.1 lineto
34181.8 31867.3 lineto
34238 32092.2 lineto
34294.3 32204.7 lineto
34350.5 32261 lineto
34463 32317.2 lineto
stroke
newpath
35362.9 31136.1 moveto
35362.9 31923.5 lineto
stroke
newpath
35362.9 31811 moveto
35419.1 31867.3 lineto
35531.6 31923.5 lineto
35700.3 31923.5 lineto
35812.8 31867.3 lineto
35869.1 31754.8 lineto
35869.1 31136.1 lineto
stroke
newpath
35869.1 31754.8 moveto
35925.3 31867.3 lineto
36037.8 31923.5 lineto
36206.5 31923.5 lineto
36319 31867.3 lineto
36375.3 31754.8 lineto
36375.3 31136.1 lineto
stroke
newpath
36937.7 31136.1 moveto
36937.7 31923.5 lineto
stroke
newpath
36937.7 31811 moveto
36993.9 31867.3 lineto
37106.4 31923.5 lineto
37275.2 31923.5 lineto
37387.6 31867.3 lineto
37443.9 31754.8 lineto
37443.9 31136.1 lineto
stroke
newpath
37443.9 31754.8 moveto
37500.1 31867.3 lineto
37612.6 31923.5 lineto
37781.3 31923.5 lineto
37893.8 31867.3 lineto
37950.1 31754.8 lineto
37950.1 31136.1 lineto
stroke
newpath
40256 32373.5 moveto
39243.7 30854.9 lineto
stroke
newpath
41774.6 32317.2 moveto
41887.1 32317.2 lineto
41999.6 32261 lineto
42055.8 32204.7 lineto
42112 32092.2 lineto
42168.3 31867.3 lineto
42168.3 31586.1 lineto
42112 31361.1 lineto
42055.8 31248.6 lineto
41999.6 31192.4 lineto
41887.1 31136.1 lineto
41774.6 31136.1 lineto
41662.1 31192.4 lineto
41605.9 31248.6 lineto
41549.6 31361.1 lineto
41493.4 31586.1 lineto
41493.4 31867.3 lineto
41549.6 32092.2 lineto
41605.9 32204.7 lineto
41662.1 32261 lineto
41774.6 32317.2 lineto
stroke
newpath
42674.5 31248.6 moveto
42730.7 31192.4 lineto
42674.5 31136.1 lineto
42618.2 31192.4 lineto
42674.5 31248.6 lineto
42674.5 31136.1 lineto
stroke
newpath
43461.9 32317.2 moveto
43574.4 32317.2 lineto
43686.8 32261 lineto
43743.1 32204.7 lineto
43799.3 32092.2 lineto
43855.6 31867.3 lineto
43855.6 31586.1 lineto
43799.3 31361.1 lineto
43743.1 31248.6 lineto
43686.8 31192.4 lineto
43574.4 31136.1 lineto
43461.9 31136.1 lineto
43349.4 31192.4 lineto
43293.1 31248.6 lineto
43236.9 31361.1 lineto
43180.7 31586.1 lineto
43180.7 31867.3 lineto
43236.9 32092.2 lineto
43293.1 32204.7 lineto
43349.4 32261 lineto
43461.9 32317.2 lineto
stroke
newpath
44305.5 32204.7 moveto
44361.8 32261 lineto
44474.2 32317.2 lineto
44755.5 32317.2 lineto
44867.9 32261 lineto
44924.2 32204.7 lineto
44980.4 32092.2 lineto
44980.4 31979.8 lineto
44924.2 31811 lineto
44249.3 31136.1 lineto
44980.4 31136.1 lineto
stroke
newpath
45711.6 32317.2 moveto
45824.1 32317.2 lineto
45936.6 32261 lineto
45992.8 32204.7 lineto
46049.1 32092.2 lineto
46105.3 31867.3 lineto
46105.3 31586.1 lineto
46049.1 31361.1 lineto
45992.8 31248.6 lineto
45936.6 31192.4 lineto
45824.1 31136.1 lineto
45711.6 31136.1 lineto
45599.1 31192.4 lineto
45542.9 31248.6 lineto
45486.6 31361.1 lineto
45430.4 31586.1 lineto
45430.4 31867.3 lineto
45486.6 32092.2 lineto
45542.9 32204.7 lineto
45599.1 32261 lineto
45711.6 32317.2 lineto
stroke
newpath
46555.2 32317.2 moveto
46555.2 32092.2 lineto
stroke
newpath
47005.2 32317.2 moveto
47005.2 32092.2 lineto
stroke
newpath
48748.7 30686.2 moveto
48692.5 30742.4 lineto
48580 30911.1 lineto
48523.7 31023.6 lineto
48467.5 31192.4 lineto
48411.3 31473.6 lineto
48411.3 31698.5 lineto
48467.5 31979.8 lineto
48523.7 32148.5 lineto
48580 32261 lineto
48692.5 32429.7 lineto
48748.7 32485.9 lineto
stroke
newpath
49817.3 31136.1 moveto
49142.4 31136.1 lineto
stroke
newpath
49479.9 31136.1 moveto
49479.9 32317.2 lineto
49367.4 32148.5 lineto
49254.9 32036 lineto
49142.4 31979.8 lineto
stroke
newpath
50267.3 32204.7 moveto
50323.5 32261 lineto
50436 32317.2 lineto
50717.2 32317.2 lineto
50829.7 32261 lineto
50885.9 32204.7 lineto
50942.2 32092.2 lineto
50942.2 31979.8 lineto
50885.9 31811 lineto
50211 31136.1 lineto
50942.2 31136.1 lineto
stroke
newpath
51673.3 32317.2 moveto
51785.8 32317.2 lineto
51898.3 32261 lineto
51954.6 32204.7 lineto
52010.8 32092.2 lineto
52067 31867.3 lineto
52067 31586.1 lineto
52010.8 31361.1 lineto
51954.6 31248.6 lineto
51898.3 31192.4 lineto
51785.8 31136.1 lineto
51673.3 31136.1 lineto
51560.9 31192.4 lineto
51504.6 31248.6 lineto
51448.4 31361.1 lineto
51392.1 31586.1 lineto
51392.1 31867.3 lineto
51448.4 32092.2 lineto
51504.6 32204.7 lineto
51560.9 32261 lineto
51673.3 32317.2 lineto
stroke
newpath
53473.1 31136.1 moveto
53473.1 32317.2 lineto
stroke
newpath
53979.3 31136.1 moveto
53979.3 31754.8 lineto
53923.1 31867.3 lineto
53810.6 31923.5 lineto
53641.9 31923.5 lineto
53529.4 31867.3 lineto
53473.1 31811 lineto
stroke
newpath
54710.5 31136.1 moveto
54598 31192.4 lineto
54541.7 31248.6 lineto
54485.5 31361.1 lineto
54485.5 31698.5 lineto
54541.7 31811 lineto
54598 31867.3 lineto
54710.5 31923.5 lineto
54879.2 31923.5 lineto
54991.7 31867.3 lineto
55047.9 31811 lineto
55104.2 31698.5 lineto
55104.2 31361.1 lineto
55047.9 31248.6 lineto
54991.7 31192.4 lineto
54879.2 31136.1 lineto
54710.5 31136.1 lineto
stroke
newpath
55779.1 31136.1 moveto
55666.6 31192.4 lineto
55610.4 31304.8 lineto
55610.4 32317.2 lineto
stroke
newpath
56679 31192.4 moveto
56566.5 31136.1 lineto
56341.5 31136.1 lineto
56229 31192.4 lineto
56172.8 31304.8 lineto
56172.8 31754.8 lineto
56229 31867.3 lineto
56341.5 31923.5 lineto
56566.5 31923.5 lineto
56679 31867.3 lineto
56735.2 31754.8 lineto
56735.2 31642.3 lineto
56172.8 31529.8 lineto
stroke
newpath
57185.2 31192.4 moveto
57297.6 31136.1 lineto
57522.6 31136.1 lineto
57635.1 31192.4 lineto
57691.3 31304.8 lineto
57691.3 31361.1 lineto
57635.1 31473.6 lineto
57522.6 31529.8 lineto
57353.9 31529.8 lineto
57241.4 31586.1 lineto
57185.2 31698.5 lineto
57185.2 31754.8 lineto
57241.4 31867.3 lineto
57353.9 31923.5 lineto
57522.6 31923.5 lineto
57635.1 31867.3 lineto
stroke
newpath
58085 30686.2 moveto
58141.3 30742.4 lineto
58253.8 30911.1 lineto
58310 31023.6 lineto
58366.3 31192.4 lineto
58422.5 31473.6 lineto
58422.5 31698.5 lineto
58366.3 31979.8 lineto
58310 32148.5 lineto
58253.8 32261 lineto
58141.3 32429.7 lineto
58085 32485.9 lineto
stroke
newpath
30120.9 30288.7 moveto
30120.9 29934.1 lineto
stroke
newpath
29943.6 30111.4 moveto
30298.2 30111.4 lineto
stroke
0 0 0 setrgbcolor
0 0 0 setrgbcolor
newpath
31650.9 30758.2 moveto
31763.3 30758.2 lineto
31875.8 30701.9 lineto
31932.1 30645.7 lineto
31988.3 30533.2 lineto
32044.6 30308.2 lineto
32044.6 30027 lineto
31988.3 29802 lineto
31932.1 29689.5 lineto
31875.8 29633.3 lineto
31763.3 29577.1 lineto
31650.9 29577.1 lineto
31538.4 29633.3 lineto
31482.1 29689.5 lineto
31425.9 29802 lineto
31369.6 30027 lineto
31369.6 30308.2 lineto
31425.9 30533.2 lineto
31482.1 30645.7 lineto
31538.4 30701.9 lineto
31650.9 30758.2 lineto
stroke
newpath
32550.7 29689.5 moveto
32607 29633.3 lineto
32550.7 29577.1 lineto
32494.5 29633.3 lineto
32550.7 29689.5 lineto
32550.7 29577.1 lineto
stroke
newpath
33281.9 30252 moveto
33169.4 30308.2 lineto
33113.2 30364.5 lineto
33056.9 30476.9 lineto
33056.9 30533.2 lineto
33113.2 30645.7 lineto
33169.4 30701.9 lineto
33281.9 30758.2 lineto
33506.9 30758.2 lineto
33619.4 30701.9 lineto
33675.6 30645.7 lineto
33731.8 30533.2 lineto
33731.8 30476.9 lineto
33675.6 30364.5 lineto
33619.4 30308.2 lineto
33506.9 30252 lineto
33281.9 30252 lineto
33169.4 30195.7 lineto
33113.2 30139.5 lineto
33056.9 30027 lineto
33056.9 29802 lineto
33113.2 29689.5 lineto
33169.4 29633.3 lineto
33281.9 29577.1 lineto
33506.9 29577.1 lineto
33619.4 29633.3 lineto
33675.6 29689.5 lineto
33731.8 29802 lineto
33731.8 30027 lineto
33675.6 30139.5 lineto
33619.4 30195.7 lineto
33506.9 30252 lineto
stroke
newpath
34800.5 30758.2 moveto
34238 30758.2 lineto
34181.8 30195.7 lineto
34238 30252 lineto
34350.5 30308.2 lineto
34631.7 30308.2 lineto
34744.2 30252 lineto
34800.5 30195.7 lineto
34856.7 30083.2 lineto
34856.7 29802 lineto
34800.5 29689.5 lineto
34744.2 29633.3 lineto
34631.7 29577.1 lineto
34350.5 29577.1 lineto
34238 29633.3 lineto
34181.8 29689.5 lineto
stroke
newpath
35362.9 29577.1 moveto
35362.9 30364.5 lineto
stroke
newpath
35362.9 30252 moveto
35419.1 30308.2 lineto
35531.6 30364.5 lineto
35700.3 30364.5 lineto
35812.8 30308.2 lineto
35869.1 30195.7 lineto
35869.1 29577.1 lineto
stroke
newpath
35869.1 30195.7 moveto
35925.3 30308.2 lineto
36037.8 30364.5 lineto
36206.5 30364.5 lineto
36319 30308.2 lineto
36375.3 30195.7 lineto
36375.3 29577.1 lineto
stroke
newpath
36937.7 29577.1 moveto
36937.7 30364.5 lineto
stroke
newpath
36937.7 30252 moveto
36993.9 30308.2 lineto
37106.4 30364.5 lineto
37275.2 30364.5 lineto
37387.6 30308.2 lineto
37443.9 30195.7 lineto
37443.9 29577.1 lineto
stroke
newpath
37443.9 30195.7 moveto
37500.1 30308.2 lineto
37612.6 30364.5 lineto
37781.3 30364.5 lineto
37893.8 30308.2 lineto
37950.1 30195.7 lineto
37950.1 29577.1 lineto
stroke
newpath
40256 30814.4 moveto
39243.7 29295.8 lineto
stroke
newpath
41774.6 30758.2 moveto
41887.1 30758.2 lineto
41999.6 30701.9 lineto
42055.8 30645.7 lineto
42112 30533.2 lineto
42168.3 30308.2 lineto
42168.3 30027 lineto
42112 29802 lineto
42055.8 29689.5 lineto
41999.6 29633.3 lineto
41887.1 29577.1 lineto
41774.6 29577.1 lineto
41662.1 29633.3 lineto
41605.9 29689.5 lineto
41549.6 29802 lineto
41493.4 30027 lineto
41493.4 30308.2 lineto
41549.6 30533.2 lineto
41605.9 30645.7 lineto
41662.1 30701.9 lineto
41774.6 30758.2 lineto
stroke
newpath
42674.5 29689.5 moveto
42730.7 29633.3 lineto
42674.5 29577.1 lineto
42618.2 29633.3 lineto
42674.5 29689.5 lineto
42674.5 29577.1 lineto
stroke
newpath
43461.9 30758.2 moveto
43574.4 30758.2 lineto
43686.8 30701.9 lineto
43743.1 30645.7 lineto
43799.3 30533.2 lineto
43855.6 30308.2 lineto
43855.6 30027 lineto
43799.3 29802 lineto
43743.1 29689.5 lineto
43686.8 29633.3 lineto
43574.4 29577.1 lineto
43461.9 29577.1 lineto
43349.4 29633.3 lineto
43293.1 29689.5 lineto
43236.9 29802 lineto
43180.7 30027 lineto
43180.7 30308.2 lineto
43236.9 30533.2 lineto
43293.1 30645.7 lineto
43349.4 30701.9 lineto
43461.9 30758.2 lineto
stroke
newpath
44249.3 30758.2 moveto
44980.4 30758.2 lineto
44586.7 30308.2 lineto
44755.5 30308.2 lineto
44867.9 30252 lineto
44924.2 30195.7 lineto
44980.4 30083.2 lineto
44980.4 29802 lineto
44924.2 29689.5 lineto
44867.9 29633.3 lineto
44755.5 29577.1 lineto
44418 29577.1 lineto
44305.5 29633.3 lineto
44249.3 29689.5 lineto
stroke
newpath
45374.1 30758.2 moveto
46105.3 30758.2 lineto
45711.6 30308.2 lineto
45880.3 30308.2 lineto
45992.8 30252 lineto
46049.1 30195.7 lineto
46105.3 30083.2 lineto
46105.3 29802 lineto
46049.1 29689.5 lineto
45992.8 29633.3 lineto
45880.3 29577.1 lineto
45542.9 29577.1 lineto
45430.4 29633.3 lineto
45374.1 29689.5 lineto
stroke
newpath
46555.2 30758.2 moveto
46555.2 30533.2 lineto
stroke
newpath
47005.2 30758.2 moveto
47005.2 30533.2 lineto
stroke
newpath
48748.7 29127.1 moveto
48692.5 29183.4 lineto
48580 29352.1 lineto
48523.7 29464.6 lineto
48467.5 29633.3 lineto
48411.3 29914.5 lineto
48411.3 30139.5 lineto
48467.5 30420.7 lineto
48523.7 30589.4 lineto
48580 30701.9 lineto
48692.5 30870.7 lineto
48748.7 30926.9 lineto
stroke
newpath
49086.2 30758.2 moveto
49873.6 30758.2 lineto
49367.4 29577.1 lineto
stroke
newpath
50267.3 30645.7 moveto
50323.5 30701.9 lineto
50436 30758.2 lineto
50717.2 30758.2 lineto
50829.7 30701.9 lineto
50885.9 30645.7 lineto
50942.2 30533.2 lineto
50942.2 30420.7 lineto
50885.9 30252 lineto
50211 29577.1 lineto
50942.2 29577.1 lineto
stroke
newpath
52348.3 29577.1 moveto
52348.3 30758.2 lineto
stroke
newpath
52854.5 29577.1 moveto
52854.5 30195.7 lineto
52798.2 30308.2 lineto
52685.7 30364.5 lineto
52517 30364.5 lineto
52404.5 30308.2 lineto
52348.3 30252 lineto
stroke
newpath
53585.6 29577.1 moveto
53473.1 29633.3 lineto
53416.9 29689.5 lineto
53360.6 29802 lineto
53360.6 30139.5 lineto
53416.9 30252 lineto
53473.1 30308.2 lineto
53585.6 30364.5 lineto
53754.3 30364.5 lineto
53866.8 30308.2 lineto
53923.1 30252 lineto
53979.3 30139.5 lineto
53979.3 29802 lineto
53923.1 29689.5 lineto
53866.8 29633.3 lineto
53754.3 29577.1 lineto
53585.6 29577.1 lineto
stroke
newpath
54654.2 29577.1 moveto
54541.7 29633.3 lineto
54485.5 29745.8 lineto
54485.5 30758.2 lineto
stroke
newpath
55554.1 29633.3 moveto
55441.6 29577.1 lineto
55216.7 29577.1 lineto
55104.2 29633.3 lineto
55047.9 29745.8 lineto
55047.9 30195.7 lineto
55104.2 30308.2 lineto
55216.7 30364.5 lineto
55441.6 30364.5 lineto
55554.1 30308.2 lineto
55610.4 30195.7 lineto
55610.4 30083.2 lineto
55047.9 29970.8 lineto
stroke
newpath
56060.3 29633.3 moveto
56172.8 29577.1 lineto
56397.8 29577.1 lineto
56510.2 29633.3 lineto
56566.5 29745.8 lineto
56566.5 29802 lineto
56510.2 29914.5 lineto
56397.8 29970.8 lineto
56229 29970.8 lineto
56116.5 30027 lineto
56060.3 30139.5 lineto
56060.3 30195.7 lineto
56116.5 30308.2 lineto
56229 30364.5 lineto
56397.8 30364.5 lineto
56510.2 30308.2 lineto
stroke
newpath
56960.2 29127.1 moveto
57016.4 29183.4 lineto
57128.9 29352.1 lineto
57185.2 29464.6 lineto
57241.4 29633.3 lineto
57297.6 29914.5 lineto
57297.6 30139.5 lineto
57241.4 30420.7 lineto
57185.2 30589.4 lineto
57128.9 30701.9 lineto
57016.4 30870.7 lineto
56960.2 30926.9 lineto
stroke
newpath
30237.1 28404.8 moveto
30237.1 28699.8 lineto
29942.2 28699.8 lineto
29942.2 28404.8 lineto
30237.1 28404.8 lineto
poly0
0 0 0 setrgbcolor
0 0 0 setrgbcolor
newpath
32044.6 28018 moveto
31369.6 28018 lineto
stroke
newpath
31707.1 28018 moveto
31707.1 29199.1 lineto
31594.6 29030.4 lineto
31482.1 28917.9 lineto
31369.6 28861.7 lineto
stroke
newpath
32550.7 28130.5 moveto
32607 28074.2 lineto
32550.7 28018 lineto
32494.5 28074.2 lineto
32550.7 28130.5 lineto
32550.7 28018 lineto
stroke
newpath
33338.1 29199.1 moveto
33450.6 29199.1 lineto
33563.1 29142.9 lineto
33619.4 29086.6 lineto
33675.6 28974.1 lineto
33731.8 28749.2 lineto
33731.8 28468 lineto
33675.6 28243 lineto
33619.4 28130.5 lineto
33563.1 28074.2 lineto
33450.6 28018 lineto
33338.1 28018 lineto
33225.7 28074.2 lineto
33169.4 28130.5 lineto
33113.2 28243 lineto
33056.9 28468 lineto
33056.9 28749.2 lineto
33113.2 28974.1 lineto
33169.4 29086.6 lineto
33225.7 29142.9 lineto
33338.1 29199.1 lineto
stroke
newpath
34463 29199.1 moveto
34575.5 29199.1 lineto
34688 29142.9 lineto
34744.2 29086.6 lineto
34800.5 28974.1 lineto
34856.7 28749.2 lineto
34856.7 28468 lineto
34800.5 28243 lineto
34744.2 28130.5 lineto
34688 28074.2 lineto
34575.5 28018 lineto
34463 28018 lineto
34350.5 28074.2 lineto
34294.3 28130.5 lineto
34238 28243 lineto
34181.8 28468 lineto
34181.8 28749.2 lineto
34238 28974.1 lineto
34294.3 29086.6 lineto
34350.5 29142.9 lineto
34463 29199.1 lineto
stroke
newpath
35362.9 28018 moveto
35362.9 28805.4 lineto
stroke
newpath
35362.9 28692.9 moveto
35419.1 28749.2 lineto
35531.6 28805.4 lineto
35700.3 28805.4 lineto
35812.8 28749.2 lineto
35869.1 28636.7 lineto
35869.1 28018 lineto
stroke
newpath
35869.1 28636.7 moveto
35925.3 28749.2 lineto
36037.8 28805.4 lineto
36206.5 28805.4 lineto
36319 28749.2 lineto
36375.3 28636.7 lineto
36375.3 28018 lineto
stroke
newpath
36937.7 28018 moveto
36937.7 28805.4 lineto
stroke
newpath
36937.7 28692.9 moveto
36993.9 28749.2 lineto
37106.4 28805.4 lineto
37275.2 28805.4 lineto
37387.6 28749.2 lineto
37443.9 28636.7 lineto
37443.9 28018 lineto
stroke
newpath
37443.9 28636.7 moveto
37500.1 28749.2 lineto
37612.6 28805.4 lineto
37781.3 28805.4 lineto
37893.8 28749.2 lineto
37950.1 28636.7 lineto
37950.1 28018 lineto
stroke
newpath
40256 29255.4 moveto
39243.7 27736.8 lineto
stroke
newpath
41774.6 29199.1 moveto
41887.1 29199.1 lineto
41999.6 29142.9 lineto
42055.8 29086.6 lineto
42112 28974.1 lineto
42168.3 28749.2 lineto
42168.3 28468 lineto
42112 28243 lineto
42055.8 28130.5 lineto
41999.6 28074.2 lineto
41887.1 28018 lineto
41774.6 28018 lineto
41662.1 28074.2 lineto
41605.9 28130.5 lineto
41549.6 28243 lineto
41493.4 28468 lineto
41493.4 28749.2 lineto
41549.6 28974.1 lineto
41605.9 29086.6 lineto
41662.1 29142.9 lineto
41774.6 29199.1 lineto
stroke
newpath
42674.5 28130.5 moveto
42730.7 28074.2 lineto
42674.5 28018 lineto
42618.2 28074.2 lineto
42674.5 28130.5 lineto
42674.5 28018 lineto
stroke
newpath
43461.9 29199.1 moveto
43574.4 29199.1 lineto
43686.8 29142.9 lineto
43743.1 29086.6 lineto
43799.3 28974.1 lineto
43855.6 28749.2 lineto
43855.6 28468 lineto
43799.3 28243 lineto
43743.1 28130.5 lineto
43686.8 28074.2 lineto
43574.4 28018 lineto
43461.9 28018 lineto
43349.4 28074.2 lineto
43293.1 28130.5 lineto
43236.9 28243 lineto
43180.7 28468 lineto
43180.7 28749.2 lineto
43236.9 28974.1 lineto
43293.1 29086.6 lineto
43349.4 29142.9 lineto
43461.9 29199.1 lineto
stroke
newpath
44249.3 29199.1 moveto
44980.4 29199.1 lineto
44586.7 28749.2 lineto
44755.5 28749.2 lineto
44867.9 28692.9 lineto
44924.2 28636.7 lineto
44980.4 28524.2 lineto
44980.4 28243 lineto
44924.2 28130.5 lineto
44867.9 28074.2 lineto
44755.5 28018 lineto
44418 28018 lineto
44305.5 28074.2 lineto
44249.3 28130.5 lineto
stroke
newpath
45542.9 28018 moveto
45767.8 28018 lineto
45880.3 28074.2 lineto
45936.6 28130.5 lineto
46049.1 28299.2 lineto
46105.3 28524.2 lineto
46105.3 28974.1 lineto
46049.1 29086.6 lineto
45992.8 29142.9 lineto
45880.3 29199.1 lineto
45655.4 29199.1 lineto
45542.9 29142.9 lineto
45486.6 29086.6 lineto
45430.4 28974.1 lineto
45430.4 28692.9 lineto
45486.6 28580.4 lineto
45542.9 28524.2 lineto
45655.4 28468 lineto
45880.3 28468 lineto
45992.8 28524.2 lineto
46049.1 28580.4 lineto
46105.3 28692.9 lineto
stroke
newpath
46555.2 29199.1 moveto
46555.2 28974.1 lineto
stroke
newpath
47005.2 29199.1 moveto
47005.2 28974.1 lineto
stroke
newpath
48748.7 27568.1 moveto
48692.5 27624.3 lineto
48580 27793 lineto
48523.7 27905.5 lineto
48467.5 28074.2 lineto
48411.3 28355.5 lineto
48411.3 28580.4 lineto
48467.5 28861.7 lineto
48523.7 29030.4 lineto
48580 29142.9 lineto
48692.5 29311.6 lineto
48748.7 29367.8 lineto
stroke
newpath
49086.2 29199.1 moveto
49873.6 29199.1 lineto
49367.4 28018 lineto
stroke
newpath
50885.9 29199.1 moveto
50323.5 29199.1 lineto
50267.3 28636.7 lineto
50323.5 28692.9 lineto
50436 28749.2 lineto
50717.2 28749.2 lineto
50829.7 28692.9 lineto
50885.9 28636.7 lineto
50942.2 28524.2 lineto
50942.2 28243 lineto
50885.9 28130.5 lineto
50829.7 28074.2 lineto
50717.2 28018 lineto
50436 28018 lineto
50323.5 28074.2 lineto
50267.3 28130.5 lineto
stroke
newpath
52348.3 28018 moveto
52348.3 29199.1 lineto
stroke
newpath
52854.5 28018 moveto
52854.5 28636.7 lineto
52798.2 28749.2 lineto
52685.7 28805.4 lineto
52517 28805.4 lineto
52404.5 28749.2 lineto
52348.3 28692.9 lineto
stroke
newpath
53585.6 28018 moveto
53473.1 28074.2 lineto
53416.9 28130.5 lineto
53360.6 28243 lineto
53360.6 28580.4 lineto
53416.9 28692.9 lineto
53473.1 28749.2 lineto
53585.6 28805.4 lineto
53754.3 28805.4 lineto
53866.8 28749.2 lineto
53923.1 28692.9 lineto
53979.3 28580.4 lineto
53979.3 28243 lineto
53923.1 28130.5 lineto
53866.8 28074.2 lineto
53754.3 28018 lineto
53585.6 28018 lineto
stroke
newpath
54654.2 28018 moveto
54541.7 28074.2 lineto
54485.5 28186.7 lineto
54485.5 29199.1 lineto
stroke
newpath
55554.1 28074.2 moveto
55441.6 28018 lineto
55216.7 28018 lineto
55104.2 28074.2 lineto
55047.9 28186.7 lineto
55047.9 28636.7 lineto
55104.2 28749.2 lineto
55216.7 28805.4 lineto
55441.6 28805.4 lineto
55554.1 28749.2 lineto
55610.4 28636.7 lineto
55610.4 28524.2 lineto
55047.9 28411.7 lineto
stroke
newpath
56060.3 28074.2 moveto
56172.8 28018 lineto
56397.8 28018 lineto
56510.2 28074.2 lineto
56566.5 28186.7 lineto
56566.5 28243 lineto
56510.2 28355.5 lineto
56397.8 28411.7 lineto
56229 28411.7 lineto
56116.5 28468 lineto
56060.3 28580.4 lineto
56060.3 28636.7 lineto
56116.5 28749.2 lineto
56229 28805.4 lineto
56397.8 28805.4 lineto
56510.2 28749.2 lineto
stroke
newpath
56960.2 27568.1 moveto
57016.4 27624.3 lineto
57128.9 27793 lineto
57185.2 27905.5 lineto
57241.4 28074.2 lineto
57297.6 28355.5 lineto
57297.6 28580.4 lineto
57241.4 28861.7 lineto
57185.2 29030.4 lineto
57128.9 29142.9 lineto
57016.4 29311.6 lineto
56960.2 29367.8 lineto
stroke
newpath
30006.2 26701.3 moveto
30298.2 26993.3 lineto
30006.2 27285.3 lineto
29714.2 26993.3 lineto
30006.2 26701.3 lineto
poly0
0 0 0 setrgbcolor
0 0 0 setrgbcolor
newpath
32044.6 26459 moveto
31369.6 26459 lineto
stroke
newpath
31707.1 26459 moveto
31707.1 27640.1 lineto
31594.6 27471.3 lineto
31482.1 27358.8 lineto
31369.6 27302.6 lineto
stroke
newpath
32550.7 26571.4 moveto
32607 26515.2 lineto
32550.7 26459 lineto
32494.5 26515.2 lineto
32550.7 26571.4 lineto
32550.7 26459 lineto
stroke
newpath
33619.4 27246.4 moveto
33619.4 26459 lineto
stroke
newpath
33338.1 27696.3 moveto
33056.9 26852.7 lineto
33788.1 26852.7 lineto
stroke
newpath
34463 27640.1 moveto
34575.5 27640.1 lineto
34688 27583.8 lineto
34744.2 27527.6 lineto
34800.5 27415.1 lineto
34856.7 27190.1 lineto
34856.7 26908.9 lineto
34800.5 26683.9 lineto
34744.2 26571.4 lineto
34688 26515.2 lineto
34575.5 26459 lineto
34463 26459 lineto
34350.5 26515.2 lineto
34294.3 26571.4 lineto
34238 26683.9 lineto
34181.8 26908.9 lineto
34181.8 27190.1 lineto
34238 27415.1 lineto
34294.3 27527.6 lineto
34350.5 27583.8 lineto
34463 27640.1 lineto
stroke
newpath
35362.9 26459 moveto
35362.9 27246.4 lineto
stroke
newpath
35362.9 27133.9 moveto
35419.1 27190.1 lineto
35531.6 27246.4 lineto
35700.3 27246.4 lineto
35812.8 27190.1 lineto
35869.1 27077.6 lineto
35869.1 26459 lineto
stroke
newpath
35869.1 27077.6 moveto
35925.3 27190.1 lineto
36037.8 27246.4 lineto
36206.5 27246.4 lineto
36319 27190.1 lineto
36375.3 27077.6 lineto
36375.3 26459 lineto
stroke
newpath
36937.7 26459 moveto
36937.7 27246.4 lineto
stroke
newpath
36937.7 27133.9 moveto
36993.9 27190.1 lineto
37106.4 27246.4 lineto
37275.2 27246.4 lineto
37387.6 27190.1 lineto
37443.9 27077.6 lineto
37443.9 26459 lineto
stroke
newpath
37443.9 27077.6 moveto
37500.1 27190.1 lineto
37612.6 27246.4 lineto
37781.3 27246.4 lineto
37893.8 27190.1 lineto
37950.1 27077.6 lineto
37950.1 26459 lineto
stroke
newpath
40256 27696.3 moveto
39243.7 26177.7 lineto
stroke
newpath
41774.6 27640.1 moveto
41887.1 27640.1 lineto
41999.6 27583.8 lineto
42055.8 27527.6 lineto
42112 27415.1 lineto
42168.3 27190.1 lineto
42168.3 26908.9 lineto
42112 26683.9 lineto
42055.8 26571.4 lineto
41999.6 26515.2 lineto
41887.1 26459 lineto
41774.6 26459 lineto
41662.1 26515.2 lineto
41605.9 26571.4 lineto
41549.6 26683.9 lineto
41493.4 26908.9 lineto
41493.4 27190.1 lineto
41549.6 27415.1 lineto
41605.9 27527.6 lineto
41662.1 27583.8 lineto
41774.6 27640.1 lineto
stroke
newpath
42674.5 26571.4 moveto
42730.7 26515.2 lineto
42674.5 26459 lineto
42618.2 26515.2 lineto
42674.5 26571.4 lineto
42674.5 26459 lineto
stroke
newpath
43461.9 27640.1 moveto
43574.4 27640.1 lineto
43686.8 27583.8 lineto
43743.1 27527.6 lineto
43799.3 27415.1 lineto
43855.6 27190.1 lineto
43855.6 26908.9 lineto
43799.3 26683.9 lineto
43743.1 26571.4 lineto
43686.8 26515.2 lineto
43574.4 26459 lineto
43461.9 26459 lineto
43349.4 26515.2 lineto
43293.1 26571.4 lineto
43236.9 26683.9 lineto
43180.7 26908.9 lineto
43180.7 27190.1 lineto
43236.9 27415.1 lineto
43293.1 27527.6 lineto
43349.4 27583.8 lineto
43461.9 27640.1 lineto
stroke
newpath
44924.2 27640.1 moveto
44361.8 27640.1 lineto
44305.5 27077.6 lineto
44361.8 27133.9 lineto
44474.2 27190.1 lineto
44755.5 27190.1 lineto
44867.9 27133.9 lineto
44924.2 27077.6 lineto
44980.4 26965.1 lineto
44980.4 26683.9 lineto
44924.2 26571.4 lineto
44867.9 26515.2 lineto
44755.5 26459 lineto
44474.2 26459 lineto
44361.8 26515.2 lineto
44305.5 26571.4 lineto
stroke
newpath
46049.1 27640.1 moveto
45486.6 27640.1 lineto
45430.4 27077.6 lineto
45486.6 27133.9 lineto
45599.1 27190.1 lineto
45880.3 27190.1 lineto
45992.8 27133.9 lineto
46049.1 27077.6 lineto
46105.3 26965.1 lineto
46105.3 26683.9 lineto
46049.1 26571.4 lineto
45992.8 26515.2 lineto
45880.3 26459 lineto
45599.1 26459 lineto
45486.6 26515.2 lineto
45430.4 26571.4 lineto
stroke
newpath
46555.2 27640.1 moveto
46555.2 27415.1 lineto
stroke
newpath
47005.2 27640.1 moveto
47005.2 27415.1 lineto
stroke
newpath
48748.7 26009 moveto
48692.5 26065.3 lineto
48580 26234 lineto
48523.7 26346.5 lineto
48467.5 26515.2 lineto
48411.3 26796.4 lineto
48411.3 27021.4 lineto
48467.5 27302.6 lineto
48523.7 27471.3 lineto
48580 27583.8 lineto
48692.5 27752.5 lineto
48748.7 27808.8 lineto
stroke
newpath
49817.3 26459 moveto
49142.4 26459 lineto
stroke
newpath
49479.9 26459 moveto
49479.9 27640.1 lineto
49367.4 27471.3 lineto
49254.9 27358.8 lineto
49142.4 27302.6 lineto
stroke
newpath
50548.5 27640.1 moveto
50661 27640.1 lineto
50773.5 27583.8 lineto
50829.7 27527.6 lineto
50885.9 27415.1 lineto
50942.2 27190.1 lineto
50942.2 26908.9 lineto
50885.9 26683.9 lineto
50829.7 26571.4 lineto
50773.5 26515.2 lineto
50661 26459 lineto
50548.5 26459 lineto
50436 26515.2 lineto
50379.8 26571.4 lineto
50323.5 26683.9 lineto
50267.3 26908.9 lineto
50267.3 27190.1 lineto
50323.5 27415.1 lineto
50379.8 27527.6 lineto
50436 27583.8 lineto
50548.5 27640.1 lineto
stroke
newpath
52348.3 26459 moveto
52348.3 27640.1 lineto
stroke
newpath
52854.5 26459 moveto
52854.5 27077.6 lineto
52798.2 27190.1 lineto
52685.7 27246.4 lineto
52517 27246.4 lineto
52404.5 27190.1 lineto
52348.3 27133.9 lineto
stroke
newpath
53585.6 26459 moveto
53473.1 26515.2 lineto
53416.9 26571.4 lineto
53360.6 26683.9 lineto
53360.6 27021.4 lineto
53416.9 27133.9 lineto
53473.1 27190.1 lineto
53585.6 27246.4 lineto
53754.3 27246.4 lineto
53866.8 27190.1 lineto
53923.1 27133.9 lineto
53979.3 27021.4 lineto
53979.3 26683.9 lineto
53923.1 26571.4 lineto
53866.8 26515.2 lineto
53754.3 26459 lineto
53585.6 26459 lineto
stroke
newpath
54654.2 26459 moveto
54541.7 26515.2 lineto
54485.5 26627.7 lineto
54485.5 27640.1 lineto
stroke
newpath
55554.1 26515.2 moveto
55441.6 26459 lineto
55216.7 26459 lineto
55104.2 26515.2 lineto
55047.9 26627.7 lineto
55047.9 27077.6 lineto
55104.2 27190.1 lineto
55216.7 27246.4 lineto
55441.6 27246.4 lineto
55554.1 27190.1 lineto
55610.4 27077.6 lineto
55610.4 26965.1 lineto
55047.9 26852.7 lineto
stroke
newpath
56060.3 26515.2 moveto
56172.8 26459 lineto
56397.8 26459 lineto
56510.2 26515.2 lineto
56566.5 26627.7 lineto
56566.5 26683.9 lineto
56510.2 26796.4 lineto
56397.8 26852.7 lineto
56229 26852.7 lineto
56116.5 26908.9 lineto
56060.3 27021.4 lineto
56060.3 27077.6 lineto
56116.5 27190.1 lineto
56229 27246.4 lineto
56397.8 27246.4 lineto
56510.2 27190.1 lineto
stroke
newpath
56960.2 26009 moveto
57016.4 26065.3 lineto
57128.9 26234 lineto
57185.2 26346.5 lineto
57241.4 26515.2 lineto
57297.6 26796.4 lineto
57297.6 27021.4 lineto
57241.4 27302.6 lineto
57185.2 27471.3 lineto
57128.9 27583.8 lineto
57016.4 27752.5 lineto
56960.2 27808.8 lineto
stroke
newpath
28963.4 26101.6 moveto
30298.2 24766.8 lineto
stroke
newpath
30298.2 26101.6 moveto
28963.4 24766.8 lineto
stroke
29630.8 25434.2 667.41 cir0
0 0 0 setrgbcolor
0 0 0 setrgbcolor
newpath
31313.4 26081 moveto
32044.6 26081 lineto
31650.9 25631.1 lineto
31819.6 25631.1 lineto
31932.1 25574.8 lineto
31988.3 25518.6 lineto
32044.6 25406.1 lineto
32044.6 25124.9 lineto
31988.3 25012.4 lineto
31932.1 24956.1 lineto
31819.6 24899.9 lineto
31482.1 24899.9 lineto
31369.6 24956.1 lineto
31313.4 25012.4 lineto
stroke
newpath
32550.7 25012.4 moveto
32607 24956.1 lineto
32550.7 24899.9 lineto
32494.5 24956.1 lineto
32550.7 25012.4 lineto
32550.7 24899.9 lineto
stroke
newpath
33056.9 25968.5 moveto
33113.2 26024.8 lineto
33225.7 26081 lineto
33506.9 26081 lineto
33619.4 26024.8 lineto
33675.6 25968.5 lineto
33731.8 25856 lineto
33731.8 25743.5 lineto
33675.6 25574.8 lineto
33000.7 24899.9 lineto
33731.8 24899.9 lineto
stroke
newpath
34463 26081 moveto
34575.5 26081 lineto
34688 26024.8 lineto
34744.2 25968.5 lineto
34800.5 25856 lineto
34856.7 25631.1 lineto
34856.7 25349.8 lineto
34800.5 25124.9 lineto
34744.2 25012.4 lineto
34688 24956.1 lineto
34575.5 24899.9 lineto
34463 24899.9 lineto
34350.5 24956.1 lineto
34294.3 25012.4 lineto
34238 25124.9 lineto
34181.8 25349.8 lineto
34181.8 25631.1 lineto
34238 25856 lineto
34294.3 25968.5 lineto
34350.5 26024.8 lineto
34463 26081 lineto
stroke
newpath
35362.9 24899.9 moveto
35362.9 25687.3 lineto
stroke
newpath
35362.9 25574.8 moveto
35419.1 25631.1 lineto
35531.6 25687.3 lineto
35700.3 25687.3 lineto
35812.8 25631.1 lineto
35869.1 25518.6 lineto
35869.1 24899.9 lineto
stroke
newpath
35869.1 25518.6 moveto
35925.3 25631.1 lineto
36037.8 25687.3 lineto
36206.5 25687.3 lineto
36319 25631.1 lineto
36375.3 25518.6 lineto
36375.3 24899.9 lineto
stroke
newpath
36937.7 24899.9 moveto
36937.7 25687.3 lineto
stroke
newpath
36937.7 25574.8 moveto
36993.9 25631.1 lineto
37106.4 25687.3 lineto
37275.2 25687.3 lineto
37387.6 25631.1 lineto
37443.9 25518.6 lineto
37443.9 24899.9 lineto
stroke
newpath
37443.9 25518.6 moveto
37500.1 25631.1 lineto
37612.6 25687.3 lineto
37781.3 25687.3 lineto
37893.8 25631.1 lineto
37950.1 25518.6 lineto
37950.1 24899.9 lineto
stroke
newpath
40256 26137.2 moveto
39243.7 24618.7 lineto
stroke
newpath
41774.6 26081 moveto
41887.1 26081 lineto
41999.6 26024.8 lineto
42055.8 25968.5 lineto
42112 25856 lineto
42168.3 25631.1 lineto
42168.3 25349.8 lineto
42112 25124.9 lineto
42055.8 25012.4 lineto
41999.6 24956.1 lineto
41887.1 24899.9 lineto
41774.6 24899.9 lineto
41662.1 24956.1 lineto
41605.9 25012.4 lineto
41549.6 25124.9 lineto
41493.4 25349.8 lineto
41493.4 25631.1 lineto
41549.6 25856 lineto
41605.9 25968.5 lineto
41662.1 26024.8 lineto
41774.6 26081 lineto
stroke
newpath
42674.5 25012.4 moveto
42730.7 24956.1 lineto
42674.5 24899.9 lineto
42618.2 24956.1 lineto
42674.5 25012.4 lineto
42674.5 24899.9 lineto
stroke
newpath
43855.6 24899.9 moveto
43180.7 24899.9 lineto
stroke
newpath
43518.1 24899.9 moveto
43518.1 26081 lineto
43405.6 25912.3 lineto
43293.1 25799.8 lineto
43180.7 25743.5 lineto
stroke
newpath
44305.5 25968.5 moveto
44361.8 26024.8 lineto
44474.2 26081 lineto
44755.5 26081 lineto
44867.9 26024.8 lineto
44924.2 25968.5 lineto
44980.4 25856 lineto
44980.4 25743.5 lineto
44924.2 25574.8 lineto
44249.3 24899.9 lineto
44980.4 24899.9 lineto
stroke
newpath
45992.8 26081 moveto
45767.8 26081 lineto
45655.4 26024.8 lineto
45599.1 25968.5 lineto
45486.6 25799.8 lineto
45430.4 25574.8 lineto
45430.4 25124.9 lineto
45486.6 25012.4 lineto
45542.9 24956.1 lineto
45655.4 24899.9 lineto
45880.3 24899.9 lineto
45992.8 24956.1 lineto
46049.1 25012.4 lineto
46105.3 25124.9 lineto
46105.3 25406.1 lineto
46049.1 25518.6 lineto
45992.8 25574.8 lineto
45880.3 25631.1 lineto
45655.4 25631.1 lineto
45542.9 25574.8 lineto
45486.6 25518.6 lineto
45430.4 25406.1 lineto
stroke
newpath
46555.2 26081 moveto
46555.2 25856 lineto
stroke
newpath
47005.2 26081 moveto
47005.2 25856 lineto
stroke
newpath
48748.7 24450 moveto
48692.5 24506.2 lineto
48580 24674.9 lineto
48523.7 24787.4 lineto
48467.5 24956.1 lineto
48411.3 25237.4 lineto
48411.3 25462.3 lineto
48467.5 25743.5 lineto
48523.7 25912.3 lineto
48580 26024.8 lineto
48692.5 26193.5 lineto
48748.7 26249.7 lineto
stroke
newpath
49817.3 24899.9 moveto
49142.4 24899.9 lineto
stroke
newpath
49479.9 24899.9 moveto
49479.9 26081 lineto
49367.4 25912.3 lineto
49254.9 25799.8 lineto
49142.4 25743.5 lineto
stroke
newpath
50211 26081 moveto
50998.4 26081 lineto
50492.2 24899.9 lineto
stroke
newpath
52348.3 24899.9 moveto
52348.3 26081 lineto
stroke
newpath
52854.5 24899.9 moveto
52854.5 25518.6 lineto
52798.2 25631.1 lineto
52685.7 25687.3 lineto
52517 25687.3 lineto
52404.5 25631.1 lineto
52348.3 25574.8 lineto
stroke
newpath
53585.6 24899.9 moveto
53473.1 24956.1 lineto
53416.9 25012.4 lineto
53360.6 25124.9 lineto
53360.6 25462.3 lineto
53416.9 25574.8 lineto
53473.1 25631.1 lineto
53585.6 25687.3 lineto
53754.3 25687.3 lineto
53866.8 25631.1 lineto
53923.1 25574.8 lineto
53979.3 25462.3 lineto
53979.3 25124.9 lineto
53923.1 25012.4 lineto
53866.8 24956.1 lineto
53754.3 24899.9 lineto
53585.6 24899.9 lineto
stroke
newpath
54654.2 24899.9 moveto
54541.7 24956.1 lineto
54485.5 25068.6 lineto
54485.5 26081 lineto
stroke
newpath
55554.1 24956.1 moveto
55441.6 24899.9 lineto
55216.7 24899.9 lineto
55104.2 24956.1 lineto
55047.9 25068.6 lineto
55047.9 25518.6 lineto
55104.2 25631.1 lineto
55216.7 25687.3 lineto
55441.6 25687.3 lineto
55554.1 25631.1 lineto
55610.4 25518.6 lineto
55610.4 25406.1 lineto
55047.9 25293.6 lineto
stroke
newpath
56060.3 24956.1 moveto
56172.8 24899.9 lineto
56397.8 24899.9 lineto
56510.2 24956.1 lineto
56566.5 25068.6 lineto
56566.5 25124.9 lineto
56510.2 25237.4 lineto
56397.8 25293.6 lineto
56229 25293.6 lineto
56116.5 25349.8 lineto
56060.3 25462.3 lineto
56060.3 25518.6 lineto
56116.5 25631.1 lineto
56229 25687.3 lineto
56397.8 25687.3 lineto
56510.2 25631.1 lineto
stroke
newpath
56960.2 24450 moveto
57016.4 24506.2 lineto
57128.9 24674.9 lineto
57185.2 24787.4 lineto
57241.4 24956.1 lineto
57297.6 25237.4 lineto
57297.6 25462.3 lineto
57241.4 25743.5 lineto
57185.2 25912.3 lineto
57128.9 26024.8 lineto
57016.4 26193.5 lineto
56960.2 26249.7 lineto
stroke
showpage
grestore
%%EOF
