G04 #@! TF.GenerationSoftware,KiCad,Pcbnew,(5.1.10-1-10_14)*
G04 #@! TF.CreationDate,2022-04-08T14:17:01+01:00*
G04 #@! TF.ProjectId,AFMD_thorlabsPhotodiodeContact,41464d44-5f74-4686-9f72-6c6162735068,rev?*
G04 #@! TF.SameCoordinates,Original*
G04 #@! TF.FileFunction,Paste,Top*
G04 #@! TF.FilePolarity,Positive*
%FSLAX46Y46*%
G04 Gerber Fmt 4.6, Leading zero omitted, Abs format (unit mm)*
G04 Created by KiCad (PCBNEW (5.1.10-1-10_14)) date 2022-04-08 14:17:01*
%MOMM*%
%LPD*%
G01*
G04 APERTURE LIST*
%ADD10R,4.500000X2.500000*%
%ADD11R,2.500000X4.500000*%
G04 APERTURE END LIST*
D10*
X14000000Y-2000000D03*
D11*
X26000000Y-3500000D03*
X26000000Y-10500000D03*
X26000000Y-17500000D03*
X26000000Y-24500000D03*
D10*
X14000000Y-26000000D03*
D11*
X2000000Y-24500000D03*
X2000000Y-17500000D03*
X2000000Y-10500000D03*
X2000000Y-3500000D03*
M02*
