%!PS-Adobe-3.0
%%Creator: PCBNEW
%%CreationDate: Fri Apr  8 14:16:03 2022
%%Title: /Users/Augustin/OneDrive - Nexus365/Oxford/equipmentProjects/moritzGroup_ELQE/PCBs/AFMD_thorlabsPhotodiodeContact/20220407_export/AFMD_thorlabsPhotodiodeContact-PTH-drl_map.ps
%%Pages: 1
%%PageOrder: Ascend
%%BoundingBox: 0 0 596 842
%%DocumentMedia: A4 595 842 0 () ()
%%Orientation: Landscape
%%EndComments
%%BeginProlog
/line { newpath moveto lineto stroke } bind def
/cir0 { newpath 0 360 arc stroke } bind def
/cir1 { newpath 0 360 arc gsave fill grestore stroke } bind def
/cir2 { newpath 0 360 arc gsave fill grestore stroke } bind def
/arc0 { newpath arc stroke } bind def
/arc1 { newpath 4 index 4 index moveto arc closepath gsave fill
    grestore stroke } bind def
/arc2 { newpath 4 index 4 index moveto arc closepath gsave fill
    grestore stroke } bind def
/poly0 { stroke } bind def
/poly1 { closepath gsave fill grestore stroke } bind def
/poly2 { closepath gsave fill grestore stroke } bind def
/rect0 { rectstroke } bind def
/rect1 { rectfill } bind def
/rect2 { rectfill } bind def
/linemode0 { 0 setlinecap 0 setlinejoin 0 setlinewidth } bind def
/linemode1 { 1 setlinecap 1 setlinejoin } bind def
/dashedline { [200] 100 setdash } bind def
/solidline { [] 0 setdash } bind def
/phantomshow { moveto
    /KicadFont findfont 0.000001 scalefont setfont
    show } bind def
/textshow { gsave
    findfont exch scalefont setfont concat 1 scale 0 0 moveto show
    } bind def
/reencodefont {
  findfont dup length dict begin
  { 1 index /FID ne
    { def }
    { pop pop } ifelse
  } forall
  /Encoding ISOLatin1Encoding def
  currentdict
  end } bind def
/KicadFont /Helvetica reencodefont definefont pop
/KicadFont-Bold /Helvetica-Bold reencodefont definefont pop
/KicadFont-Oblique /Helvetica-Oblique reencodefont definefont pop
/KicadFont-BoldOblique /Helvetica-BoldOblique reencodefont definefont pop
%%EndProlog
%%Page: 1 1
%%BeginPageSetup
gsave
0.0072 0.0072 scale
linemode1
82680 0 translate 90 rotate
150 setlinewidth
%%EndPageSetup
0 0 0 setrgbcolor
59.0551 setlinewidth
73819.3 73230.3 1181.1 -0 90 arc0
0 0 0 setrgbcolor
73819.3 42521.7 1181.1 -90 -0 arc0
0 0 0 setrgbcolor
43110.7 42521.7 1181.1 180 270 arc0
0 0 0 setrgbcolor
43110.7 73230.3 1181.1 90 180 arc0
0 0 0 setrgbcolor
newpath
41929.6 42521.7 moveto
41929.6 73230.3 lineto
stroke
0 0 0 setrgbcolor
newpath
73819.3 41340.6 moveto
43110.7 41340.6 lineto
stroke
0 0 0 setrgbcolor
newpath
75000.4 73230.3 moveto
75000.4 42521.7 lineto
stroke
0 0 0 setrgbcolor
newpath
43110.7 74411.4 moveto
73819.3 74411.4 lineto
stroke
78.7394 setlinewidth
newpath
44055.6 53978.4 moveto
44528 53505.9 lineto
stroke
newpath
44528 53978.4 moveto
44055.6 53505.9 lineto
stroke
newpath
58228.8 72285.4 moveto
58701.2 71813 lineto
stroke
newpath
58701.2 72285.4 moveto
58228.8 71813 lineto
stroke
newpath
58228.8 43939 moveto
58701.2 43466.6 lineto
stroke
newpath
58701.2 43939 moveto
58228.8 43466.6 lineto
stroke
newpath
72402 62246.1 moveto
72874.4 61773.6 lineto
stroke
newpath
72874.4 62246.1 moveto
72402 61773.6 lineto
stroke
49606.7 51970.5 450 cir0
52559.5 54923.2 450 cir0
52559.5 49017.7 450 cir0
64370.5 66734.3 450 cir0
64370.5 60828.8 450 cir0
67323.3 63781.5 450 cir0
118.11 setlinewidth
0 0 0 setrgbcolor
0 0 0 setrgbcolor
newpath
43027.7 39477.5 moveto
43027.7 40658.6 lineto
43308.9 40658.6 lineto
43477.7 40602.4 lineto
43590.1 40489.9 lineto
43646.4 40377.4 lineto
43702.6 40152.4 lineto
43702.6 39983.7 lineto
43646.4 39758.7 lineto
43590.1 39646.2 lineto
43477.7 39533.8 lineto
43308.9 39477.5 lineto
43027.7 39477.5 lineto
stroke
newpath
44208.8 39477.5 moveto
44208.8 40264.9 lineto
stroke
newpath
44208.8 40039.9 moveto
44265.1 40152.4 lineto
44321.3 40208.7 lineto
44433.8 40264.9 lineto
44546.3 40264.9 lineto
stroke
newpath
44940 39477.5 moveto
44940 40264.9 lineto
stroke
newpath
44940 40658.6 moveto
44883.7 40602.4 lineto
44940 40546.1 lineto
44996.2 40602.4 lineto
44940 40658.6 lineto
44940 40546.1 lineto
stroke
newpath
45671.1 39477.5 moveto
45558.6 39533.8 lineto
45502.4 39646.2 lineto
45502.4 40658.6 lineto
stroke
newpath
46289.8 39477.5 moveto
46177.3 39533.8 lineto
46121.1 39646.2 lineto
46121.1 40658.6 lineto
stroke
newpath
47639.6 39477.5 moveto
47639.6 40658.6 lineto
48033.3 39815 lineto
48427 40658.6 lineto
48427 39477.5 lineto
stroke
newpath
49495.7 39477.5 moveto
49495.7 40096.2 lineto
49439.4 40208.7 lineto
49326.9 40264.9 lineto
49102 40264.9 lineto
48989.5 40208.7 lineto
stroke
newpath
49495.7 39533.8 moveto
49383.2 39477.5 lineto
49102 39477.5 lineto
48989.5 39533.8 lineto
48933.2 39646.2 lineto
48933.2 39758.7 lineto
48989.5 39871.2 lineto
49102 39927.5 lineto
49383.2 39927.5 lineto
49495.7 39983.7 lineto
stroke
newpath
50058.1 40264.9 moveto
50058.1 39083.8 lineto
stroke
newpath
50058.1 40208.7 moveto
50170.6 40264.9 lineto
50395.5 40264.9 lineto
50508 40208.7 lineto
50564.3 40152.4 lineto
50620.5 40039.9 lineto
50620.5 39702.5 lineto
50564.3 39590 lineto
50508 39533.8 lineto
50395.5 39477.5 lineto
50170.6 39477.5 lineto
50058.1 39533.8 lineto
stroke
newpath
51126.7 39590 moveto
51182.9 39533.8 lineto
51126.7 39477.5 lineto
51070.5 39533.8 lineto
51126.7 39590 lineto
51126.7 39477.5 lineto
stroke
newpath
51126.7 40208.7 moveto
51182.9 40152.4 lineto
51126.7 40096.2 lineto
51070.5 40152.4 lineto
51126.7 40208.7 lineto
51126.7 40096.2 lineto
stroke
newpath
41427.6 37767.7 moveto
41900 37295.3 lineto
stroke
newpath
41900 37767.7 moveto
41427.6 37295.3 lineto
stroke
0 0 0 setrgbcolor
0 0 0 setrgbcolor
newpath
43252.7 38178.3 moveto
43365.2 38178.3 lineto
43477.7 38122.1 lineto
43533.9 38065.8 lineto
43590.1 37953.3 lineto
43646.4 37728.4 lineto
43646.4 37447.1 lineto
43590.1 37222.2 lineto
43533.9 37109.7 lineto
43477.7 37053.4 lineto
43365.2 36997.2 lineto
43252.7 36997.2 lineto
43140.2 37053.4 lineto
43084 37109.7 lineto
43027.7 37222.2 lineto
42971.5 37447.1 lineto
42971.5 37728.4 lineto
43027.7 37953.3 lineto
43084 38065.8 lineto
43140.2 38122.1 lineto
43252.7 38178.3 lineto
stroke
newpath
44152.6 37109.7 moveto
44208.8 37053.4 lineto
44152.6 36997.2 lineto
44096.3 37053.4 lineto
44152.6 37109.7 lineto
44152.6 36997.2 lineto
stroke
newpath
45221.2 37784.6 moveto
45221.2 36997.2 lineto
stroke
newpath
44940 38234.5 moveto
44658.8 37390.9 lineto
45389.9 37390.9 lineto
stroke
newpath
46064.8 38178.3 moveto
46177.3 38178.3 lineto
46289.8 38122.1 lineto
46346 38065.8 lineto
46402.3 37953.3 lineto
46458.5 37728.4 lineto
46458.5 37447.1 lineto
46402.3 37222.2 lineto
46346 37109.7 lineto
46289.8 37053.4 lineto
46177.3 36997.2 lineto
46064.8 36997.2 lineto
45952.3 37053.4 lineto
45896.1 37109.7 lineto
45839.9 37222.2 lineto
45783.6 37447.1 lineto
45783.6 37728.4 lineto
45839.9 37953.3 lineto
45896.1 38065.8 lineto
45952.3 38122.1 lineto
46064.8 38178.3 lineto
stroke
newpath
47189.7 38178.3 moveto
47302.2 38178.3 lineto
47414.7 38122.1 lineto
47470.9 38065.8 lineto
47527.1 37953.3 lineto
47583.4 37728.4 lineto
47583.4 37447.1 lineto
47527.1 37222.2 lineto
47470.9 37109.7 lineto
47414.7 37053.4 lineto
47302.2 36997.2 lineto
47189.7 36997.2 lineto
47077.2 37053.4 lineto
47021 37109.7 lineto
46964.7 37222.2 lineto
46908.5 37447.1 lineto
46908.5 37728.4 lineto
46964.7 37953.3 lineto
47021 38065.8 lineto
47077.2 38122.1 lineto
47189.7 38178.3 lineto
stroke
newpath
48089.6 36997.2 moveto
48089.6 37784.6 lineto
stroke
newpath
48089.6 37672.1 moveto
48145.8 37728.4 lineto
48258.3 37784.6 lineto
48427 37784.6 lineto
48539.5 37728.4 lineto
48595.8 37615.9 lineto
48595.8 36997.2 lineto
stroke
newpath
48595.8 37615.9 moveto
48652 37728.4 lineto
48764.5 37784.6 lineto
48933.2 37784.6 lineto
49045.7 37728.4 lineto
49102 37615.9 lineto
49102 36997.2 lineto
stroke
newpath
49664.4 36997.2 moveto
49664.4 37784.6 lineto
stroke
newpath
49664.4 37672.1 moveto
49720.6 37728.4 lineto
49833.1 37784.6 lineto
50001.8 37784.6 lineto
50114.3 37728.4 lineto
50170.6 37615.9 lineto
50170.6 36997.2 lineto
stroke
newpath
50170.6 37615.9 moveto
50226.8 37728.4 lineto
50339.3 37784.6 lineto
50508 37784.6 lineto
50620.5 37728.4 lineto
50676.8 37615.9 lineto
50676.8 36997.2 lineto
stroke
newpath
52982.7 38234.5 moveto
51970.3 36716 lineto
stroke
newpath
54501.3 38178.3 moveto
54613.8 38178.3 lineto
54726.2 38122.1 lineto
54782.5 38065.8 lineto
54838.7 37953.3 lineto
54895 37728.4 lineto
54895 37447.1 lineto
54838.7 37222.2 lineto
54782.5 37109.7 lineto
54726.2 37053.4 lineto
54613.8 36997.2 lineto
54501.3 36997.2 lineto
54388.8 37053.4 lineto
54332.5 37109.7 lineto
54276.3 37222.2 lineto
54220.1 37447.1 lineto
54220.1 37728.4 lineto
54276.3 37953.3 lineto
54332.5 38065.8 lineto
54388.8 38122.1 lineto
54501.3 38178.3 lineto
stroke
newpath
55401.2 37109.7 moveto
55457.4 37053.4 lineto
55401.2 36997.2 lineto
55344.9 37053.4 lineto
55401.2 37109.7 lineto
55401.2 36997.2 lineto
stroke
newpath
56188.6 38178.3 moveto
56301.1 38178.3 lineto
56413.5 38122.1 lineto
56469.8 38065.8 lineto
56526 37953.3 lineto
56582.3 37728.4 lineto
56582.3 37447.1 lineto
56526 37222.2 lineto
56469.8 37109.7 lineto
56413.5 37053.4 lineto
56301.1 36997.2 lineto
56188.6 36997.2 lineto
56076.1 37053.4 lineto
56019.8 37109.7 lineto
55963.6 37222.2 lineto
55907.4 37447.1 lineto
55907.4 37728.4 lineto
55963.6 37953.3 lineto
56019.8 38065.8 lineto
56076.1 38122.1 lineto
56188.6 38178.3 lineto
stroke
newpath
57707.1 36997.2 moveto
57032.2 36997.2 lineto
stroke
newpath
57369.7 36997.2 moveto
57369.7 38178.3 lineto
57257.2 38009.6 lineto
57144.7 37897.1 lineto
57032.2 37840.8 lineto
stroke
newpath
58775.7 38178.3 moveto
58213.3 38178.3 lineto
58157.1 37615.9 lineto
58213.3 37672.1 lineto
58325.8 37728.4 lineto
58607 37728.4 lineto
58719.5 37672.1 lineto
58775.7 37615.9 lineto
58832 37503.4 lineto
58832 37222.2 lineto
58775.7 37109.7 lineto
58719.5 37053.4 lineto
58607 36997.2 lineto
58325.8 36997.2 lineto
58213.3 37053.4 lineto
58157.1 37109.7 lineto
stroke
newpath
59225.7 38178.3 moveto
60013.1 38178.3 lineto
59506.9 36997.2 lineto
stroke
newpath
60406.8 38178.3 moveto
60406.8 37953.3 lineto
stroke
newpath
60856.7 38178.3 moveto
60856.7 37953.3 lineto
stroke
newpath
62600.3 36547.3 moveto
62544 36603.5 lineto
62431.5 36772.2 lineto
62375.3 36884.7 lineto
62319 37053.4 lineto
62262.8 37334.7 lineto
62262.8 37559.6 lineto
62319 37840.8 lineto
62375.3 38009.6 lineto
62431.5 38122.1 lineto
62544 38290.8 lineto
62600.3 38347 lineto
stroke
newpath
63556.4 37784.6 moveto
63556.4 36997.2 lineto
stroke
newpath
63275.2 38234.5 moveto
62994 37390.9 lineto
63725.1 37390.9 lineto
stroke
newpath
65075 36997.2 moveto
65075 38178.3 lineto
stroke
newpath
65581.1 36997.2 moveto
65581.1 37615.9 lineto
65524.9 37728.4 lineto
65412.4 37784.6 lineto
65243.7 37784.6 lineto
65131.2 37728.4 lineto
65075 37672.1 lineto
stroke
newpath
66312.3 36997.2 moveto
66199.8 37053.4 lineto
66143.6 37109.7 lineto
66087.3 37222.2 lineto
66087.3 37559.6 lineto
66143.6 37672.1 lineto
66199.8 37728.4 lineto
66312.3 37784.6 lineto
66481 37784.6 lineto
66593.5 37728.4 lineto
66649.8 37672.1 lineto
66706 37559.6 lineto
66706 37222.2 lineto
66649.8 37109.7 lineto
66593.5 37053.4 lineto
66481 36997.2 lineto
66312.3 36997.2 lineto
stroke
newpath
67380.9 36997.2 moveto
67268.4 37053.4 lineto
67212.2 37165.9 lineto
67212.2 38178.3 lineto
stroke
newpath
68280.8 37053.4 moveto
68168.3 36997.2 lineto
67943.3 36997.2 lineto
67830.9 37053.4 lineto
67774.6 37165.9 lineto
67774.6 37615.9 lineto
67830.9 37728.4 lineto
67943.3 37784.6 lineto
68168.3 37784.6 lineto
68280.8 37728.4 lineto
68337 37615.9 lineto
68337 37503.4 lineto
67774.6 37390.9 lineto
stroke
newpath
68787 37053.4 moveto
68899.5 36997.2 lineto
69124.4 36997.2 lineto
69236.9 37053.4 lineto
69293.2 37165.9 lineto
69293.2 37222.2 lineto
69236.9 37334.7 lineto
69124.4 37390.9 lineto
68955.7 37390.9 lineto
68843.2 37447.1 lineto
68787 37559.6 lineto
68787 37615.9 lineto
68843.2 37728.4 lineto
68955.7 37784.6 lineto
69124.4 37784.6 lineto
69236.9 37728.4 lineto
stroke
newpath
69686.9 36547.3 moveto
69743.1 36603.5 lineto
69855.6 36772.2 lineto
69911.8 36884.7 lineto
69968.1 37053.4 lineto
70024.3 37334.7 lineto
70024.3 37559.6 lineto
69968.1 37840.8 lineto
69911.8 38009.6 lineto
69855.6 38122.1 lineto
69743.1 38290.8 lineto
69686.9 38347 lineto
stroke
41450 35972.5 450 cir0
0 0 0 setrgbcolor
0 0 0 setrgbcolor
newpath
43252.7 36619.3 moveto
43365.2 36619.3 lineto
43477.7 36563 lineto
43533.9 36506.8 lineto
43590.1 36394.3 lineto
43646.4 36169.3 lineto
43646.4 35888.1 lineto
43590.1 35663.1 lineto
43533.9 35550.6 lineto
43477.7 35494.4 lineto
43365.2 35438.1 lineto
43252.7 35438.1 lineto
43140.2 35494.4 lineto
43084 35550.6 lineto
43027.7 35663.1 lineto
42971.5 35888.1 lineto
42971.5 36169.3 lineto
43027.7 36394.3 lineto
43084 36506.8 lineto
43140.2 36563 lineto
43252.7 36619.3 lineto
stroke
newpath
44152.6 35550.6 moveto
44208.8 35494.4 lineto
44152.6 35438.1 lineto
44096.3 35494.4 lineto
44152.6 35550.6 lineto
44152.6 35438.1 lineto
stroke
newpath
44602.5 36619.3 moveto
45389.9 36619.3 lineto
44883.7 35438.1 lineto
stroke
newpath
46346 36619.3 moveto
46121.1 36619.3 lineto
46008.6 36563 lineto
45952.3 36506.8 lineto
45839.9 36338 lineto
45783.6 36113.1 lineto
45783.6 35663.1 lineto
45839.9 35550.6 lineto
45896.1 35494.4 lineto
46008.6 35438.1 lineto
46233.6 35438.1 lineto
46346 35494.4 lineto
46402.3 35550.6 lineto
46458.5 35663.1 lineto
46458.5 35944.3 lineto
46402.3 36056.8 lineto
46346 36113.1 lineto
46233.6 36169.3 lineto
46008.6 36169.3 lineto
45896.1 36113.1 lineto
45839.9 36056.8 lineto
45783.6 35944.3 lineto
stroke
newpath
46908.5 36506.8 moveto
46964.7 36563 lineto
47077.2 36619.3 lineto
47358.4 36619.3 lineto
47470.9 36563 lineto
47527.1 36506.8 lineto
47583.4 36394.3 lineto
47583.4 36281.8 lineto
47527.1 36113.1 lineto
46852.2 35438.1 lineto
47583.4 35438.1 lineto
stroke
newpath
48089.6 35438.1 moveto
48089.6 36225.5 lineto
stroke
newpath
48089.6 36113.1 moveto
48145.8 36169.3 lineto
48258.3 36225.5 lineto
48427 36225.5 lineto
48539.5 36169.3 lineto
48595.8 36056.8 lineto
48595.8 35438.1 lineto
stroke
newpath
48595.8 36056.8 moveto
48652 36169.3 lineto
48764.5 36225.5 lineto
48933.2 36225.5 lineto
49045.7 36169.3 lineto
49102 36056.8 lineto
49102 35438.1 lineto
stroke
newpath
49664.4 35438.1 moveto
49664.4 36225.5 lineto
stroke
newpath
49664.4 36113.1 moveto
49720.6 36169.3 lineto
49833.1 36225.5 lineto
50001.8 36225.5 lineto
50114.3 36169.3 lineto
50170.6 36056.8 lineto
50170.6 35438.1 lineto
stroke
newpath
50170.6 36056.8 moveto
50226.8 36169.3 lineto
50339.3 36225.5 lineto
50508 36225.5 lineto
50620.5 36169.3 lineto
50676.8 36056.8 lineto
50676.8 35438.1 lineto
stroke
newpath
52982.7 36675.5 moveto
51970.3 35156.9 lineto
stroke
newpath
54501.3 36619.3 moveto
54613.8 36619.3 lineto
54726.2 36563 lineto
54782.5 36506.8 lineto
54838.7 36394.3 lineto
54895 36169.3 lineto
54895 35888.1 lineto
54838.7 35663.1 lineto
54782.5 35550.6 lineto
54726.2 35494.4 lineto
54613.8 35438.1 lineto
54501.3 35438.1 lineto
54388.8 35494.4 lineto
54332.5 35550.6 lineto
54276.3 35663.1 lineto
54220.1 35888.1 lineto
54220.1 36169.3 lineto
54276.3 36394.3 lineto
54332.5 36506.8 lineto
54388.8 36563 lineto
54501.3 36619.3 lineto
stroke
newpath
55401.2 35550.6 moveto
55457.4 35494.4 lineto
55401.2 35438.1 lineto
55344.9 35494.4 lineto
55401.2 35550.6 lineto
55401.2 35438.1 lineto
stroke
newpath
56188.6 36619.3 moveto
56301.1 36619.3 lineto
56413.5 36563 lineto
56469.8 36506.8 lineto
56526 36394.3 lineto
56582.3 36169.3 lineto
56582.3 35888.1 lineto
56526 35663.1 lineto
56469.8 35550.6 lineto
56413.5 35494.4 lineto
56301.1 35438.1 lineto
56188.6 35438.1 lineto
56076.1 35494.4 lineto
56019.8 35550.6 lineto
55963.6 35663.1 lineto
55907.4 35888.1 lineto
55907.4 36169.3 lineto
55963.6 36394.3 lineto
56019.8 36506.8 lineto
56076.1 36563 lineto
56188.6 36619.3 lineto
stroke
newpath
56976 36619.3 moveto
57707.1 36619.3 lineto
57313.4 36169.3 lineto
57482.2 36169.3 lineto
57594.6 36113.1 lineto
57650.9 36056.8 lineto
57707.1 35944.3 lineto
57707.1 35663.1 lineto
57650.9 35550.6 lineto
57594.6 35494.4 lineto
57482.2 35438.1 lineto
57144.7 35438.1 lineto
57032.2 35494.4 lineto
56976 35550.6 lineto
stroke
newpath
58438.3 36619.3 moveto
58550.8 36619.3 lineto
58663.3 36563 lineto
58719.5 36506.8 lineto
58775.7 36394.3 lineto
58832 36169.3 lineto
58832 35888.1 lineto
58775.7 35663.1 lineto
58719.5 35550.6 lineto
58663.3 35494.4 lineto
58550.8 35438.1 lineto
58438.3 35438.1 lineto
58325.8 35494.4 lineto
58269.6 35550.6 lineto
58213.3 35663.1 lineto
58157.1 35888.1 lineto
58157.1 36169.3 lineto
58213.3 36394.3 lineto
58269.6 36506.8 lineto
58325.8 36563 lineto
58438.3 36619.3 lineto
stroke
newpath
59563.1 36619.3 moveto
59675.6 36619.3 lineto
59788.1 36563 lineto
59844.4 36506.8 lineto
59900.6 36394.3 lineto
59956.8 36169.3 lineto
59956.8 35888.1 lineto
59900.6 35663.1 lineto
59844.4 35550.6 lineto
59788.1 35494.4 lineto
59675.6 35438.1 lineto
59563.1 35438.1 lineto
59450.7 35494.4 lineto
59394.4 35550.6 lineto
59338.2 35663.1 lineto
59281.9 35888.1 lineto
59281.9 36169.3 lineto
59338.2 36394.3 lineto
59394.4 36506.8 lineto
59450.7 36563 lineto
59563.1 36619.3 lineto
stroke
newpath
60406.8 36619.3 moveto
60406.8 36394.3 lineto
stroke
newpath
60856.7 36619.3 moveto
60856.7 36394.3 lineto
stroke
newpath
62600.3 34988.2 moveto
62544 35044.4 lineto
62431.5 35213.2 lineto
62375.3 35325.7 lineto
62319 35494.4 lineto
62262.8 35775.6 lineto
62262.8 36000.6 lineto
62319 36281.8 lineto
62375.3 36450.5 lineto
62431.5 36563 lineto
62544 36731.7 lineto
62600.3 36788 lineto
stroke
newpath
63556.4 36619.3 moveto
63331.4 36619.3 lineto
63218.9 36563 lineto
63162.7 36506.8 lineto
63050.2 36338 lineto
62994 36113.1 lineto
62994 35663.1 lineto
63050.2 35550.6 lineto
63106.5 35494.4 lineto
63218.9 35438.1 lineto
63443.9 35438.1 lineto
63556.4 35494.4 lineto
63612.6 35550.6 lineto
63668.9 35663.1 lineto
63668.9 35944.3 lineto
63612.6 36056.8 lineto
63556.4 36113.1 lineto
63443.9 36169.3 lineto
63218.9 36169.3 lineto
63106.5 36113.1 lineto
63050.2 36056.8 lineto
62994 35944.3 lineto
stroke
newpath
65075 35438.1 moveto
65075 36619.3 lineto
stroke
newpath
65581.1 35438.1 moveto
65581.1 36056.8 lineto
65524.9 36169.3 lineto
65412.4 36225.5 lineto
65243.7 36225.5 lineto
65131.2 36169.3 lineto
65075 36113.1 lineto
stroke
newpath
66312.3 35438.1 moveto
66199.8 35494.4 lineto
66143.6 35550.6 lineto
66087.3 35663.1 lineto
66087.3 36000.6 lineto
66143.6 36113.1 lineto
66199.8 36169.3 lineto
66312.3 36225.5 lineto
66481 36225.5 lineto
66593.5 36169.3 lineto
66649.8 36113.1 lineto
66706 36000.6 lineto
66706 35663.1 lineto
66649.8 35550.6 lineto
66593.5 35494.4 lineto
66481 35438.1 lineto
66312.3 35438.1 lineto
stroke
newpath
67380.9 35438.1 moveto
67268.4 35494.4 lineto
67212.2 35606.9 lineto
67212.2 36619.3 lineto
stroke
newpath
68280.8 35494.4 moveto
68168.3 35438.1 lineto
67943.3 35438.1 lineto
67830.9 35494.4 lineto
67774.6 35606.9 lineto
67774.6 36056.8 lineto
67830.9 36169.3 lineto
67943.3 36225.5 lineto
68168.3 36225.5 lineto
68280.8 36169.3 lineto
68337 36056.8 lineto
68337 35944.3 lineto
67774.6 35831.8 lineto
stroke
newpath
68787 35494.4 moveto
68899.5 35438.1 lineto
69124.4 35438.1 lineto
69236.9 35494.4 lineto
69293.2 35606.9 lineto
69293.2 35663.1 lineto
69236.9 35775.6 lineto
69124.4 35831.8 lineto
68955.7 35831.8 lineto
68843.2 35888.1 lineto
68787 36000.6 lineto
68787 36056.8 lineto
68843.2 36169.3 lineto
68955.7 36225.5 lineto
69124.4 36225.5 lineto
69236.9 36169.3 lineto
stroke
newpath
69686.9 34988.2 moveto
69743.1 35044.4 lineto
69855.6 35213.2 lineto
69911.8 35325.7 lineto
69968.1 35494.4 lineto
70024.3 35775.6 lineto
70024.3 36000.6 lineto
69968.1 36281.8 lineto
69911.8 36450.5 lineto
69855.6 36563 lineto
69743.1 36731.7 lineto
69686.9 36788 lineto
stroke
showpage
grestore
%%EOF
