M48
; DRILL file {KiCad (5.1.10-1-10_14)} date Friday, April 08, 2022 at 02:16:04 PM
; FORMAT={-:-/ absolute / inch / decimal}
; #@! TF.CreationDate,2022-04-08T14:16:04+01:00
; #@! TF.GenerationSoftware,Kicad,Pcbnew,(5.1.10-1-10_14)
; #@! TF.FileFunction,Plated,1,2,PTH
FMAT,2
INCH
T1C0.0157
T2C0.0300
%
G90
G05
T1
X0.0787Y-0.689
X0.5512Y-0.0787
X0.5512Y-1.0236
X1.0236Y-0.4134
T2
X0.2559Y-0.748
X0.3543Y-0.6496
X0.3543Y-0.8465
X0.748Y-0.2559
X0.748Y-0.4528
X0.8465Y-0.3543
T0
M30
