%!PS-Adobe-3.0
%%Creator: PCBNEW
%%CreationDate: Fri Apr  8 14:16:03 2022
%%Title: /Users/Augustin/OneDrive - Nexus365/Oxford/equipmentProjects/moritzGroup_ELQE/PCBs/AFMD_thorlabsPhotodiodeContact/20220407_export/AFMD_thorlabsPhotodiodeContact-NPTH-drl_map.ps
%%Pages: 1
%%PageOrder: Ascend
%%BoundingBox: 0 0 596 842
%%DocumentMedia: A4 595 842 0 () ()
%%Orientation: Landscape
%%EndComments
%%BeginProlog
/line { newpath moveto lineto stroke } bind def
/cir0 { newpath 0 360 arc stroke } bind def
/cir1 { newpath 0 360 arc gsave fill grestore stroke } bind def
/cir2 { newpath 0 360 arc gsave fill grestore stroke } bind def
/arc0 { newpath arc stroke } bind def
/arc1 { newpath 4 index 4 index moveto arc closepath gsave fill
    grestore stroke } bind def
/arc2 { newpath 4 index 4 index moveto arc closepath gsave fill
    grestore stroke } bind def
/poly0 { stroke } bind def
/poly1 { closepath gsave fill grestore stroke } bind def
/poly2 { closepath gsave fill grestore stroke } bind def
/rect0 { rectstroke } bind def
/rect1 { rectfill } bind def
/rect2 { rectfill } bind def
/linemode0 { 0 setlinecap 0 setlinejoin 0 setlinewidth } bind def
/linemode1 { 1 setlinecap 1 setlinejoin } bind def
/dashedline { [200] 100 setdash } bind def
/solidline { [] 0 setdash } bind def
/phantomshow { moveto
    /KicadFont findfont 0.000001 scalefont setfont
    show } bind def
/textshow { gsave
    findfont exch scalefont setfont concat 1 scale 0 0 moveto show
    } bind def
/reencodefont {
  findfont dup length dict begin
  { 1 index /FID ne
    { def }
    { pop pop } ifelse
  } forall
  /Encoding ISOLatin1Encoding def
  currentdict
  end } bind def
/KicadFont /Helvetica reencodefont definefont pop
/KicadFont-Bold /Helvetica-Bold reencodefont definefont pop
/KicadFont-Oblique /Helvetica-Oblique reencodefont definefont pop
/KicadFont-BoldOblique /Helvetica-BoldOblique reencodefont definefont pop
%%EndProlog
%%Page: 1 1
%%BeginPageSetup
gsave
0.0072 0.0072 scale
linemode1
82680 0 translate 90 rotate
150 setlinewidth
%%EndPageSetup
0 0 0 setrgbcolor
59.0551 setlinewidth
73819.3 73230.3 1181.1 -0 90 arc0
0 0 0 setrgbcolor
73819.3 42521.7 1181.1 -90 -0 arc0
0 0 0 setrgbcolor
43110.7 42521.7 1181.1 180 270 arc0
0 0 0 setrgbcolor
43110.7 73230.3 1181.1 90 180 arc0
0 0 0 setrgbcolor
newpath
41929.6 42521.7 moveto
41929.6 73230.3 lineto
stroke
0 0 0 setrgbcolor
newpath
73819.3 41340.6 moveto
43110.7 41340.6 lineto
stroke
0 0 0 setrgbcolor
newpath
75000.4 73230.3 moveto
75000.4 42521.7 lineto
stroke
0 0 0 setrgbcolor
newpath
43110.7 74411.4 moveto
73819.3 74411.4 lineto
stroke
78.7394 setlinewidth
118.11 setlinewidth
0 0 0 setrgbcolor
0 0 0 setrgbcolor
newpath
43027.7 39477.5 moveto
43027.7 40658.6 lineto
43308.9 40658.6 lineto
43477.7 40602.4 lineto
43590.1 40489.9 lineto
43646.4 40377.4 lineto
43702.6 40152.4 lineto
43702.6 39983.7 lineto
43646.4 39758.7 lineto
43590.1 39646.2 lineto
43477.7 39533.8 lineto
43308.9 39477.5 lineto
43027.7 39477.5 lineto
stroke
newpath
44208.8 39477.5 moveto
44208.8 40264.9 lineto
stroke
newpath
44208.8 40039.9 moveto
44265.1 40152.4 lineto
44321.3 40208.7 lineto
44433.8 40264.9 lineto
44546.3 40264.9 lineto
stroke
newpath
44940 39477.5 moveto
44940 40264.9 lineto
stroke
newpath
44940 40658.6 moveto
44883.7 40602.4 lineto
44940 40546.1 lineto
44996.2 40602.4 lineto
44940 40658.6 lineto
44940 40546.1 lineto
stroke
newpath
45671.1 39477.5 moveto
45558.6 39533.8 lineto
45502.4 39646.2 lineto
45502.4 40658.6 lineto
stroke
newpath
46289.8 39477.5 moveto
46177.3 39533.8 lineto
46121.1 39646.2 lineto
46121.1 40658.6 lineto
stroke
newpath
47639.6 39477.5 moveto
47639.6 40658.6 lineto
48033.3 39815 lineto
48427 40658.6 lineto
48427 39477.5 lineto
stroke
newpath
49495.7 39477.5 moveto
49495.7 40096.2 lineto
49439.4 40208.7 lineto
49326.9 40264.9 lineto
49102 40264.9 lineto
48989.5 40208.7 lineto
stroke
newpath
49495.7 39533.8 moveto
49383.2 39477.5 lineto
49102 39477.5 lineto
48989.5 39533.8 lineto
48933.2 39646.2 lineto
48933.2 39758.7 lineto
48989.5 39871.2 lineto
49102 39927.5 lineto
49383.2 39927.5 lineto
49495.7 39983.7 lineto
stroke
newpath
50058.1 40264.9 moveto
50058.1 39083.8 lineto
stroke
newpath
50058.1 40208.7 moveto
50170.6 40264.9 lineto
50395.5 40264.9 lineto
50508 40208.7 lineto
50564.3 40152.4 lineto
50620.5 40039.9 lineto
50620.5 39702.5 lineto
50564.3 39590 lineto
50508 39533.8 lineto
50395.5 39477.5 lineto
50170.6 39477.5 lineto
50058.1 39533.8 lineto
stroke
newpath
51126.7 39590 moveto
51182.9 39533.8 lineto
51126.7 39477.5 lineto
51070.5 39533.8 lineto
51126.7 39590 lineto
51126.7 39477.5 lineto
stroke
newpath
51126.7 40208.7 moveto
51182.9 40152.4 lineto
51126.7 40096.2 lineto
51070.5 40152.4 lineto
51126.7 40208.7 lineto
51126.7 40096.2 lineto
stroke
showpage
grestore
%%EOF
